\relax 
\providecommand\hyper@newdestlabel[2]{}
\providecommand\HyperFirstAtBeginDocument{\AtBeginDocument}
\HyperFirstAtBeginDocument{\ifx\hyper@anchor\@undefined
\global\let\oldcontentsline\contentsline
\gdef\contentsline#1#2#3#4{\oldcontentsline{#1}{#2}{#3}}
\global\let\oldnewlabel\newlabel
\gdef\newlabel#1#2{\newlabelxx{#1}#2}
\gdef\newlabelxx#1#2#3#4#5#6{\oldnewlabel{#1}{{#2}{#3}}}
\AtEndDocument{\ifx\hyper@anchor\@undefined
\let\contentsline\oldcontentsline
\let\newlabel\oldnewlabel
\fi}
\fi}
\global\let\hyper@last\relax 
\gdef\HyperFirstAtBeginDocument#1{#1}
\providecommand\HyField@AuxAddToFields[1]{}
\providecommand\HyField@AuxAddToCoFields[2]{}
\providecommand\BKM@entry[2]{}
\newlabeldata{mcid-1}{{tagabspage}{1}{tagmcabs}{1}{tagmcid}{0}}
\newlabeldata{l3pdf1}{{abspage}{1}}
\newlabeldata{mcid-2}{{tagabspage}{1}{tagmcabs}{2}{tagmcid}{1}}
\newlabeldata{l3pdf2}{{abspage}{1}}
\newlabeldata{mcid-3}{{tagabspage}{1}{tagmcabs}{3}{tagmcid}{2}}
\newlabeldata{l3pdf3}{{abspage}{1}}
\newlabeldata{mcid-4}{{tagabspage}{1}{tagmcabs}{4}{tagmcid}{3}}
\newlabeldata{l3pdf4}{{abspage}{1}}
\@writefile{nav}{\headcommand {\slideentry {0}{0}{1}{1/1}{}{0}}}
\@writefile{nav}{\headcommand {\beamer@framepages {1}{1}}}
\BKM@entry{id=1,open,dest={4F75746C696E65302E31},srcline={80}}{5C3337365C3337375C303030435C3030306F5C303030755C303030725C303030735C303030655C3030305C3034305C3030304C5C303030655C303030615C303030725C3030306E5C303030695C3030306E5C303030675C3030305C3034305C3030304F5C303030755C303030745C303030635C3030306F5C3030306D5C303030655C30303073}
\@writefile{toc}{\beamer@sectionintoc {1}{Course Learning Outcomes}{2}{0}{1}}
\@writefile{nav}{\headcommand {\beamer@sectionpages {1}{1}}}
\@writefile{nav}{\headcommand {\beamer@subsectionpages {1}{1}}}
\@writefile{nav}{\headcommand {\sectionentry {1}{Course Learning Outcomes}{2}{Course Learning Outcomes}{0}}}
\newlabeldata{mcid-26}{{tagabspage}{2}{tagmcabs}{26}{tagmcid}{19}}
\newlabeldata{l3pdf24}{{abspage}{2}}
\newlabeldata{mcid-27}{{tagabspage}{2}{tagmcabs}{27}{tagmcid}{20}}
\newlabeldata{l3pdf25}{{abspage}{2}}
\newlabeldata{mcid-28}{{tagabspage}{2}{tagmcabs}{28}{tagmcid}{21}}
\newlabeldata{l3pdf26}{{abspage}{2}}
\newlabeldata{mcid-7}{{tagabspage}{2}{tagmcabs}{7}{tagmcid}{0}}
\newlabeldata{l3pdf5}{{abspage}{2}}
\newlabeldata{mcid-8}{{tagabspage}{2}{tagmcabs}{8}{tagmcid}{1}}
\newlabeldata{l3pdf6}{{abspage}{2}}
\newlabeldata{mcid-9}{{tagabspage}{2}{tagmcabs}{9}{tagmcid}{2}}
\newlabeldata{l3pdf7}{{abspage}{2}}
\newlabeldata{mcid-11}{{tagabspage}{2}{tagmcabs}{11}{tagmcid}{4}}
\newlabeldata{l3pdf9}{{abspage}{2}}
\newlabeldata{mcid-10}{{tagabspage}{2}{tagmcabs}{10}{tagmcid}{3}}
\newlabeldata{l3pdf8}{{abspage}{2}}
\newlabeldata{mcid-13}{{tagabspage}{2}{tagmcabs}{13}{tagmcid}{6}}
\newlabeldata{l3pdf11}{{abspage}{2}}
\newlabeldata{mcid-12}{{tagabspage}{2}{tagmcabs}{12}{tagmcid}{5}}
\newlabeldata{l3pdf10}{{abspage}{2}}
\newlabeldata{mcid-15}{{tagabspage}{2}{tagmcabs}{15}{tagmcid}{8}}
\newlabeldata{l3pdf13}{{abspage}{2}}
\newlabeldata{mcid-14}{{tagabspage}{2}{tagmcabs}{14}{tagmcid}{7}}
\newlabeldata{l3pdf12}{{abspage}{2}}
\newlabeldata{mcid-17}{{tagabspage}{2}{tagmcabs}{17}{tagmcid}{10}}
\newlabeldata{l3pdf15}{{abspage}{2}}
\newlabeldata{mcid-16}{{tagabspage}{2}{tagmcabs}{16}{tagmcid}{9}}
\newlabeldata{l3pdf14}{{abspage}{2}}
\newlabeldata{mcid-18}{{tagabspage}{2}{tagmcabs}{18}{tagmcid}{11}}
\newlabeldata{l3pdf16}{{abspage}{2}}
\newlabeldata{mcid-19}{{tagabspage}{2}{tagmcabs}{19}{tagmcid}{12}}
\newlabeldata{l3pdf17}{{abspage}{2}}
\newlabeldata{mcid-21}{{tagabspage}{2}{tagmcabs}{21}{tagmcid}{14}}
\newlabeldata{l3pdf19}{{abspage}{2}}
\newlabeldata{mcid-20}{{tagabspage}{2}{tagmcabs}{20}{tagmcid}{13}}
\newlabeldata{l3pdf18}{{abspage}{2}}
\newlabeldata{mcid-23}{{tagabspage}{2}{tagmcabs}{23}{tagmcid}{16}}
\newlabeldata{l3pdf21}{{abspage}{2}}
\newlabeldata{mcid-22}{{tagabspage}{2}{tagmcabs}{22}{tagmcid}{15}}
\newlabeldata{l3pdf20}{{abspage}{2}}
\newlabeldata{mcid-25}{{tagabspage}{2}{tagmcabs}{25}{tagmcid}{18}}
\newlabeldata{l3pdf23}{{abspage}{2}}
\newlabeldata{mcid-24}{{tagabspage}{2}{tagmcabs}{24}{tagmcid}{17}}
\newlabeldata{l3pdf22}{{abspage}{2}}
\@writefile{nav}{\headcommand {\slideentry {1}{0}{1}{2/2}{}{0}}}
\@writefile{nav}{\headcommand {\beamer@framepages {2}{2}}}
\newlabeldata{mcid-54}{{tagabspage}{3}{tagmcabs}{54}{tagmcid}{23}}
\newlabeldata{l3pdf50}{{abspage}{3}}
\newlabeldata{mcid-55}{{tagabspage}{3}{tagmcabs}{55}{tagmcid}{24}}
\newlabeldata{l3pdf51}{{abspage}{3}}
\newlabeldata{mcid-56}{{tagabspage}{3}{tagmcabs}{56}{tagmcid}{25}}
\newlabeldata{l3pdf52}{{abspage}{3}}
\newlabeldata{mcid-31}{{tagabspage}{3}{tagmcabs}{31}{tagmcid}{0}}
\newlabeldata{l3pdf27}{{abspage}{3}}
\newlabeldata{mcid-32}{{tagabspage}{3}{tagmcabs}{32}{tagmcid}{1}}
\newlabeldata{l3pdf28}{{abspage}{3}}
\newlabeldata{mcid-33}{{tagabspage}{3}{tagmcabs}{33}{tagmcid}{2}}
\newlabeldata{l3pdf29}{{abspage}{3}}
\newlabeldata{mcid-34}{{tagabspage}{3}{tagmcabs}{34}{tagmcid}{3}}
\newlabeldata{l3pdf30}{{abspage}{3}}
\newlabeldata{mcid-35}{{tagabspage}{3}{tagmcabs}{35}{tagmcid}{4}}
\newlabeldata{l3pdf31}{{abspage}{3}}
\newlabeldata{mcid-36}{{tagabspage}{3}{tagmcabs}{36}{tagmcid}{5}}
\newlabeldata{l3pdf32}{{abspage}{3}}
\newlabeldata{mcid-37}{{tagabspage}{3}{tagmcabs}{37}{tagmcid}{6}}
\newlabeldata{l3pdf33}{{abspage}{3}}
\newlabeldata{mcid-38}{{tagabspage}{3}{tagmcabs}{38}{tagmcid}{7}}
\newlabeldata{l3pdf34}{{abspage}{3}}
\newlabeldata{mcid-39}{{tagabspage}{3}{tagmcabs}{39}{tagmcid}{8}}
\newlabeldata{l3pdf35}{{abspage}{3}}
\newlabeldata{mcid-40}{{tagabspage}{3}{tagmcabs}{40}{tagmcid}{9}}
\newlabeldata{l3pdf36}{{abspage}{3}}
\newlabeldata{mcid-41}{{tagabspage}{3}{tagmcabs}{41}{tagmcid}{10}}
\newlabeldata{l3pdf37}{{abspage}{3}}
\newlabeldata{mcid-42}{{tagabspage}{3}{tagmcabs}{42}{tagmcid}{11}}
\newlabeldata{l3pdf38}{{abspage}{3}}
\newlabeldata{mcid-43}{{tagabspage}{3}{tagmcabs}{43}{tagmcid}{12}}
\newlabeldata{l3pdf39}{{abspage}{3}}
\newlabeldata{mcid-44}{{tagabspage}{3}{tagmcabs}{44}{tagmcid}{13}}
\newlabeldata{l3pdf40}{{abspage}{3}}
\newlabeldata{mcid-45}{{tagabspage}{3}{tagmcabs}{45}{tagmcid}{14}}
\newlabeldata{l3pdf41}{{abspage}{3}}
\newlabeldata{mcid-46}{{tagabspage}{3}{tagmcabs}{46}{tagmcid}{15}}
\newlabeldata{l3pdf42}{{abspage}{3}}
\newlabeldata{mcid-47}{{tagabspage}{3}{tagmcabs}{47}{tagmcid}{16}}
\newlabeldata{l3pdf43}{{abspage}{3}}
\newlabeldata{mcid-48}{{tagabspage}{3}{tagmcabs}{48}{tagmcid}{17}}
\newlabeldata{l3pdf44}{{abspage}{3}}
\newlabeldata{mcid-49}{{tagabspage}{3}{tagmcabs}{49}{tagmcid}{18}}
\newlabeldata{l3pdf45}{{abspage}{3}}
\newlabeldata{mcid-50}{{tagabspage}{3}{tagmcabs}{50}{tagmcid}{19}}
\newlabeldata{l3pdf46}{{abspage}{3}}
\newlabeldata{mcid-51}{{tagabspage}{3}{tagmcabs}{51}{tagmcid}{20}}
\newlabeldata{l3pdf47}{{abspage}{3}}
\newlabeldata{mcid-52}{{tagabspage}{3}{tagmcabs}{52}{tagmcid}{21}}
\newlabeldata{l3pdf48}{{abspage}{3}}
\newlabeldata{mcid-53}{{tagabspage}{3}{tagmcabs}{53}{tagmcid}{22}}
\newlabeldata{l3pdf49}{{abspage}{3}}
\@writefile{nav}{\headcommand {\slideentry {1}{0}{2}{3/3}{}{0}}}
\@writefile{nav}{\headcommand {\beamer@framepages {3}{3}}}
\newlabeldata{mcid-66}{{tagabspage}{4}{tagmcabs}{66}{tagmcid}{7}}
\newlabeldata{l3pdf60}{{abspage}{4}}
\newlabeldata{mcid-67}{{tagabspage}{4}{tagmcabs}{67}{tagmcid}{8}}
\newlabeldata{l3pdf61}{{abspage}{4}}
\newlabeldata{mcid-68}{{tagabspage}{4}{tagmcabs}{68}{tagmcid}{9}}
\newlabeldata{l3pdf62}{{abspage}{4}}
\newlabeldata{mcid-59}{{tagabspage}{4}{tagmcabs}{59}{tagmcid}{0}}
\newlabeldata{l3pdf53}{{abspage}{4}}
\newlabeldata{mcid-60}{{tagabspage}{4}{tagmcabs}{60}{tagmcid}{1}}
\newlabeldata{l3pdf54}{{abspage}{4}}
\newlabeldata{mcid-61}{{tagabspage}{4}{tagmcabs}{61}{tagmcid}{2}}
\newlabeldata{l3pdf55}{{abspage}{4}}
\newlabeldata{mcid-62}{{tagabspage}{4}{tagmcabs}{62}{tagmcid}{3}}
\newlabeldata{l3pdf56}{{abspage}{4}}
\newlabeldata{mcid-63}{{tagabspage}{4}{tagmcabs}{63}{tagmcid}{4}}
\newlabeldata{l3pdf57}{{abspage}{4}}
\newlabeldata{mcid-64}{{tagabspage}{4}{tagmcabs}{64}{tagmcid}{5}}
\newlabeldata{l3pdf58}{{abspage}{4}}
\newlabeldata{mcid-65}{{tagabspage}{4}{tagmcabs}{65}{tagmcid}{6}}
\newlabeldata{l3pdf59}{{abspage}{4}}
\@writefile{nav}{\headcommand {\slideentry {1}{0}{3}{4/4}{}{0}}}
\@writefile{nav}{\headcommand {\beamer@framepages {4}{4}}}
\newlabeldata{mcid-73}{{tagabspage}{5}{tagmcabs}{73}{tagmcid}{2}}
\newlabeldata{l3pdf65}{{abspage}{5}}
\newlabeldata{mcid-74}{{tagabspage}{5}{tagmcabs}{74}{tagmcid}{3}}
\newlabeldata{l3pdf66}{{abspage}{5}}
\newlabeldata{mcid-75}{{tagabspage}{5}{tagmcabs}{75}{tagmcid}{4}}
\newlabeldata{l3pdf67}{{abspage}{5}}
\newlabeldata{mcid-71}{{tagabspage}{5}{tagmcabs}{71}{tagmcid}{0}}
\newlabeldata{l3pdf63}{{abspage}{5}}
\newlabeldata{mcid-72}{{tagabspage}{5}{tagmcabs}{72}{tagmcid}{1}}
\newlabeldata{l3pdf64}{{abspage}{5}}
\@writefile{nav}{\headcommand {\slideentry {1}{0}{4}{5/5}{}{0}}}
\@writefile{nav}{\headcommand {\beamer@framepages {5}{5}}}
\newlabeldata{mcid-80}{{tagabspage}{6}{tagmcabs}{80}{tagmcid}{2}}
\newlabeldata{l3pdf70}{{abspage}{6}}
\newlabeldata{mcid-81}{{tagabspage}{6}{tagmcabs}{81}{tagmcid}{3}}
\newlabeldata{l3pdf71}{{abspage}{6}}
\newlabeldata{mcid-82}{{tagabspage}{6}{tagmcabs}{82}{tagmcid}{4}}
\newlabeldata{l3pdf72}{{abspage}{6}}
\newlabeldata{mcid-78}{{tagabspage}{6}{tagmcabs}{78}{tagmcid}{0}}
\newlabeldata{l3pdf68}{{abspage}{6}}
\newlabeldata{mcid-79}{{tagabspage}{6}{tagmcabs}{79}{tagmcid}{1}}
\newlabeldata{l3pdf69}{{abspage}{6}}
\@writefile{nav}{\headcommand {\slideentry {1}{0}{5}{6/6}{}{0}}}
\@writefile{nav}{\headcommand {\beamer@framepages {6}{6}}}
\newlabeldata{mcid-92}{{tagabspage}{7}{tagmcabs}{92}{tagmcid}{7}}
\newlabeldata{l3pdf80}{{abspage}{7}}
\newlabeldata{mcid-93}{{tagabspage}{7}{tagmcabs}{93}{tagmcid}{8}}
\newlabeldata{l3pdf81}{{abspage}{7}}
\newlabeldata{mcid-94}{{tagabspage}{7}{tagmcabs}{94}{tagmcid}{9}}
\newlabeldata{l3pdf82}{{abspage}{7}}
\newlabeldata{mcid-85}{{tagabspage}{7}{tagmcabs}{85}{tagmcid}{0}}
\newlabeldata{l3pdf73}{{abspage}{7}}
\newlabeldata{mcid-86}{{tagabspage}{7}{tagmcabs}{86}{tagmcid}{1}}
\newlabeldata{l3pdf74}{{abspage}{7}}
\newlabeldata{mcid-87}{{tagabspage}{7}{tagmcabs}{87}{tagmcid}{2}}
\newlabeldata{l3pdf75}{{abspage}{7}}
\newlabeldata{mcid-88}{{tagabspage}{7}{tagmcabs}{88}{tagmcid}{3}}
\newlabeldata{l3pdf76}{{abspage}{7}}
\newlabeldata{mcid-89}{{tagabspage}{7}{tagmcabs}{89}{tagmcid}{4}}
\newlabeldata{l3pdf77}{{abspage}{7}}
\newlabeldata{mcid-90}{{tagabspage}{7}{tagmcabs}{90}{tagmcid}{5}}
\newlabeldata{l3pdf78}{{abspage}{7}}
\newlabeldata{mcid-91}{{tagabspage}{7}{tagmcabs}{91}{tagmcid}{6}}
\newlabeldata{l3pdf79}{{abspage}{7}}
\@writefile{nav}{\headcommand {\slideentry {1}{0}{6}{7/7}{}{0}}}
\@writefile{nav}{\headcommand {\beamer@framepages {7}{7}}}
\newlabeldata{mcid-99}{{tagabspage}{8}{tagmcabs}{99}{tagmcid}{2}}
\newlabeldata{l3pdf85}{{abspage}{8}}
\newlabeldata{mcid-100}{{tagabspage}{8}{tagmcabs}{100}{tagmcid}{3}}
\newlabeldata{l3pdf86}{{abspage}{8}}
\newlabeldata{mcid-101}{{tagabspage}{8}{tagmcabs}{101}{tagmcid}{4}}
\newlabeldata{l3pdf87}{{abspage}{8}}
\newlabeldata{mcid-97}{{tagabspage}{8}{tagmcabs}{97}{tagmcid}{0}}
\newlabeldata{l3pdf83}{{abspage}{8}}
\newlabeldata{mcid-98}{{tagabspage}{8}{tagmcabs}{98}{tagmcid}{1}}
\newlabeldata{l3pdf84}{{abspage}{8}}
\@writefile{nav}{\headcommand {\slideentry {1}{0}{7}{8/8}{}{0}}}
\@writefile{nav}{\headcommand {\beamer@framepages {8}{8}}}
\newlabeldata{mcid-110}{{tagabspage}{9}{tagmcabs}{110}{tagmcid}{6}}
\newlabeldata{l3pdf94}{{abspage}{9}}
\newlabeldata{mcid-111}{{tagabspage}{9}{tagmcabs}{111}{tagmcid}{7}}
\newlabeldata{l3pdf95}{{abspage}{9}}
\newlabeldata{mcid-112}{{tagabspage}{9}{tagmcabs}{112}{tagmcid}{8}}
\newlabeldata{l3pdf96}{{abspage}{9}}
\newlabeldata{mcid-104}{{tagabspage}{9}{tagmcabs}{104}{tagmcid}{0}}
\newlabeldata{l3pdf88}{{abspage}{9}}
\newlabeldata{mcid-105}{{tagabspage}{9}{tagmcabs}{105}{tagmcid}{1}}
\newlabeldata{l3pdf89}{{abspage}{9}}
\newlabeldata{mcid-106}{{tagabspage}{9}{tagmcabs}{106}{tagmcid}{2}}
\newlabeldata{l3pdf90}{{abspage}{9}}
\newlabeldata{mcid-107}{{tagabspage}{9}{tagmcabs}{107}{tagmcid}{3}}
\newlabeldata{l3pdf91}{{abspage}{9}}
\newlabeldata{mcid-108}{{tagabspage}{9}{tagmcabs}{108}{tagmcid}{4}}
\newlabeldata{l3pdf92}{{abspage}{9}}
\newlabeldata{mcid-109}{{tagabspage}{9}{tagmcabs}{109}{tagmcid}{5}}
\newlabeldata{l3pdf93}{{abspage}{9}}
\@writefile{nav}{\headcommand {\slideentry {1}{0}{8}{9/9}{}{0}}}
\@writefile{nav}{\headcommand {\beamer@framepages {9}{9}}}
\newlabeldata{mcid-125}{{tagabspage}{10}{tagmcabs}{125}{tagmcid}{10}}
\newlabeldata{l3pdf107}{{abspage}{10}}
\newlabeldata{mcid-126}{{tagabspage}{10}{tagmcabs}{126}{tagmcid}{11}}
\newlabeldata{l3pdf108}{{abspage}{10}}
\newlabeldata{mcid-127}{{tagabspage}{10}{tagmcabs}{127}{tagmcid}{12}}
\newlabeldata{l3pdf109}{{abspage}{10}}
\newlabeldata{mcid-115}{{tagabspage}{10}{tagmcabs}{115}{tagmcid}{0}}
\newlabeldata{l3pdf97}{{abspage}{10}}
\newlabeldata{mcid-116}{{tagabspage}{10}{tagmcabs}{116}{tagmcid}{1}}
\newlabeldata{l3pdf98}{{abspage}{10}}
\newlabeldata{mcid-117}{{tagabspage}{10}{tagmcabs}{117}{tagmcid}{2}}
\newlabeldata{l3pdf99}{{abspage}{10}}
\newlabeldata{mcid-118}{{tagabspage}{10}{tagmcabs}{118}{tagmcid}{3}}
\newlabeldata{l3pdf100}{{abspage}{10}}
\newlabeldata{mcid-119}{{tagabspage}{10}{tagmcabs}{119}{tagmcid}{4}}
\newlabeldata{l3pdf101}{{abspage}{10}}
\newlabeldata{mcid-120}{{tagabspage}{10}{tagmcabs}{120}{tagmcid}{5}}
\newlabeldata{l3pdf102}{{abspage}{10}}
\newlabeldata{mcid-121}{{tagabspage}{10}{tagmcabs}{121}{tagmcid}{6}}
\newlabeldata{l3pdf103}{{abspage}{10}}
\newlabeldata{mcid-122}{{tagabspage}{10}{tagmcabs}{122}{tagmcid}{7}}
\newlabeldata{l3pdf104}{{abspage}{10}}
\newlabeldata{mcid-123}{{tagabspage}{10}{tagmcabs}{123}{tagmcid}{8}}
\newlabeldata{l3pdf105}{{abspage}{10}}
\newlabeldata{mcid-124}{{tagabspage}{10}{tagmcabs}{124}{tagmcid}{9}}
\newlabeldata{l3pdf106}{{abspage}{10}}
\@writefile{nav}{\headcommand {\slideentry {1}{0}{9}{10/10}{}{0}}}
\@writefile{nav}{\headcommand {\beamer@framepages {10}{10}}}
\newlabeldata{mcid-138}{{tagabspage}{11}{tagmcabs}{138}{tagmcid}{8}}
\newlabeldata{l3pdf118}{{abspage}{11}}
\newlabeldata{mcid-139}{{tagabspage}{11}{tagmcabs}{139}{tagmcid}{9}}
\newlabeldata{l3pdf119}{{abspage}{11}}
\newlabeldata{mcid-140}{{tagabspage}{11}{tagmcabs}{140}{tagmcid}{10}}
\newlabeldata{l3pdf120}{{abspage}{11}}
\newlabeldata{mcid-130}{{tagabspage}{11}{tagmcabs}{130}{tagmcid}{0}}
\newlabeldata{l3pdf110}{{abspage}{11}}
\newlabeldata{mcid-131}{{tagabspage}{11}{tagmcabs}{131}{tagmcid}{1}}
\newlabeldata{l3pdf111}{{abspage}{11}}
\newlabeldata{mcid-132}{{tagabspage}{11}{tagmcabs}{132}{tagmcid}{2}}
\newlabeldata{l3pdf112}{{abspage}{11}}
\newlabeldata{mcid-133}{{tagabspage}{11}{tagmcabs}{133}{tagmcid}{3}}
\newlabeldata{l3pdf113}{{abspage}{11}}
\newlabeldata{mcid-134}{{tagabspage}{11}{tagmcabs}{134}{tagmcid}{4}}
\newlabeldata{l3pdf114}{{abspage}{11}}
\newlabeldata{mcid-135}{{tagabspage}{11}{tagmcabs}{135}{tagmcid}{5}}
\newlabeldata{l3pdf115}{{abspage}{11}}
\newlabeldata{mcid-136}{{tagabspage}{11}{tagmcabs}{136}{tagmcid}{6}}
\newlabeldata{l3pdf116}{{abspage}{11}}
\newlabeldata{mcid-137}{{tagabspage}{11}{tagmcabs}{137}{tagmcid}{7}}
\newlabeldata{l3pdf117}{{abspage}{11}}
\@writefile{nav}{\headcommand {\slideentry {1}{0}{10}{11/11}{}{0}}}
\@writefile{nav}{\headcommand {\beamer@framepages {11}{11}}}
\newlabeldata{mcid-145}{{tagabspage}{12}{tagmcabs}{145}{tagmcid}{2}}
\newlabeldata{l3pdf123}{{abspage}{12}}
\newlabeldata{mcid-146}{{tagabspage}{12}{tagmcabs}{146}{tagmcid}{3}}
\newlabeldata{l3pdf124}{{abspage}{12}}
\newlabeldata{mcid-147}{{tagabspage}{12}{tagmcabs}{147}{tagmcid}{4}}
\newlabeldata{l3pdf125}{{abspage}{12}}
\newlabeldata{mcid-143}{{tagabspage}{12}{tagmcabs}{143}{tagmcid}{0}}
\newlabeldata{l3pdf121}{{abspage}{12}}
\newlabeldata{mcid-144}{{tagabspage}{12}{tagmcabs}{144}{tagmcid}{1}}
\newlabeldata{l3pdf122}{{abspage}{12}}
\@writefile{nav}{\headcommand {\slideentry {1}{0}{11}{12/12}{}{0}}}
\@writefile{nav}{\headcommand {\beamer@framepages {12}{12}}}
\newlabeldata{mcid-154}{{tagabspage}{13}{tagmcabs}{154}{tagmcid}{4}}
\newlabeldata{l3pdf130}{{abspage}{13}}
\newlabeldata{mcid-155}{{tagabspage}{13}{tagmcabs}{155}{tagmcid}{5}}
\newlabeldata{l3pdf131}{{abspage}{13}}
\newlabeldata{mcid-156}{{tagabspage}{13}{tagmcabs}{156}{tagmcid}{6}}
\newlabeldata{l3pdf132}{{abspage}{13}}
\newlabeldata{mcid-150}{{tagabspage}{13}{tagmcabs}{150}{tagmcid}{0}}
\newlabeldata{l3pdf126}{{abspage}{13}}
\newlabeldata{mcid-151}{{tagabspage}{13}{tagmcabs}{151}{tagmcid}{1}}
\newlabeldata{l3pdf127}{{abspage}{13}}
\newlabeldata{mcid-152}{{tagabspage}{13}{tagmcabs}{152}{tagmcid}{2}}
\newlabeldata{l3pdf128}{{abspage}{13}}
\newlabeldata{mcid-153}{{tagabspage}{13}{tagmcabs}{153}{tagmcid}{3}}
\newlabeldata{l3pdf129}{{abspage}{13}}
\@writefile{nav}{\headcommand {\slideentry {1}{0}{12}{13/13}{}{0}}}
\@writefile{nav}{\headcommand {\beamer@framepages {13}{13}}}
\newlabeldata{mcid-161}{{tagabspage}{14}{tagmcabs}{161}{tagmcid}{2}}
\newlabeldata{l3pdf135}{{abspage}{14}}
\newlabeldata{mcid-162}{{tagabspage}{14}{tagmcabs}{162}{tagmcid}{3}}
\newlabeldata{l3pdf136}{{abspage}{14}}
\newlabeldata{mcid-163}{{tagabspage}{14}{tagmcabs}{163}{tagmcid}{4}}
\newlabeldata{l3pdf137}{{abspage}{14}}
\newlabeldata{mcid-159}{{tagabspage}{14}{tagmcabs}{159}{tagmcid}{0}}
\newlabeldata{l3pdf133}{{abspage}{14}}
\newlabeldata{mcid-160}{{tagabspage}{14}{tagmcabs}{160}{tagmcid}{1}}
\newlabeldata{l3pdf134}{{abspage}{14}}
\@writefile{nav}{\headcommand {\slideentry {1}{0}{13}{14/14}{}{0}}}
\@writefile{nav}{\headcommand {\beamer@framepages {14}{14}}}
\newlabeldata{mcid-168}{{tagabspage}{15}{tagmcabs}{168}{tagmcid}{2}}
\newlabeldata{l3pdf140}{{abspage}{15}}
\newlabeldata{mcid-169}{{tagabspage}{15}{tagmcabs}{169}{tagmcid}{3}}
\newlabeldata{l3pdf141}{{abspage}{15}}
\newlabeldata{mcid-170}{{tagabspage}{15}{tagmcabs}{170}{tagmcid}{4}}
\newlabeldata{l3pdf142}{{abspage}{15}}
\newlabeldata{mcid-166}{{tagabspage}{15}{tagmcabs}{166}{tagmcid}{0}}
\newlabeldata{l3pdf138}{{abspage}{15}}
\newlabeldata{mcid-167}{{tagabspage}{15}{tagmcabs}{167}{tagmcid}{1}}
\newlabeldata{l3pdf139}{{abspage}{15}}
\@writefile{nav}{\headcommand {\slideentry {1}{0}{14}{15/15}{}{0}}}
\@writefile{nav}{\headcommand {\beamer@framepages {15}{15}}}
\newlabeldata{mcid-175}{{tagabspage}{16}{tagmcabs}{175}{tagmcid}{2}}
\newlabeldata{l3pdf145}{{abspage}{16}}
\newlabeldata{mcid-176}{{tagabspage}{16}{tagmcabs}{176}{tagmcid}{3}}
\newlabeldata{l3pdf146}{{abspage}{16}}
\newlabeldata{mcid-177}{{tagabspage}{16}{tagmcabs}{177}{tagmcid}{4}}
\newlabeldata{l3pdf147}{{abspage}{16}}
\newlabeldata{mcid-173}{{tagabspage}{16}{tagmcabs}{173}{tagmcid}{0}}
\newlabeldata{l3pdf143}{{abspage}{16}}
\newlabeldata{mcid-174}{{tagabspage}{16}{tagmcabs}{174}{tagmcid}{1}}
\newlabeldata{l3pdf144}{{abspage}{16}}
\@writefile{nav}{\headcommand {\slideentry {1}{0}{15}{16/16}{}{0}}}
\@writefile{nav}{\headcommand {\beamer@framepages {16}{16}}}
\newlabeldata{mcid-215}{{tagabspage}{17}{tagmcabs}{215}{tagmcid}{35}}
\newlabeldata{l3pdf183}{{abspage}{17}}
\newlabeldata{mcid-216}{{tagabspage}{17}{tagmcabs}{216}{tagmcid}{36}}
\newlabeldata{l3pdf184}{{abspage}{17}}
\newlabeldata{mcid-217}{{tagabspage}{17}{tagmcabs}{217}{tagmcid}{37}}
\newlabeldata{l3pdf185}{{abspage}{17}}
\newlabeldata{mcid-180}{{tagabspage}{17}{tagmcabs}{180}{tagmcid}{0}}
\newlabeldata{l3pdf148}{{abspage}{17}}
\newlabeldata{mcid-181}{{tagabspage}{17}{tagmcabs}{181}{tagmcid}{1}}
\newlabeldata{l3pdf149}{{abspage}{17}}
\newlabeldata{mcid-182}{{tagabspage}{17}{tagmcabs}{182}{tagmcid}{2}}
\newlabeldata{l3pdf150}{{abspage}{17}}
\newlabeldata{mcid-183}{{tagabspage}{17}{tagmcabs}{183}{tagmcid}{3}}
\newlabeldata{l3pdf151}{{abspage}{17}}
\newlabeldata{mcid-184}{{tagabspage}{17}{tagmcabs}{184}{tagmcid}{4}}
\newlabeldata{l3pdf152}{{abspage}{17}}
\newlabeldata{mcid-185}{{tagabspage}{17}{tagmcabs}{185}{tagmcid}{5}}
\newlabeldata{l3pdf153}{{abspage}{17}}
\newlabeldata{mcid-186}{{tagabspage}{17}{tagmcabs}{186}{tagmcid}{6}}
\newlabeldata{l3pdf154}{{abspage}{17}}
\newlabeldata{mcid-187}{{tagabspage}{17}{tagmcabs}{187}{tagmcid}{7}}
\newlabeldata{l3pdf155}{{abspage}{17}}
\newlabeldata{mcid-188}{{tagabspage}{17}{tagmcabs}{188}{tagmcid}{8}}
\newlabeldata{l3pdf156}{{abspage}{17}}
\newlabeldata{mcid-189}{{tagabspage}{17}{tagmcabs}{189}{tagmcid}{9}}
\newlabeldata{l3pdf157}{{abspage}{17}}
\newlabeldata{mcid-190}{{tagabspage}{17}{tagmcabs}{190}{tagmcid}{10}}
\newlabeldata{l3pdf158}{{abspage}{17}}
\newlabeldata{mcid-191}{{tagabspage}{17}{tagmcabs}{191}{tagmcid}{11}}
\newlabeldata{l3pdf159}{{abspage}{17}}
\newlabeldata{mcid-192}{{tagabspage}{17}{tagmcabs}{192}{tagmcid}{12}}
\newlabeldata{l3pdf160}{{abspage}{17}}
\newlabeldata{mcid-193}{{tagabspage}{17}{tagmcabs}{193}{tagmcid}{13}}
\newlabeldata{l3pdf161}{{abspage}{17}}
\newlabeldata{mcid-194}{{tagabspage}{17}{tagmcabs}{194}{tagmcid}{14}}
\newlabeldata{l3pdf162}{{abspage}{17}}
\newlabeldata{mcid-195}{{tagabspage}{17}{tagmcabs}{195}{tagmcid}{15}}
\newlabeldata{l3pdf163}{{abspage}{17}}
\newlabeldata{mcid-196}{{tagabspage}{17}{tagmcabs}{196}{tagmcid}{16}}
\newlabeldata{l3pdf164}{{abspage}{17}}
\newlabeldata{mcid-197}{{tagabspage}{17}{tagmcabs}{197}{tagmcid}{17}}
\newlabeldata{l3pdf165}{{abspage}{17}}
\newlabeldata{mcid-198}{{tagabspage}{17}{tagmcabs}{198}{tagmcid}{18}}
\newlabeldata{l3pdf166}{{abspage}{17}}
\newlabeldata{mcid-199}{{tagabspage}{17}{tagmcabs}{199}{tagmcid}{19}}
\newlabeldata{l3pdf167}{{abspage}{17}}
\newlabeldata{mcid-200}{{tagabspage}{17}{tagmcabs}{200}{tagmcid}{20}}
\newlabeldata{l3pdf168}{{abspage}{17}}
\newlabeldata{mcid-201}{{tagabspage}{17}{tagmcabs}{201}{tagmcid}{21}}
\newlabeldata{l3pdf169}{{abspage}{17}}
\newlabeldata{mcid-202}{{tagabspage}{17}{tagmcabs}{202}{tagmcid}{22}}
\newlabeldata{l3pdf170}{{abspage}{17}}
\newlabeldata{mcid-203}{{tagabspage}{17}{tagmcabs}{203}{tagmcid}{23}}
\newlabeldata{l3pdf171}{{abspage}{17}}
\newlabeldata{mcid-204}{{tagabspage}{17}{tagmcabs}{204}{tagmcid}{24}}
\newlabeldata{l3pdf172}{{abspage}{17}}
\newlabeldata{mcid-205}{{tagabspage}{17}{tagmcabs}{205}{tagmcid}{25}}
\newlabeldata{l3pdf173}{{abspage}{17}}
\newlabeldata{mcid-206}{{tagabspage}{17}{tagmcabs}{206}{tagmcid}{26}}
\newlabeldata{l3pdf174}{{abspage}{17}}
\newlabeldata{mcid-207}{{tagabspage}{17}{tagmcabs}{207}{tagmcid}{27}}
\newlabeldata{l3pdf175}{{abspage}{17}}
\newlabeldata{mcid-208}{{tagabspage}{17}{tagmcabs}{208}{tagmcid}{28}}
\newlabeldata{l3pdf176}{{abspage}{17}}
\newlabeldata{mcid-209}{{tagabspage}{17}{tagmcabs}{209}{tagmcid}{29}}
\newlabeldata{l3pdf177}{{abspage}{17}}
\newlabeldata{mcid-210}{{tagabspage}{17}{tagmcabs}{210}{tagmcid}{30}}
\newlabeldata{l3pdf178}{{abspage}{17}}
\newlabeldata{mcid-211}{{tagabspage}{17}{tagmcabs}{211}{tagmcid}{31}}
\newlabeldata{l3pdf179}{{abspage}{17}}
\newlabeldata{mcid-212}{{tagabspage}{17}{tagmcabs}{212}{tagmcid}{32}}
\newlabeldata{l3pdf180}{{abspage}{17}}
\newlabeldata{mcid-213}{{tagabspage}{17}{tagmcabs}{213}{tagmcid}{33}}
\newlabeldata{l3pdf181}{{abspage}{17}}
\newlabeldata{mcid-214}{{tagabspage}{17}{tagmcabs}{214}{tagmcid}{34}}
\newlabeldata{l3pdf182}{{abspage}{17}}
\@writefile{nav}{\headcommand {\slideentry {1}{0}{16}{17/17}{}{0}}}
\@writefile{nav}{\headcommand {\beamer@framepages {17}{17}}}
\newlabeldata{mcid-246}{{tagabspage}{18}{tagmcabs}{246}{tagmcid}{26}}
\newlabeldata{l3pdf212}{{abspage}{18}}
\newlabeldata{mcid-247}{{tagabspage}{18}{tagmcabs}{247}{tagmcid}{27}}
\newlabeldata{l3pdf213}{{abspage}{18}}
\newlabeldata{mcid-248}{{tagabspage}{18}{tagmcabs}{248}{tagmcid}{28}}
\newlabeldata{l3pdf214}{{abspage}{18}}
\newlabeldata{mcid-220}{{tagabspage}{18}{tagmcabs}{220}{tagmcid}{0}}
\newlabeldata{l3pdf186}{{abspage}{18}}
\newlabeldata{mcid-221}{{tagabspage}{18}{tagmcabs}{221}{tagmcid}{1}}
\newlabeldata{l3pdf187}{{abspage}{18}}
\newlabeldata{mcid-222}{{tagabspage}{18}{tagmcabs}{222}{tagmcid}{2}}
\newlabeldata{l3pdf188}{{abspage}{18}}
\newlabeldata{mcid-223}{{tagabspage}{18}{tagmcabs}{223}{tagmcid}{3}}
\newlabeldata{l3pdf189}{{abspage}{18}}
\newlabeldata{mcid-224}{{tagabspage}{18}{tagmcabs}{224}{tagmcid}{4}}
\newlabeldata{l3pdf190}{{abspage}{18}}
\newlabeldata{mcid-225}{{tagabspage}{18}{tagmcabs}{225}{tagmcid}{5}}
\newlabeldata{l3pdf191}{{abspage}{18}}
\newlabeldata{mcid-226}{{tagabspage}{18}{tagmcabs}{226}{tagmcid}{6}}
\newlabeldata{l3pdf192}{{abspage}{18}}
\newlabeldata{mcid-227}{{tagabspage}{18}{tagmcabs}{227}{tagmcid}{7}}
\newlabeldata{l3pdf193}{{abspage}{18}}
\newlabeldata{mcid-228}{{tagabspage}{18}{tagmcabs}{228}{tagmcid}{8}}
\newlabeldata{l3pdf194}{{abspage}{18}}
\newlabeldata{mcid-229}{{tagabspage}{18}{tagmcabs}{229}{tagmcid}{9}}
\newlabeldata{l3pdf195}{{abspage}{18}}
\newlabeldata{mcid-230}{{tagabspage}{18}{tagmcabs}{230}{tagmcid}{10}}
\newlabeldata{l3pdf196}{{abspage}{18}}
\newlabeldata{mcid-231}{{tagabspage}{18}{tagmcabs}{231}{tagmcid}{11}}
\newlabeldata{l3pdf197}{{abspage}{18}}
\newlabeldata{mcid-232}{{tagabspage}{18}{tagmcabs}{232}{tagmcid}{12}}
\newlabeldata{l3pdf198}{{abspage}{18}}
\newlabeldata{mcid-233}{{tagabspage}{18}{tagmcabs}{233}{tagmcid}{13}}
\newlabeldata{l3pdf199}{{abspage}{18}}
\newlabeldata{mcid-234}{{tagabspage}{18}{tagmcabs}{234}{tagmcid}{14}}
\newlabeldata{l3pdf200}{{abspage}{18}}
\newlabeldata{mcid-235}{{tagabspage}{18}{tagmcabs}{235}{tagmcid}{15}}
\newlabeldata{l3pdf201}{{abspage}{18}}
\newlabeldata{mcid-236}{{tagabspage}{18}{tagmcabs}{236}{tagmcid}{16}}
\newlabeldata{l3pdf202}{{abspage}{18}}
\newlabeldata{mcid-237}{{tagabspage}{18}{tagmcabs}{237}{tagmcid}{17}}
\newlabeldata{l3pdf203}{{abspage}{18}}
\newlabeldata{mcid-238}{{tagabspage}{18}{tagmcabs}{238}{tagmcid}{18}}
\newlabeldata{l3pdf204}{{abspage}{18}}
\newlabeldata{mcid-239}{{tagabspage}{18}{tagmcabs}{239}{tagmcid}{19}}
\newlabeldata{l3pdf205}{{abspage}{18}}
\newlabeldata{mcid-240}{{tagabspage}{18}{tagmcabs}{240}{tagmcid}{20}}
\newlabeldata{l3pdf206}{{abspage}{18}}
\newlabeldata{mcid-241}{{tagabspage}{18}{tagmcabs}{241}{tagmcid}{21}}
\newlabeldata{l3pdf207}{{abspage}{18}}
\newlabeldata{mcid-242}{{tagabspage}{18}{tagmcabs}{242}{tagmcid}{22}}
\newlabeldata{l3pdf208}{{abspage}{18}}
\newlabeldata{mcid-243}{{tagabspage}{18}{tagmcabs}{243}{tagmcid}{23}}
\newlabeldata{l3pdf209}{{abspage}{18}}
\newlabeldata{mcid-244}{{tagabspage}{18}{tagmcabs}{244}{tagmcid}{24}}
\newlabeldata{l3pdf210}{{abspage}{18}}
\newlabeldata{mcid-245}{{tagabspage}{18}{tagmcabs}{245}{tagmcid}{25}}
\newlabeldata{l3pdf211}{{abspage}{18}}
\@writefile{nav}{\headcommand {\slideentry {1}{0}{17}{18/18}{}{0}}}
\@writefile{nav}{\headcommand {\beamer@framepages {18}{18}}}
\newlabeldata{mcid-273}{{tagabspage}{19}{tagmcabs}{273}{tagmcid}{21}}
\newlabeldata{l3pdf237}{{abspage}{19}}
\newlabeldata{mcid-274}{{tagabspage}{19}{tagmcabs}{274}{tagmcid}{22}}
\newlabeldata{l3pdf238}{{abspage}{19}}
\newlabeldata{mcid-275}{{tagabspage}{19}{tagmcabs}{275}{tagmcid}{23}}
\newlabeldata{l3pdf239}{{abspage}{19}}
\newlabeldata{mcid-251}{{tagabspage}{19}{tagmcabs}{251}{tagmcid}{0}}
\newlabeldata{l3pdf215}{{abspage}{19}}
\newlabeldata{mcid-252}{{tagabspage}{19}{tagmcabs}{252}{tagmcid}{0}}
\newlabeldata{l3pdf216}{{abspage}{19}}
\newlabeldata{mcid-253}{{tagabspage}{19}{tagmcabs}{253}{tagmcid}{1}}
\newlabeldata{l3pdf217}{{abspage}{19}}
\newlabeldata{mcid-254}{{tagabspage}{19}{tagmcabs}{254}{tagmcid}{2}}
\newlabeldata{l3pdf218}{{abspage}{19}}
\newlabeldata{mcid-255}{{tagabspage}{19}{tagmcabs}{255}{tagmcid}{3}}
\newlabeldata{l3pdf219}{{abspage}{19}}
\newlabeldata{mcid-256}{{tagabspage}{19}{tagmcabs}{256}{tagmcid}{4}}
\newlabeldata{l3pdf220}{{abspage}{19}}
\newlabeldata{mcid-257}{{tagabspage}{19}{tagmcabs}{257}{tagmcid}{5}}
\newlabeldata{l3pdf221}{{abspage}{19}}
\newlabeldata{mcid-258}{{tagabspage}{19}{tagmcabs}{258}{tagmcid}{6}}
\newlabeldata{l3pdf222}{{abspage}{19}}
\newlabeldata{mcid-259}{{tagabspage}{19}{tagmcabs}{259}{tagmcid}{7}}
\newlabeldata{l3pdf223}{{abspage}{19}}
\newlabeldata{mcid-260}{{tagabspage}{19}{tagmcabs}{260}{tagmcid}{8}}
\newlabeldata{l3pdf224}{{abspage}{19}}
\newlabeldata{mcid-261}{{tagabspage}{19}{tagmcabs}{261}{tagmcid}{9}}
\newlabeldata{l3pdf225}{{abspage}{19}}
\newlabeldata{mcid-262}{{tagabspage}{19}{tagmcabs}{262}{tagmcid}{10}}
\newlabeldata{l3pdf226}{{abspage}{19}}
\newlabeldata{mcid-263}{{tagabspage}{19}{tagmcabs}{263}{tagmcid}{11}}
\newlabeldata{l3pdf227}{{abspage}{19}}
\newlabeldata{mcid-264}{{tagabspage}{19}{tagmcabs}{264}{tagmcid}{12}}
\newlabeldata{l3pdf228}{{abspage}{19}}
\newlabeldata{mcid-265}{{tagabspage}{19}{tagmcabs}{265}{tagmcid}{13}}
\newlabeldata{l3pdf229}{{abspage}{19}}
\newlabeldata{mcid-266}{{tagabspage}{19}{tagmcabs}{266}{tagmcid}{14}}
\newlabeldata{l3pdf230}{{abspage}{19}}
\newlabeldata{mcid-267}{{tagabspage}{19}{tagmcabs}{267}{tagmcid}{15}}
\newlabeldata{l3pdf231}{{abspage}{19}}
\newlabeldata{mcid-268}{{tagabspage}{19}{tagmcabs}{268}{tagmcid}{16}}
\newlabeldata{l3pdf232}{{abspage}{19}}
\newlabeldata{mcid-269}{{tagabspage}{19}{tagmcabs}{269}{tagmcid}{17}}
\newlabeldata{l3pdf233}{{abspage}{19}}
\newlabeldata{mcid-270}{{tagabspage}{19}{tagmcabs}{270}{tagmcid}{18}}
\newlabeldata{l3pdf234}{{abspage}{19}}
\newlabeldata{mcid-271}{{tagabspage}{19}{tagmcabs}{271}{tagmcid}{19}}
\newlabeldata{l3pdf235}{{abspage}{19}}
\newlabeldata{mcid-272}{{tagabspage}{19}{tagmcabs}{272}{tagmcid}{20}}
\newlabeldata{l3pdf236}{{abspage}{19}}
\@writefile{nav}{\headcommand {\slideentry {1}{0}{18}{19/19}{}{0}}}
\@writefile{nav}{\headcommand {\beamer@framepages {19}{19}}}
\newlabeldata{mcid-301}{{tagabspage}{20}{tagmcabs}{301}{tagmcid}{22}}
\newlabeldata{l3pdf263}{{abspage}{20}}
\newlabeldata{mcid-302}{{tagabspage}{20}{tagmcabs}{302}{tagmcid}{23}}
\newlabeldata{l3pdf264}{{abspage}{20}}
\newlabeldata{mcid-303}{{tagabspage}{20}{tagmcabs}{303}{tagmcid}{24}}
\newlabeldata{l3pdf265}{{abspage}{20}}
\newlabeldata{mcid-278}{{tagabspage}{20}{tagmcabs}{278}{tagmcid}{1}}
\newlabeldata{l3pdf240}{{abspage}{20}}
\newlabeldata{mcid-279}{{tagabspage}{20}{tagmcabs}{279}{tagmcid}{0}}
\newlabeldata{l3pdf241}{{abspage}{20}}
\newlabeldata{mcid-280}{{tagabspage}{20}{tagmcabs}{280}{tagmcid}{1}}
\newlabeldata{l3pdf242}{{abspage}{20}}
\newlabeldata{mcid-281}{{tagabspage}{20}{tagmcabs}{281}{tagmcid}{2}}
\newlabeldata{l3pdf243}{{abspage}{20}}
\newlabeldata{mcid-282}{{tagabspage}{20}{tagmcabs}{282}{tagmcid}{3}}
\newlabeldata{l3pdf244}{{abspage}{20}}
\newlabeldata{mcid-283}{{tagabspage}{20}{tagmcabs}{283}{tagmcid}{4}}
\newlabeldata{l3pdf245}{{abspage}{20}}
\newlabeldata{mcid-284}{{tagabspage}{20}{tagmcabs}{284}{tagmcid}{5}}
\newlabeldata{l3pdf246}{{abspage}{20}}
\newlabeldata{mcid-285}{{tagabspage}{20}{tagmcabs}{285}{tagmcid}{6}}
\newlabeldata{l3pdf247}{{abspage}{20}}
\newlabeldata{mcid-286}{{tagabspage}{20}{tagmcabs}{286}{tagmcid}{7}}
\newlabeldata{l3pdf248}{{abspage}{20}}
\newlabeldata{mcid-287}{{tagabspage}{20}{tagmcabs}{287}{tagmcid}{8}}
\newlabeldata{l3pdf249}{{abspage}{20}}
\newlabeldata{mcid-288}{{tagabspage}{20}{tagmcabs}{288}{tagmcid}{9}}
\newlabeldata{l3pdf250}{{abspage}{20}}
\newlabeldata{mcid-289}{{tagabspage}{20}{tagmcabs}{289}{tagmcid}{10}}
\newlabeldata{l3pdf251}{{abspage}{20}}
\newlabeldata{mcid-290}{{tagabspage}{20}{tagmcabs}{290}{tagmcid}{11}}
\newlabeldata{l3pdf252}{{abspage}{20}}
\newlabeldata{mcid-291}{{tagabspage}{20}{tagmcabs}{291}{tagmcid}{12}}
\newlabeldata{l3pdf253}{{abspage}{20}}
\newlabeldata{mcid-292}{{tagabspage}{20}{tagmcabs}{292}{tagmcid}{13}}
\newlabeldata{l3pdf254}{{abspage}{20}}
\newlabeldata{mcid-293}{{tagabspage}{20}{tagmcabs}{293}{tagmcid}{14}}
\newlabeldata{l3pdf255}{{abspage}{20}}
\newlabeldata{mcid-294}{{tagabspage}{20}{tagmcabs}{294}{tagmcid}{15}}
\newlabeldata{l3pdf256}{{abspage}{20}}
\newlabeldata{mcid-295}{{tagabspage}{20}{tagmcabs}{295}{tagmcid}{16}}
\newlabeldata{l3pdf257}{{abspage}{20}}
\newlabeldata{mcid-296}{{tagabspage}{20}{tagmcabs}{296}{tagmcid}{17}}
\newlabeldata{l3pdf258}{{abspage}{20}}
\newlabeldata{mcid-297}{{tagabspage}{20}{tagmcabs}{297}{tagmcid}{18}}
\newlabeldata{l3pdf259}{{abspage}{20}}
\newlabeldata{mcid-298}{{tagabspage}{20}{tagmcabs}{298}{tagmcid}{19}}
\newlabeldata{l3pdf260}{{abspage}{20}}
\newlabeldata{mcid-299}{{tagabspage}{20}{tagmcabs}{299}{tagmcid}{20}}
\newlabeldata{l3pdf261}{{abspage}{20}}
\newlabeldata{mcid-300}{{tagabspage}{20}{tagmcabs}{300}{tagmcid}{21}}
\newlabeldata{l3pdf262}{{abspage}{20}}
\@writefile{nav}{\headcommand {\slideentry {1}{0}{19}{20/20}{}{0}}}
\@writefile{nav}{\headcommand {\beamer@framepages {20}{20}}}
\newlabeldata{mcid-312}{{tagabspage}{21}{tagmcabs}{312}{tagmcid}{5}}
\newlabeldata{l3pdf272}{{abspage}{21}}
\newlabeldata{mcid-313}{{tagabspage}{21}{tagmcabs}{313}{tagmcid}{6}}
\newlabeldata{l3pdf273}{{abspage}{21}}
\newlabeldata{mcid-314}{{tagabspage}{21}{tagmcabs}{314}{tagmcid}{7}}
\newlabeldata{l3pdf274}{{abspage}{21}}
\newlabeldata{mcid-306}{{tagabspage}{21}{tagmcabs}{306}{tagmcid}{2}}
\newlabeldata{l3pdf266}{{abspage}{21}}
\newlabeldata{mcid-307}{{tagabspage}{21}{tagmcabs}{307}{tagmcid}{0}}
\newlabeldata{l3pdf267}{{abspage}{21}}
\newlabeldata{mcid-308}{{tagabspage}{21}{tagmcabs}{308}{tagmcid}{1}}
\newlabeldata{l3pdf268}{{abspage}{21}}
\newlabeldata{mcid-309}{{tagabspage}{21}{tagmcabs}{309}{tagmcid}{2}}
\newlabeldata{l3pdf269}{{abspage}{21}}
\newlabeldata{mcid-310}{{tagabspage}{21}{tagmcabs}{310}{tagmcid}{3}}
\newlabeldata{l3pdf270}{{abspage}{21}}
\newlabeldata{mcid-311}{{tagabspage}{21}{tagmcabs}{311}{tagmcid}{4}}
\newlabeldata{l3pdf271}{{abspage}{21}}
\@writefile{nav}{\headcommand {\slideentry {1}{0}{20}{21/21}{}{0}}}
\@writefile{nav}{\headcommand {\beamer@framepages {21}{21}}}
\@writefile{nav}{\headcommand {\beamer@partpages {1}{21}}}
\@writefile{nav}{\headcommand {\beamer@subsectionpages {2}{21}}}
\@writefile{nav}{\headcommand {\beamer@sectionpages {2}{21}}}
\@writefile{nav}{\headcommand {\beamer@documentpages {21}}}
\@writefile{nav}{\headcommand {\gdef \inserttotalframenumber {21}}}
\gdef\minted@oldcachelist{,
  default.pygstyle,
  D61DE349ACC6635274B4B9E58F40260EBC3D4F9D441B30556C589C54C207F7CD.pygtex,
  38D7D9C6820C528A09C27F09AD4744F3BC3D4F9D441B30556C589C54C207F7CD.pygtex,
  C9290B2D4E22CBC12DD67AF01FA87B48BC3D4F9D441B30556C589C54C207F7CD.pygtex,
  4B016CA2FB0F354B0946ECB55351DF2DBC3D4F9D441B30556C589C54C207F7CD.pygtex,
  6C48E8569376F25D91BE1D06EA6FA821BC3D4F9D441B30556C589C54C207F7CD.pygtex}
\newlabeldata{__tag_LastPage}{{abspage}{21}{tagmcabs}{316}}
\gdef\svg@ink@ver@settings{{\m@ne }{inkscape}{1}}
\gdef \@abspage@last{21}
