\relax 
\providecommand\hyper@newdestlabel[2]{}
\providecommand\HyperFirstAtBeginDocument{\AtBeginDocument}
\HyperFirstAtBeginDocument{\ifx\hyper@anchor\@undefined
\global\let\oldcontentsline\contentsline
\gdef\contentsline#1#2#3#4{\oldcontentsline{#1}{#2}{#3}}
\global\let\oldnewlabel\newlabel
\gdef\newlabel#1#2{\newlabelxx{#1}#2}
\gdef\newlabelxx#1#2#3#4#5#6{\oldnewlabel{#1}{{#2}{#3}}}
\AtEndDocument{\ifx\hyper@anchor\@undefined
\let\contentsline\oldcontentsline
\let\newlabel\oldnewlabel
\fi}
\fi}
\global\let\hyper@last\relax 
\gdef\HyperFirstAtBeginDocument#1{#1}
\providecommand\HyField@AuxAddToFields[1]{}
\providecommand\HyField@AuxAddToCoFields[2]{}
\providecommand\BKM@entry[2]{}
\newlabeldata{mcid-1}{{tagabspage}{1}{tagmcabs}{1}{tagmcid}{0}}
\newlabeldata{l3pdf1}{{abspage}{1}}
\@writefile{nav}{\headcommand {\slideentry {0}{0}{1}{1/1}{}{0}}}
\@writefile{nav}{\headcommand {\beamer@framepages {1}{1}}}
\newlabeldata{mcid-43}{{tagabspage}{2}{tagmcabs}{43}{tagmcid}{39}}
\newlabeldata{l3pdf41}{{abspage}{2}}
\newlabeldata{mcid-4}{{tagabspage}{2}{tagmcabs}{4}{tagmcid}{0}}
\newlabeldata{l3pdf2}{{abspage}{2}}
\newlabeldata{mcid-5}{{tagabspage}{2}{tagmcabs}{5}{tagmcid}{1}}
\newlabeldata{l3pdf3}{{abspage}{2}}
\newlabeldata{mcid-6}{{tagabspage}{2}{tagmcabs}{6}{tagmcid}{2}}
\newlabeldata{l3pdf4}{{abspage}{2}}
\newlabeldata{mcid-7}{{tagabspage}{2}{tagmcabs}{7}{tagmcid}{3}}
\newlabeldata{l3pdf5}{{abspage}{2}}
\newlabeldata{mcid-8}{{tagabspage}{2}{tagmcabs}{8}{tagmcid}{4}}
\newlabeldata{l3pdf6}{{abspage}{2}}
\newlabeldata{mcid-9}{{tagabspage}{2}{tagmcabs}{9}{tagmcid}{5}}
\newlabeldata{l3pdf7}{{abspage}{2}}
\newlabeldata{mcid-10}{{tagabspage}{2}{tagmcabs}{10}{tagmcid}{6}}
\newlabeldata{l3pdf8}{{abspage}{2}}
\newlabeldata{mcid-11}{{tagabspage}{2}{tagmcabs}{11}{tagmcid}{7}}
\newlabeldata{l3pdf9}{{abspage}{2}}
\newlabeldata{mcid-12}{{tagabspage}{2}{tagmcabs}{12}{tagmcid}{8}}
\newlabeldata{l3pdf10}{{abspage}{2}}
\newlabeldata{mcid-13}{{tagabspage}{2}{tagmcabs}{13}{tagmcid}{9}}
\newlabeldata{l3pdf11}{{abspage}{2}}
\newlabeldata{mcid-14}{{tagabspage}{2}{tagmcabs}{14}{tagmcid}{10}}
\newlabeldata{l3pdf12}{{abspage}{2}}
\newlabeldata{mcid-15}{{tagabspage}{2}{tagmcabs}{15}{tagmcid}{11}}
\newlabeldata{l3pdf13}{{abspage}{2}}
\newlabeldata{mcid-16}{{tagabspage}{2}{tagmcabs}{16}{tagmcid}{12}}
\newlabeldata{l3pdf14}{{abspage}{2}}
\newlabeldata{mcid-17}{{tagabspage}{2}{tagmcabs}{17}{tagmcid}{13}}
\newlabeldata{l3pdf15}{{abspage}{2}}
\newlabeldata{mcid-18}{{tagabspage}{2}{tagmcabs}{18}{tagmcid}{14}}
\newlabeldata{l3pdf16}{{abspage}{2}}
\newlabeldata{mcid-19}{{tagabspage}{2}{tagmcabs}{19}{tagmcid}{15}}
\newlabeldata{l3pdf17}{{abspage}{2}}
\newlabeldata{mcid-20}{{tagabspage}{2}{tagmcabs}{20}{tagmcid}{16}}
\newlabeldata{l3pdf18}{{abspage}{2}}
\newlabeldata{mcid-21}{{tagabspage}{2}{tagmcabs}{21}{tagmcid}{17}}
\newlabeldata{l3pdf19}{{abspage}{2}}
\newlabeldata{mcid-22}{{tagabspage}{2}{tagmcabs}{22}{tagmcid}{18}}
\newlabeldata{l3pdf20}{{abspage}{2}}
\newlabeldata{mcid-23}{{tagabspage}{2}{tagmcabs}{23}{tagmcid}{19}}
\newlabeldata{l3pdf21}{{abspage}{2}}
\newlabeldata{mcid-24}{{tagabspage}{2}{tagmcabs}{24}{tagmcid}{20}}
\newlabeldata{l3pdf22}{{abspage}{2}}
\newlabeldata{mcid-25}{{tagabspage}{2}{tagmcabs}{25}{tagmcid}{21}}
\newlabeldata{l3pdf23}{{abspage}{2}}
\newlabeldata{mcid-26}{{tagabspage}{2}{tagmcabs}{26}{tagmcid}{22}}
\newlabeldata{l3pdf24}{{abspage}{2}}
\newlabeldata{mcid-27}{{tagabspage}{2}{tagmcabs}{27}{tagmcid}{23}}
\newlabeldata{l3pdf25}{{abspage}{2}}
\newlabeldata{mcid-28}{{tagabspage}{2}{tagmcabs}{28}{tagmcid}{24}}
\newlabeldata{l3pdf26}{{abspage}{2}}
\newlabeldata{mcid-29}{{tagabspage}{2}{tagmcabs}{29}{tagmcid}{25}}
\newlabeldata{l3pdf27}{{abspage}{2}}
\newlabeldata{mcid-30}{{tagabspage}{2}{tagmcabs}{30}{tagmcid}{26}}
\newlabeldata{l3pdf28}{{abspage}{2}}
\newlabeldata{mcid-31}{{tagabspage}{2}{tagmcabs}{31}{tagmcid}{27}}
\newlabeldata{l3pdf29}{{abspage}{2}}
\newlabeldata{mcid-32}{{tagabspage}{2}{tagmcabs}{32}{tagmcid}{28}}
\newlabeldata{l3pdf30}{{abspage}{2}}
\newlabeldata{mcid-33}{{tagabspage}{2}{tagmcabs}{33}{tagmcid}{29}}
\newlabeldata{l3pdf31}{{abspage}{2}}
\newlabeldata{mcid-34}{{tagabspage}{2}{tagmcabs}{34}{tagmcid}{30}}
\newlabeldata{l3pdf32}{{abspage}{2}}
\newlabeldata{mcid-35}{{tagabspage}{2}{tagmcabs}{35}{tagmcid}{31}}
\newlabeldata{l3pdf33}{{abspage}{2}}
\newlabeldata{mcid-36}{{tagabspage}{2}{tagmcabs}{36}{tagmcid}{32}}
\newlabeldata{l3pdf34}{{abspage}{2}}
\newlabeldata{mcid-37}{{tagabspage}{2}{tagmcabs}{37}{tagmcid}{33}}
\newlabeldata{l3pdf35}{{abspage}{2}}
\newlabeldata{mcid-38}{{tagabspage}{2}{tagmcabs}{38}{tagmcid}{34}}
\newlabeldata{l3pdf36}{{abspage}{2}}
\newlabeldata{mcid-39}{{tagabspage}{2}{tagmcabs}{39}{tagmcid}{35}}
\newlabeldata{l3pdf37}{{abspage}{2}}
\newlabeldata{mcid-40}{{tagabspage}{2}{tagmcabs}{40}{tagmcid}{36}}
\newlabeldata{l3pdf38}{{abspage}{2}}
\newlabeldata{mcid-41}{{tagabspage}{2}{tagmcabs}{41}{tagmcid}{37}}
\newlabeldata{l3pdf39}{{abspage}{2}}
\newlabeldata{mcid-42}{{tagabspage}{2}{tagmcabs}{42}{tagmcid}{38}}
\newlabeldata{l3pdf40}{{abspage}{2}}
\@writefile{nav}{\headcommand {\slideentry {0}{0}{2}{2/2}{}{0}}}
\@writefile{nav}{\headcommand {\beamer@framepages {2}{2}}}
\BKM@entry{id=1,open,dest={4F75746C696E65302E31},srcline={72}}{5C3337365C3337375C303030505C303030725C3030306F5C303030635C303030655C303030735C303030735C3030306F5C303030725C3030305C3034305C303030425C303030615C303030735C303030695C303030635C30303073}
\@writefile{toc}{\beamer@sectionintoc {1}{Processor Basics}{3}{0}{1}}
\@writefile{nav}{\headcommand {\beamer@sectionpages {1}{2}}}
\@writefile{nav}{\headcommand {\beamer@subsectionpages {1}{2}}}
\@writefile{nav}{\headcommand {\sectionentry {1}{Processor Basics}{3}{Processor Basics}{0}}}
\newlabeldata{mcid-49}{{tagabspage}{3}{tagmcabs}{49}{tagmcid}{3}}
\newlabeldata{l3pdf45}{{abspage}{3}}
\newlabeldata{mcid-46}{{tagabspage}{3}{tagmcabs}{46}{tagmcid}{0}}
\newlabeldata{l3pdf42}{{abspage}{3}}
\newlabeldata{mcid-47}{{tagabspage}{3}{tagmcabs}{47}{tagmcid}{1}}
\newlabeldata{l3pdf43}{{abspage}{3}}
\newlabeldata{mcid-48}{{tagabspage}{3}{tagmcabs}{48}{tagmcid}{2}}
\newlabeldata{l3pdf44}{{abspage}{3}}
\@writefile{nav}{\headcommand {\slideentry {1}{0}{1}{3/3}{}{0}}}
\@writefile{nav}{\headcommand {\beamer@framepages {3}{3}}}
\BKM@entry{id=2,open,dest={4F75746C696E65302E32},srcline={96}}{5C3337365C3337375C303030465C303030755C3030306E5C303030645C303030615C3030306D5C303030655C3030306E5C303030745C303030615C3030306C5C3030305C3034305C303030515C303030755C303030655C303030735C303030745C303030695C3030306F5C3030306E5C30303073}
\@writefile{toc}{\beamer@sectionintoc {2}{Fundamental Questions}{4}{0}{2}}
\@writefile{nav}{\headcommand {\beamer@sectionpages {3}{3}}}
\@writefile{nav}{\headcommand {\beamer@subsectionpages {3}{3}}}
\@writefile{nav}{\headcommand {\sectionentry {2}{Fundamental Questions}{4}{Fundamental Questions}{0}}}
\newlabeldata{mcid-52}{{tagabspage}{4}{tagmcabs}{52}{tagmcid}{0}}
\newlabeldata{l3pdf46}{{abspage}{4}}
\@writefile{nav}{\headcommand {\slideentry {2}{0}{1}{4/4}{}{0}}}
\@writefile{nav}{\headcommand {\beamer@framepages {4}{4}}}
\BKM@entry{id=3,open,dest={4F75746C696E65302E33},srcline={110}}{5C3337365C3337375C303030545C303030685C303030655C3030305C3034305C303030415C303030725C303030695C303030745C303030685C3030306D5C303030655C303030745C303030695C303030635C3030305C3034305C3030304C5C3030306F5C303030675C303030695C303030635C3030305C3034305C303030555C3030306E5C303030695C30303074}
\@writefile{toc}{\beamer@sectionintoc {3}{The Arithmetic Logic Unit}{5}{0}{3}}
\@writefile{nav}{\headcommand {\beamer@sectionpages {4}{4}}}
\@writefile{nav}{\headcommand {\beamer@subsectionpages {4}{4}}}
\@writefile{nav}{\headcommand {\sectionentry {3}{The Arithmetic Logic Unit}{5}{The Arithmetic Logic Unit}{0}}}
\newlabeldata{mcid-56}{{tagabspage}{5}{tagmcabs}{56}{tagmcid}{1}}
\newlabeldata{l3pdf48}{{abspage}{5}}
\newlabeldata{mcid-55}{{tagabspage}{5}{tagmcabs}{55}{tagmcid}{0}}
\newlabeldata{l3pdf47}{{abspage}{5}}
\@writefile{nav}{\headcommand {\slideentry {3}{0}{1}{5/5}{}{0}}}
\@writefile{nav}{\headcommand {\beamer@framepages {5}{5}}}
\BKM@entry{id=4,open,dest={4F75746C696E65302E34},srcline={118}}{5C3337365C3337375C303030525C303030655C303030675C303030695C303030735C303030745C303030655C303030725C30303073}
\@writefile{toc}{\beamer@sectionintoc {4}{Registers}{6}{0}{4}}
\@writefile{nav}{\headcommand {\beamer@sectionpages {5}{5}}}
\@writefile{nav}{\headcommand {\beamer@subsectionpages {5}{5}}}
\@writefile{nav}{\headcommand {\sectionentry {4}{Registers}{6}{Registers}{0}}}
\newlabeldata{mcid-60}{{tagabspage}{6}{tagmcabs}{60}{tagmcid}{1}}
\newlabeldata{l3pdf50}{{abspage}{6}}
\newlabeldata{mcid-59}{{tagabspage}{6}{tagmcabs}{59}{tagmcid}{0}}
\newlabeldata{l3pdf49}{{abspage}{6}}
\@writefile{nav}{\headcommand {\slideentry {4}{0}{1}{6/6}{}{0}}}
\@writefile{nav}{\headcommand {\beamer@framepages {6}{6}}}
\BKM@entry{id=5,open,dest={4F75746C696E65302E35},srcline={126}}{5C3337365C3337375C303030525C3030306F5C303030755C303030745C303030695C3030306E5C303030675C3030305C3034305C303030495C3030306E5C303030705C303030755C30303074}
\@writefile{toc}{\beamer@sectionintoc {5}{Routing Input}{7}{0}{5}}
\@writefile{nav}{\headcommand {\beamer@sectionpages {6}{6}}}
\@writefile{nav}{\headcommand {\beamer@subsectionpages {6}{6}}}
\@writefile{nav}{\headcommand {\sectionentry {5}{Routing Input}{7}{Routing Input}{0}}}
\newlabeldata{mcid-64}{{tagabspage}{7}{tagmcabs}{64}{tagmcid}{1}}
\newlabeldata{l3pdf52}{{abspage}{7}}
\newlabeldata{mcid-63}{{tagabspage}{7}{tagmcabs}{63}{tagmcid}{0}}
\newlabeldata{l3pdf51}{{abspage}{7}}
\@writefile{nav}{\headcommand {\slideentry {5}{0}{1}{7/7}{}{0}}}
\@writefile{nav}{\headcommand {\beamer@framepages {7}{7}}}
\BKM@entry{id=6,open,dest={4F75746C696E65302E36},srcline={135}}{5C3337365C3337375C303030525C3030306F5C303030755C303030745C303030695C3030306E5C303030675C3030305C3034305C3030304F5C303030755C303030745C303030705C303030755C30303074}
\@writefile{toc}{\beamer@sectionintoc {6}{Routing Output}{8}{0}{6}}
\@writefile{nav}{\headcommand {\beamer@sectionpages {7}{7}}}
\@writefile{nav}{\headcommand {\beamer@subsectionpages {7}{7}}}
\@writefile{nav}{\headcommand {\sectionentry {6}{Routing Output}{8}{Routing Output}{0}}}
\newlabeldata{mcid-68}{{tagabspage}{8}{tagmcabs}{68}{tagmcid}{1}}
\newlabeldata{l3pdf54}{{abspage}{8}}
\newlabeldata{mcid-67}{{tagabspage}{8}{tagmcabs}{67}{tagmcid}{0}}
\newlabeldata{l3pdf53}{{abspage}{8}}
\@writefile{nav}{\headcommand {\slideentry {6}{0}{1}{8/8}{}{0}}}
\@writefile{nav}{\headcommand {\beamer@framepages {8}{8}}}
\BKM@entry{id=7,open,dest={4F75746C696E65302E37},srcline={143}}{5C3337365C3337375C303030525C303030615C3030306E5C303030645C3030306F5C3030306D5C3030305C3034305C303030415C303030635C303030635C303030655C303030735C303030735C3030305C3034305C3030304D5C303030655C3030306D5C3030306F5C303030725C30303079}
\@writefile{toc}{\beamer@sectionintoc {7}{Random Access Memory}{9}{0}{7}}
\@writefile{nav}{\headcommand {\beamer@sectionpages {8}{8}}}
\@writefile{nav}{\headcommand {\beamer@subsectionpages {8}{8}}}
\@writefile{nav}{\headcommand {\sectionentry {7}{Random Access Memory}{9}{Random Access Memory}{0}}}
\newlabeldata{mcid-72}{{tagabspage}{9}{tagmcabs}{72}{tagmcid}{1}}
\newlabeldata{l3pdf56}{{abspage}{9}}
\newlabeldata{mcid-71}{{tagabspage}{9}{tagmcabs}{71}{tagmcid}{0}}
\newlabeldata{l3pdf55}{{abspage}{9}}
\@writefile{nav}{\headcommand {\slideentry {7}{0}{1}{9/9}{}{0}}}
\@writefile{nav}{\headcommand {\beamer@framepages {9}{9}}}
\BKM@entry{id=8,open,dest={4F75746C696E65302E38},srcline={160}}{5C3337365C3337375C303030545C303030685C303030655C3030305C3034305C303030435C3030306F5C3030306E5C303030745C303030725C3030306F5C3030306C5C3030305C3034305C303030555C3030306E5C303030695C30303074}
\@writefile{toc}{\beamer@sectionintoc {8}{The Control Unit}{10}{0}{8}}
\@writefile{nav}{\headcommand {\beamer@sectionpages {9}{9}}}
\@writefile{nav}{\headcommand {\beamer@subsectionpages {9}{9}}}
\@writefile{nav}{\headcommand {\sectionentry {8}{The Control Unit}{10}{The Control Unit}{0}}}
\newlabeldata{mcid-76}{{tagabspage}{10}{tagmcabs}{76}{tagmcid}{1}}
\newlabeldata{l3pdf58}{{abspage}{10}}
\newlabeldata{mcid-75}{{tagabspage}{10}{tagmcabs}{75}{tagmcid}{0}}
\newlabeldata{l3pdf57}{{abspage}{10}}
\@writefile{nav}{\headcommand {\slideentry {8}{0}{1}{10/10}{}{0}}}
\@writefile{nav}{\headcommand {\beamer@framepages {10}{10}}}
\newlabeldata{mcid-80}{{tagabspage}{11}{tagmcabs}{80}{tagmcid}{1}}
\newlabeldata{l3pdf60}{{abspage}{11}}
\newlabeldata{mcid-79}{{tagabspage}{11}{tagmcabs}{79}{tagmcid}{0}}
\newlabeldata{l3pdf59}{{abspage}{11}}
\@writefile{nav}{\headcommand {\slideentry {8}{0}{2}{11/11}{}{0}}}
\@writefile{nav}{\headcommand {\beamer@framepages {11}{11}}}
\BKM@entry{id=9,open,dest={4F75746C696E65302E39},srcline={206}}{5C3337365C3337375C303030545C303030685C303030655C3030305C3034305C303030495C3030306E5C303030735C303030745C303030725C303030755C303030635C303030745C303030695C3030306F5C3030306E5C3030305C3034305C303030435C3030306F5C303030755C3030306E5C303030745C303030655C30303072}
\@writefile{toc}{\beamer@sectionintoc {9}{The Instruction Counter}{12}{0}{9}}
\@writefile{nav}{\headcommand {\beamer@sectionpages {10}{11}}}
\@writefile{nav}{\headcommand {\beamer@subsectionpages {10}{11}}}
\@writefile{nav}{\headcommand {\sectionentry {9}{The Instruction Counter}{12}{The Instruction Counter}{0}}}
\newlabeldata{mcid-84}{{tagabspage}{12}{tagmcabs}{84}{tagmcid}{1}}
\newlabeldata{l3pdf62}{{abspage}{12}}
\newlabeldata{mcid-83}{{tagabspage}{12}{tagmcabs}{83}{tagmcid}{0}}
\newlabeldata{l3pdf61}{{abspage}{12}}
\@writefile{nav}{\headcommand {\slideentry {9}{0}{1}{12/12}{}{0}}}
\@writefile{nav}{\headcommand {\beamer@framepages {12}{12}}}
\BKM@entry{id=10,open,dest={4F75746C696E65302E3130},srcline={214}}{5C3337365C3337375C303030415C3030306E5C3030305C3034305C303030455C303030785C303030615C3030306D5C303030705C3030306C5C303030655C3030305C3034305C3030306F5C303030665C3030305C3034305C303030745C303030685C303030655C3030305C3034305C303030495C3030306E5C303030735C303030745C303030725C303030755C303030635C303030745C303030695C3030306F5C3030306E5C3030305C3034305C303030435C3030306F5C303030755C3030306E5C303030745C303030655C30303072}
\@writefile{toc}{\beamer@sectionintoc {10}{An Example of the Instruction Counter}{13}{0}{10}}
\@writefile{nav}{\headcommand {\beamer@sectionpages {12}{12}}}
\@writefile{nav}{\headcommand {\beamer@subsectionpages {12}{12}}}
\@writefile{nav}{\headcommand {\sectionentry {10}{An Example of the Instruction Counter}{13}{An Example of the Instruction Counter}{0}}}
\newlabeldata{mcid-88}{{tagabspage}{13}{tagmcabs}{88}{tagmcid}{1}}
\newlabeldata{l3pdf64}{{abspage}{13}}
\newlabeldata{mcid-87}{{tagabspage}{13}{tagmcabs}{87}{tagmcid}{0}}
\newlabeldata{l3pdf63}{{abspage}{13}}
\@writefile{nav}{\headcommand {\slideentry {10}{0}{1}{13/13}{}{0}}}
\@writefile{nav}{\headcommand {\beamer@framepages {13}{13}}}
\BKM@entry{id=11,open,dest={4F75746C696E65302E3131},srcline={222}}{5C3337365C3337375C303030575C303030685C303030655C303030725C303030655C3030305C3034305C303030615C303030725C303030655C3030305C3034305C3030306F5C303030755C303030725C3030305C3034305C303030765C303030615C303030725C303030695C303030615C303030625C3030306C5C303030655C303030735C3030303F}
\@writefile{toc}{\beamer@sectionintoc {11}{Where are our variables?}{14}{0}{11}}
\@writefile{nav}{\headcommand {\beamer@sectionpages {13}{13}}}
\@writefile{nav}{\headcommand {\beamer@subsectionpages {13}{13}}}
\@writefile{nav}{\headcommand {\sectionentry {11}{Where are our variables?}{14}{Where are our variables?}{0}}}
\newlabeldata{mcid-91}{{tagabspage}{14}{tagmcabs}{91}{tagmcid}{0}}
\newlabeldata{l3pdf65}{{abspage}{14}}
\@writefile{nav}{\headcommand {\slideentry {11}{0}{1}{14/14}{}{0}}}
\@writefile{nav}{\headcommand {\beamer@framepages {14}{14}}}
\BKM@entry{id=12,open,dest={4F75746C696E65302E3132},srcline={234}}{5C3337365C3337375C303030415C3030305C3034305C303030425C303030695C303030675C3030305C3034305C303030505C3030306F5C303030695C3030306E5C303030745C3030305C3034305C303030615C303030625C3030306F5C303030755C303030745C3030305C3034305C303030545C303030795C303030705C303030655C30303073}
\@writefile{toc}{\beamer@sectionintoc {12}{A Big Point about Types}{15}{0}{12}}
\@writefile{nav}{\headcommand {\beamer@sectionpages {14}{14}}}
\@writefile{nav}{\headcommand {\beamer@subsectionpages {14}{14}}}
\@writefile{nav}{\headcommand {\sectionentry {12}{A Big Point about Types}{15}{A Big Point about Types}{0}}}
\newlabeldata{mcid-98}{{tagabspage}{15}{tagmcabs}{98}{tagmcid}{4}}
\newlabeldata{l3pdf70}{{abspage}{15}}
\newlabeldata{mcid-95}{{tagabspage}{15}{tagmcabs}{95}{tagmcid}{1}}
\newlabeldata{l3pdf67}{{abspage}{15}}
\newlabeldata{mcid-94}{{tagabspage}{15}{tagmcabs}{94}{tagmcid}{0}}
\newlabeldata{l3pdf66}{{abspage}{15}}
\newlabeldata{mcid-97}{{tagabspage}{15}{tagmcabs}{97}{tagmcid}{3}}
\newlabeldata{l3pdf69}{{abspage}{15}}
\newlabeldata{mcid-96}{{tagabspage}{15}{tagmcabs}{96}{tagmcid}{2}}
\newlabeldata{l3pdf68}{{abspage}{15}}
\@writefile{nav}{\headcommand {\slideentry {12}{0}{1}{15/15}{}{0}}}
\@writefile{nav}{\headcommand {\beamer@framepages {15}{15}}}
\BKM@entry{id=13,open,dest={4F75746C696E65302E3133},srcline={252}}{5C3337365C3337375C303030575C303030685C303030615C303030745C3030305C3034305C303030645C3030306F5C3030305C3034305C303030745C303030685C303030655C3030305C3034305C303030625C303030695C303030745C303030735C3030305C3034305C3030306D5C303030655C303030615C3030306E5C3030303F}
\@writefile{toc}{\beamer@sectionintoc {13}{What do the bits mean?}{16}{0}{13}}
\@writefile{nav}{\headcommand {\beamer@sectionpages {15}{15}}}
\@writefile{nav}{\headcommand {\beamer@subsectionpages {15}{15}}}
\@writefile{nav}{\headcommand {\sectionentry {13}{What do the bits mean?}{16}{What do the bits mean?}{0}}}
\newlabeldata{mcid-109}{{tagabspage}{16}{tagmcabs}{109}{tagmcid}{8}}
\newlabeldata{l3pdf79}{{abspage}{16}}
\newlabeldata{mcid-101}{{tagabspage}{16}{tagmcabs}{101}{tagmcid}{0}}
\newlabeldata{l3pdf71}{{abspage}{16}}
\newlabeldata{mcid-102}{{tagabspage}{16}{tagmcabs}{102}{tagmcid}{1}}
\newlabeldata{l3pdf72}{{abspage}{16}}
\newlabeldata{mcid-103}{{tagabspage}{16}{tagmcabs}{103}{tagmcid}{2}}
\newlabeldata{l3pdf73}{{abspage}{16}}
\newlabeldata{mcid-104}{{tagabspage}{16}{tagmcabs}{104}{tagmcid}{3}}
\newlabeldata{l3pdf74}{{abspage}{16}}
\newlabeldata{mcid-105}{{tagabspage}{16}{tagmcabs}{105}{tagmcid}{4}}
\newlabeldata{l3pdf75}{{abspage}{16}}
\newlabeldata{mcid-106}{{tagabspage}{16}{tagmcabs}{106}{tagmcid}{5}}
\newlabeldata{l3pdf76}{{abspage}{16}}
\newlabeldata{mcid-107}{{tagabspage}{16}{tagmcabs}{107}{tagmcid}{6}}
\newlabeldata{l3pdf77}{{abspage}{16}}
\newlabeldata{mcid-108}{{tagabspage}{16}{tagmcabs}{108}{tagmcid}{7}}
\newlabeldata{l3pdf78}{{abspage}{16}}
\@writefile{nav}{\headcommand {\slideentry {13}{0}{1}{16/16}{}{0}}}
\@writefile{nav}{\headcommand {\beamer@framepages {16}{16}}}
\@writefile{nav}{\headcommand {\beamer@partpages {1}{16}}}
\@writefile{nav}{\headcommand {\beamer@subsectionpages {16}{16}}}
\@writefile{nav}{\headcommand {\beamer@sectionpages {16}{16}}}
\@writefile{nav}{\headcommand {\beamer@documentpages {16}}}
\@writefile{nav}{\headcommand {\gdef \inserttotalframenumber {16}}}
\newlabeldata{__tag_LastPage}{{abspage}{16}{tagmcabs}{111}}
\gdef\svg@ink@ver@settings{{\m@ne }{inkscape}{1}}
\gdef \@abspage@last{16}
