\relax 
\providecommand\hyper@newdestlabel[2]{}
\providecommand\HyperFirstAtBeginDocument{\AtBeginDocument}
\HyperFirstAtBeginDocument{\ifx\hyper@anchor\@undefined
\global\let\oldcontentsline\contentsline
\gdef\contentsline#1#2#3#4{\oldcontentsline{#1}{#2}{#3}}
\global\let\oldnewlabel\newlabel
\gdef\newlabel#1#2{\newlabelxx{#1}#2}
\gdef\newlabelxx#1#2#3#4#5#6{\oldnewlabel{#1}{{#2}{#3}}}
\AtEndDocument{\ifx\hyper@anchor\@undefined
\let\contentsline\oldcontentsline
\let\newlabel\oldnewlabel
\fi}
\fi}
\global\let\hyper@last\relax 
\gdef\HyperFirstAtBeginDocument#1{#1}
\providecommand\HyField@AuxAddToFields[1]{}
\providecommand\HyField@AuxAddToCoFields[2]{}
\providecommand\BKM@entry[2]{}
\newlabeldata{mcid-1}{{tagabspage}{1}{tagmcabs}{1}{tagmcid}{0}}
\newlabeldata{l3pdf1}{{abspage}{1}}
\@writefile{nav}{\headcommand {\slideentry {0}{0}{1}{1/1}{}{0}}}
\@writefile{nav}{\headcommand {\beamer@framepages {1}{1}}}
\newlabeldata{mcid-14}{{tagabspage}{2}{tagmcabs}{14}{tagmcid}{10}}
\newlabeldata{l3pdf12}{{abspage}{2}}
\newlabeldata{mcid-4}{{tagabspage}{2}{tagmcabs}{4}{tagmcid}{0}}
\newlabeldata{l3pdf2}{{abspage}{2}}
\newlabeldata{mcid-5}{{tagabspage}{2}{tagmcabs}{5}{tagmcid}{1}}
\newlabeldata{l3pdf3}{{abspage}{2}}
\newlabeldata{mcid-6}{{tagabspage}{2}{tagmcabs}{6}{tagmcid}{2}}
\newlabeldata{l3pdf4}{{abspage}{2}}
\newlabeldata{mcid-7}{{tagabspage}{2}{tagmcabs}{7}{tagmcid}{3}}
\newlabeldata{l3pdf5}{{abspage}{2}}
\newlabeldata{mcid-8}{{tagabspage}{2}{tagmcabs}{8}{tagmcid}{4}}
\newlabeldata{l3pdf6}{{abspage}{2}}
\newlabeldata{mcid-9}{{tagabspage}{2}{tagmcabs}{9}{tagmcid}{5}}
\newlabeldata{l3pdf7}{{abspage}{2}}
\newlabeldata{mcid-10}{{tagabspage}{2}{tagmcabs}{10}{tagmcid}{6}}
\newlabeldata{l3pdf8}{{abspage}{2}}
\newlabeldata{mcid-11}{{tagabspage}{2}{tagmcabs}{11}{tagmcid}{7}}
\newlabeldata{l3pdf9}{{abspage}{2}}
\newlabeldata{mcid-12}{{tagabspage}{2}{tagmcabs}{12}{tagmcid}{8}}
\newlabeldata{l3pdf10}{{abspage}{2}}
\newlabeldata{mcid-13}{{tagabspage}{2}{tagmcabs}{13}{tagmcid}{9}}
\newlabeldata{l3pdf11}{{abspage}{2}}
\@writefile{nav}{\headcommand {\slideentry {0}{0}{2}{2/2}{}{0}}}
\@writefile{nav}{\headcommand {\beamer@framepages {2}{2}}}
\newlabeldata{mcid-44}{{tagabspage}{3}{tagmcabs}{44}{tagmcid}{27}}
\newlabeldata{l3pdf40}{{abspage}{3}}
\newlabeldata{mcid-17}{{tagabspage}{3}{tagmcabs}{17}{tagmcid}{0}}
\newlabeldata{l3pdf13}{{abspage}{3}}
\newlabeldata{mcid-18}{{tagabspage}{3}{tagmcabs}{18}{tagmcid}{1}}
\newlabeldata{l3pdf14}{{abspage}{3}}
\newlabeldata{mcid-19}{{tagabspage}{3}{tagmcabs}{19}{tagmcid}{2}}
\newlabeldata{l3pdf15}{{abspage}{3}}
\newlabeldata{mcid-20}{{tagabspage}{3}{tagmcabs}{20}{tagmcid}{3}}
\newlabeldata{l3pdf16}{{abspage}{3}}
\newlabeldata{mcid-21}{{tagabspage}{3}{tagmcabs}{21}{tagmcid}{4}}
\newlabeldata{l3pdf17}{{abspage}{3}}
\newlabeldata{mcid-22}{{tagabspage}{3}{tagmcabs}{22}{tagmcid}{5}}
\newlabeldata{l3pdf18}{{abspage}{3}}
\newlabeldata{mcid-23}{{tagabspage}{3}{tagmcabs}{23}{tagmcid}{6}}
\newlabeldata{l3pdf19}{{abspage}{3}}
\newlabeldata{mcid-24}{{tagabspage}{3}{tagmcabs}{24}{tagmcid}{7}}
\newlabeldata{l3pdf20}{{abspage}{3}}
\newlabeldata{mcid-25}{{tagabspage}{3}{tagmcabs}{25}{tagmcid}{8}}
\newlabeldata{l3pdf21}{{abspage}{3}}
\newlabeldata{mcid-26}{{tagabspage}{3}{tagmcabs}{26}{tagmcid}{9}}
\newlabeldata{l3pdf22}{{abspage}{3}}
\newlabeldata{mcid-27}{{tagabspage}{3}{tagmcabs}{27}{tagmcid}{10}}
\newlabeldata{l3pdf23}{{abspage}{3}}
\newlabeldata{mcid-28}{{tagabspage}{3}{tagmcabs}{28}{tagmcid}{11}}
\newlabeldata{l3pdf24}{{abspage}{3}}
\newlabeldata{mcid-29}{{tagabspage}{3}{tagmcabs}{29}{tagmcid}{12}}
\newlabeldata{l3pdf25}{{abspage}{3}}
\newlabeldata{mcid-30}{{tagabspage}{3}{tagmcabs}{30}{tagmcid}{13}}
\newlabeldata{l3pdf26}{{abspage}{3}}
\newlabeldata{mcid-31}{{tagabspage}{3}{tagmcabs}{31}{tagmcid}{14}}
\newlabeldata{l3pdf27}{{abspage}{3}}
\newlabeldata{mcid-32}{{tagabspage}{3}{tagmcabs}{32}{tagmcid}{15}}
\newlabeldata{l3pdf28}{{abspage}{3}}
\newlabeldata{mcid-33}{{tagabspage}{3}{tagmcabs}{33}{tagmcid}{16}}
\newlabeldata{l3pdf29}{{abspage}{3}}
\newlabeldata{mcid-34}{{tagabspage}{3}{tagmcabs}{34}{tagmcid}{17}}
\newlabeldata{l3pdf30}{{abspage}{3}}
\newlabeldata{mcid-35}{{tagabspage}{3}{tagmcabs}{35}{tagmcid}{18}}
\newlabeldata{l3pdf31}{{abspage}{3}}
\newlabeldata{mcid-36}{{tagabspage}{3}{tagmcabs}{36}{tagmcid}{19}}
\newlabeldata{l3pdf32}{{abspage}{3}}
\newlabeldata{mcid-37}{{tagabspage}{3}{tagmcabs}{37}{tagmcid}{20}}
\newlabeldata{l3pdf33}{{abspage}{3}}
\newlabeldata{mcid-38}{{tagabspage}{3}{tagmcabs}{38}{tagmcid}{21}}
\newlabeldata{l3pdf34}{{abspage}{3}}
\newlabeldata{mcid-39}{{tagabspage}{3}{tagmcabs}{39}{tagmcid}{22}}
\newlabeldata{l3pdf35}{{abspage}{3}}
\newlabeldata{mcid-40}{{tagabspage}{3}{tagmcabs}{40}{tagmcid}{23}}
\newlabeldata{l3pdf36}{{abspage}{3}}
\newlabeldata{mcid-41}{{tagabspage}{3}{tagmcabs}{41}{tagmcid}{24}}
\newlabeldata{l3pdf37}{{abspage}{3}}
\newlabeldata{mcid-42}{{tagabspage}{3}{tagmcabs}{42}{tagmcid}{25}}
\newlabeldata{l3pdf38}{{abspage}{3}}
\newlabeldata{mcid-43}{{tagabspage}{3}{tagmcabs}{43}{tagmcid}{26}}
\newlabeldata{l3pdf39}{{abspage}{3}}
\@writefile{nav}{\headcommand {\slideentry {0}{0}{3}{3/3}{}{0}}}
\@writefile{nav}{\headcommand {\beamer@framepages {3}{3}}}
\BKM@entry{id=1,open,dest={4F75746C696E65302E31},srcline={111}}{5C3337365C3337375C303030415C303030725C303030725C303030615C303030795C30303073}
\BKM@entry{id=2,open,dest={4F75746C696E65302E312E312E34},srcline={112}}{5C3337365C3337375C303030575C303030685C303030615C303030745C3030305C3034305C303030695C303030735C3030305C3034305C303030615C3030306E5C3030305C3034305C303030415C303030725C303030725C303030615C30303079}
\@writefile{toc}{\beamer@sectionintoc {1}{Arrays}{4}{0}{1}}
\@writefile{nav}{\headcommand {\beamer@sectionpages {1}{3}}}
\@writefile{nav}{\headcommand {\beamer@subsectionpages {1}{3}}}
\@writefile{nav}{\headcommand {\sectionentry {1}{Arrays}{4}{Arrays}{0}}}
\@writefile{toc}{\beamer@subsectionintoc {1}{1}{What is an Array}{4}{0}{1}}
\@writefile{nav}{\headcommand {\beamer@subsectionpages {4}{3}}}
\@writefile{nav}{\headcommand {\beamer@subsectionentry {0}{1}{1}{4}{What is an Array}}}
\newlabeldata{mcid-58}{{tagabspage}{4}{tagmcabs}{58}{tagmcid}{11}}
\newlabeldata{l3pdf52}{{abspage}{4}}
\newlabeldata{mcid-47}{{tagabspage}{4}{tagmcabs}{47}{tagmcid}{0}}
\newlabeldata{l3pdf41}{{abspage}{4}}
\newlabeldata{mcid-48}{{tagabspage}{4}{tagmcabs}{48}{tagmcid}{1}}
\newlabeldata{l3pdf42}{{abspage}{4}}
\newlabeldata{mcid-49}{{tagabspage}{4}{tagmcabs}{49}{tagmcid}{2}}
\newlabeldata{l3pdf43}{{abspage}{4}}
\newlabeldata{mcid-50}{{tagabspage}{4}{tagmcabs}{50}{tagmcid}{3}}
\newlabeldata{l3pdf44}{{abspage}{4}}
\newlabeldata{mcid-51}{{tagabspage}{4}{tagmcabs}{51}{tagmcid}{4}}
\newlabeldata{l3pdf45}{{abspage}{4}}
\newlabeldata{mcid-52}{{tagabspage}{4}{tagmcabs}{52}{tagmcid}{5}}
\newlabeldata{l3pdf46}{{abspage}{4}}
\newlabeldata{mcid-53}{{tagabspage}{4}{tagmcabs}{53}{tagmcid}{6}}
\newlabeldata{l3pdf47}{{abspage}{4}}
\newlabeldata{mcid-54}{{tagabspage}{4}{tagmcabs}{54}{tagmcid}{7}}
\newlabeldata{l3pdf48}{{abspage}{4}}
\newlabeldata{mcid-55}{{tagabspage}{4}{tagmcabs}{55}{tagmcid}{8}}
\newlabeldata{l3pdf49}{{abspage}{4}}
\newlabeldata{mcid-56}{{tagabspage}{4}{tagmcabs}{56}{tagmcid}{9}}
\newlabeldata{l3pdf50}{{abspage}{4}}
\newlabeldata{mcid-57}{{tagabspage}{4}{tagmcabs}{57}{tagmcid}{10}}
\newlabeldata{l3pdf51}{{abspage}{4}}
\@writefile{nav}{\headcommand {\slideentry {1}{1}{1}{4/4}{What is an Array}{0}}}
\@writefile{nav}{\headcommand {\beamer@framepages {4}{4}}}
\BKM@entry{id=3,open,dest={4F75746C696E65302E312E322E35},srcline={129}}{5C3337365C3337375C303030445C303030655C303030635C3030306C5C303030615C303030725C303030695C3030306E5C303030675C3030305C3034305C303030615C3030306E5C3030305C3034305C303030415C303030725C303030725C303030615C30303079}
\@writefile{toc}{\beamer@subsectionintoc {1}{2}{Declaring an Array}{5}{0}{1}}
\@writefile{nav}{\headcommand {\beamer@subsectionpages {4}{4}}}
\@writefile{nav}{\headcommand {\beamer@subsectionentry {0}{1}{2}{5}{Declaring an Array}}}
\newlabeldata{mcid-86}{{tagabspage}{5}{tagmcabs}{86}{tagmcid}{25}}
\newlabeldata{l3pdf78}{{abspage}{5}}
\newlabeldata{mcid-61}{{tagabspage}{5}{tagmcabs}{61}{tagmcid}{0}}
\newlabeldata{l3pdf53}{{abspage}{5}}
\newlabeldata{mcid-62}{{tagabspage}{5}{tagmcabs}{62}{tagmcid}{1}}
\newlabeldata{l3pdf54}{{abspage}{5}}
\newlabeldata{mcid-63}{{tagabspage}{5}{tagmcabs}{63}{tagmcid}{2}}
\newlabeldata{l3pdf55}{{abspage}{5}}
\newlabeldata{mcid-64}{{tagabspage}{5}{tagmcabs}{64}{tagmcid}{3}}
\newlabeldata{l3pdf56}{{abspage}{5}}
\newlabeldata{mcid-65}{{tagabspage}{5}{tagmcabs}{65}{tagmcid}{4}}
\newlabeldata{l3pdf57}{{abspage}{5}}
\newlabeldata{mcid-66}{{tagabspage}{5}{tagmcabs}{66}{tagmcid}{5}}
\newlabeldata{l3pdf58}{{abspage}{5}}
\newlabeldata{mcid-67}{{tagabspage}{5}{tagmcabs}{67}{tagmcid}{6}}
\newlabeldata{l3pdf59}{{abspage}{5}}
\newlabeldata{mcid-68}{{tagabspage}{5}{tagmcabs}{68}{tagmcid}{7}}
\newlabeldata{l3pdf60}{{abspage}{5}}
\newlabeldata{mcid-69}{{tagabspage}{5}{tagmcabs}{69}{tagmcid}{8}}
\newlabeldata{l3pdf61}{{abspage}{5}}
\newlabeldata{mcid-70}{{tagabspage}{5}{tagmcabs}{70}{tagmcid}{9}}
\newlabeldata{l3pdf62}{{abspage}{5}}
\newlabeldata{mcid-71}{{tagabspage}{5}{tagmcabs}{71}{tagmcid}{10}}
\newlabeldata{l3pdf63}{{abspage}{5}}
\newlabeldata{mcid-72}{{tagabspage}{5}{tagmcabs}{72}{tagmcid}{11}}
\newlabeldata{l3pdf64}{{abspage}{5}}
\newlabeldata{mcid-73}{{tagabspage}{5}{tagmcabs}{73}{tagmcid}{12}}
\newlabeldata{l3pdf65}{{abspage}{5}}
\newlabeldata{mcid-74}{{tagabspage}{5}{tagmcabs}{74}{tagmcid}{13}}
\newlabeldata{l3pdf66}{{abspage}{5}}
\newlabeldata{mcid-75}{{tagabspage}{5}{tagmcabs}{75}{tagmcid}{14}}
\newlabeldata{l3pdf67}{{abspage}{5}}
\newlabeldata{mcid-76}{{tagabspage}{5}{tagmcabs}{76}{tagmcid}{15}}
\newlabeldata{l3pdf68}{{abspage}{5}}
\newlabeldata{mcid-77}{{tagabspage}{5}{tagmcabs}{77}{tagmcid}{16}}
\newlabeldata{l3pdf69}{{abspage}{5}}
\newlabeldata{mcid-78}{{tagabspage}{5}{tagmcabs}{78}{tagmcid}{17}}
\newlabeldata{l3pdf70}{{abspage}{5}}
\newlabeldata{mcid-79}{{tagabspage}{5}{tagmcabs}{79}{tagmcid}{18}}
\newlabeldata{l3pdf71}{{abspage}{5}}
\newlabeldata{mcid-80}{{tagabspage}{5}{tagmcabs}{80}{tagmcid}{19}}
\newlabeldata{l3pdf72}{{abspage}{5}}
\newlabeldata{mcid-81}{{tagabspage}{5}{tagmcabs}{81}{tagmcid}{20}}
\newlabeldata{l3pdf73}{{abspage}{5}}
\newlabeldata{mcid-82}{{tagabspage}{5}{tagmcabs}{82}{tagmcid}{21}}
\newlabeldata{l3pdf74}{{abspage}{5}}
\newlabeldata{mcid-83}{{tagabspage}{5}{tagmcabs}{83}{tagmcid}{22}}
\newlabeldata{l3pdf75}{{abspage}{5}}
\newlabeldata{mcid-84}{{tagabspage}{5}{tagmcabs}{84}{tagmcid}{23}}
\newlabeldata{l3pdf76}{{abspage}{5}}
\newlabeldata{mcid-85}{{tagabspage}{5}{tagmcabs}{85}{tagmcid}{24}}
\newlabeldata{l3pdf77}{{abspage}{5}}
\@writefile{nav}{\headcommand {\slideentry {1}{2}{1}{5/5}{Declaring an Array}{0}}}
\@writefile{nav}{\headcommand {\beamer@framepages {5}{5}}}
\BKM@entry{id=4,open,dest={4F75746C696E65302E312E332E36},srcline={159}}{5C3337365C3337375C303030495C3030306E5C303030645C303030655C303030785C303030695C3030306E5C303030675C3030305C3034305C303030615C3030306E5C3030305C3034305C303030415C303030725C303030725C303030615C30303079}
\@writefile{toc}{\beamer@subsectionintoc {1}{3}{Indexing an Array}{6}{0}{1}}
\@writefile{nav}{\headcommand {\beamer@subsectionpages {5}{5}}}
\@writefile{nav}{\headcommand {\beamer@subsectionentry {0}{1}{3}{6}{Indexing an Array}}}
\newlabeldata{mcid-106}{{tagabspage}{6}{tagmcabs}{106}{tagmcid}{17}}
\newlabeldata{l3pdf96}{{abspage}{6}}
\newlabeldata{mcid-89}{{tagabspage}{6}{tagmcabs}{89}{tagmcid}{0}}
\newlabeldata{l3pdf79}{{abspage}{6}}
\newlabeldata{mcid-90}{{tagabspage}{6}{tagmcabs}{90}{tagmcid}{1}}
\newlabeldata{l3pdf80}{{abspage}{6}}
\newlabeldata{mcid-91}{{tagabspage}{6}{tagmcabs}{91}{tagmcid}{2}}
\newlabeldata{l3pdf81}{{abspage}{6}}
\newlabeldata{mcid-92}{{tagabspage}{6}{tagmcabs}{92}{tagmcid}{3}}
\newlabeldata{l3pdf82}{{abspage}{6}}
\newlabeldata{mcid-93}{{tagabspage}{6}{tagmcabs}{93}{tagmcid}{4}}
\newlabeldata{l3pdf83}{{abspage}{6}}
\newlabeldata{mcid-94}{{tagabspage}{6}{tagmcabs}{94}{tagmcid}{5}}
\newlabeldata{l3pdf84}{{abspage}{6}}
\newlabeldata{mcid-95}{{tagabspage}{6}{tagmcabs}{95}{tagmcid}{6}}
\newlabeldata{l3pdf85}{{abspage}{6}}
\newlabeldata{mcid-96}{{tagabspage}{6}{tagmcabs}{96}{tagmcid}{7}}
\newlabeldata{l3pdf86}{{abspage}{6}}
\newlabeldata{mcid-97}{{tagabspage}{6}{tagmcabs}{97}{tagmcid}{8}}
\newlabeldata{l3pdf87}{{abspage}{6}}
\newlabeldata{mcid-98}{{tagabspage}{6}{tagmcabs}{98}{tagmcid}{9}}
\newlabeldata{l3pdf88}{{abspage}{6}}
\newlabeldata{mcid-99}{{tagabspage}{6}{tagmcabs}{99}{tagmcid}{10}}
\newlabeldata{l3pdf89}{{abspage}{6}}
\newlabeldata{mcid-100}{{tagabspage}{6}{tagmcabs}{100}{tagmcid}{11}}
\newlabeldata{l3pdf90}{{abspage}{6}}
\newlabeldata{mcid-101}{{tagabspage}{6}{tagmcabs}{101}{tagmcid}{12}}
\newlabeldata{l3pdf91}{{abspage}{6}}
\newlabeldata{mcid-102}{{tagabspage}{6}{tagmcabs}{102}{tagmcid}{13}}
\newlabeldata{l3pdf92}{{abspage}{6}}
\newlabeldata{mcid-103}{{tagabspage}{6}{tagmcabs}{103}{tagmcid}{14}}
\newlabeldata{l3pdf93}{{abspage}{6}}
\newlabeldata{mcid-104}{{tagabspage}{6}{tagmcabs}{104}{tagmcid}{15}}
\newlabeldata{l3pdf94}{{abspage}{6}}
\newlabeldata{mcid-105}{{tagabspage}{6}{tagmcabs}{105}{tagmcid}{16}}
\newlabeldata{l3pdf95}{{abspage}{6}}
\@writefile{nav}{\headcommand {\slideentry {1}{3}{1}{6/6}{Indexing an Array}{0}}}
\@writefile{nav}{\headcommand {\beamer@framepages {6}{6}}}
\newlabeldata{mcid-129}{{tagabspage}{7}{tagmcabs}{129}{tagmcid}{20}}
\newlabeldata{l3pdf117}{{abspage}{7}}
\newlabeldata{mcid-109}{{tagabspage}{7}{tagmcabs}{109}{tagmcid}{0}}
\newlabeldata{l3pdf97}{{abspage}{7}}
\newlabeldata{mcid-110}{{tagabspage}{7}{tagmcabs}{110}{tagmcid}{1}}
\newlabeldata{l3pdf98}{{abspage}{7}}
\newlabeldata{mcid-111}{{tagabspage}{7}{tagmcabs}{111}{tagmcid}{2}}
\newlabeldata{l3pdf99}{{abspage}{7}}
\newlabeldata{mcid-112}{{tagabspage}{7}{tagmcabs}{112}{tagmcid}{3}}
\newlabeldata{l3pdf100}{{abspage}{7}}
\newlabeldata{mcid-113}{{tagabspage}{7}{tagmcabs}{113}{tagmcid}{4}}
\newlabeldata{l3pdf101}{{abspage}{7}}
\newlabeldata{mcid-114}{{tagabspage}{7}{tagmcabs}{114}{tagmcid}{5}}
\newlabeldata{l3pdf102}{{abspage}{7}}
\newlabeldata{mcid-115}{{tagabspage}{7}{tagmcabs}{115}{tagmcid}{6}}
\newlabeldata{l3pdf103}{{abspage}{7}}
\newlabeldata{mcid-116}{{tagabspage}{7}{tagmcabs}{116}{tagmcid}{7}}
\newlabeldata{l3pdf104}{{abspage}{7}}
\newlabeldata{mcid-117}{{tagabspage}{7}{tagmcabs}{117}{tagmcid}{8}}
\newlabeldata{l3pdf105}{{abspage}{7}}
\newlabeldata{mcid-118}{{tagabspage}{7}{tagmcabs}{118}{tagmcid}{9}}
\newlabeldata{l3pdf106}{{abspage}{7}}
\newlabeldata{mcid-119}{{tagabspage}{7}{tagmcabs}{119}{tagmcid}{10}}
\newlabeldata{l3pdf107}{{abspage}{7}}
\newlabeldata{mcid-120}{{tagabspage}{7}{tagmcabs}{120}{tagmcid}{11}}
\newlabeldata{l3pdf108}{{abspage}{7}}
\newlabeldata{mcid-121}{{tagabspage}{7}{tagmcabs}{121}{tagmcid}{12}}
\newlabeldata{l3pdf109}{{abspage}{7}}
\newlabeldata{mcid-122}{{tagabspage}{7}{tagmcabs}{122}{tagmcid}{13}}
\newlabeldata{l3pdf110}{{abspage}{7}}
\newlabeldata{mcid-123}{{tagabspage}{7}{tagmcabs}{123}{tagmcid}{14}}
\newlabeldata{l3pdf111}{{abspage}{7}}
\newlabeldata{mcid-124}{{tagabspage}{7}{tagmcabs}{124}{tagmcid}{15}}
\newlabeldata{l3pdf112}{{abspage}{7}}
\newlabeldata{mcid-125}{{tagabspage}{7}{tagmcabs}{125}{tagmcid}{16}}
\newlabeldata{l3pdf113}{{abspage}{7}}
\newlabeldata{mcid-126}{{tagabspage}{7}{tagmcabs}{126}{tagmcid}{17}}
\newlabeldata{l3pdf114}{{abspage}{7}}
\newlabeldata{mcid-127}{{tagabspage}{7}{tagmcabs}{127}{tagmcid}{18}}
\newlabeldata{l3pdf115}{{abspage}{7}}
\newlabeldata{mcid-128}{{tagabspage}{7}{tagmcabs}{128}{tagmcid}{19}}
\newlabeldata{l3pdf116}{{abspage}{7}}
\@writefile{nav}{\headcommand {\slideentry {1}{3}{2}{7/7}{Indexing an Array}{0}}}
\@writefile{nav}{\headcommand {\beamer@framepages {7}{7}}}
\BKM@entry{id=5,open,dest={4F75746C696E65302E312E342E38},srcline={204}}{5C3337365C3337375C303030415C303030725C303030725C303030615C303030795C3030305C3034305C303030615C303030735C3030305C3034305C303030615C3030306E5C3030305C3034305C303030465C303030755C3030306E5C303030635C303030745C303030695C3030306F5C3030306E5C3030305C3034305C303030505C303030615C303030725C303030615C3030306D5C303030655C303030745C303030655C303030725C30303073}
\@writefile{toc}{\beamer@subsectionintoc {1}{4}{Array as an Function Parameters}{8}{0}{1}}
\@writefile{nav}{\headcommand {\beamer@subsectionpages {6}{7}}}
\@writefile{nav}{\headcommand {\beamer@subsectionentry {0}{1}{4}{8}{Array as an Function Parameters}}}
\newlabeldata{mcid-156}{{tagabspage}{8}{tagmcabs}{156}{tagmcid}{24}}
\newlabeldata{l3pdf142}{{abspage}{8}}
\newlabeldata{mcid-132}{{tagabspage}{8}{tagmcabs}{132}{tagmcid}{0}}
\newlabeldata{l3pdf118}{{abspage}{8}}
\newlabeldata{mcid-133}{{tagabspage}{8}{tagmcabs}{133}{tagmcid}{1}}
\newlabeldata{l3pdf119}{{abspage}{8}}
\newlabeldata{mcid-134}{{tagabspage}{8}{tagmcabs}{134}{tagmcid}{2}}
\newlabeldata{l3pdf120}{{abspage}{8}}
\newlabeldata{mcid-135}{{tagabspage}{8}{tagmcabs}{135}{tagmcid}{3}}
\newlabeldata{l3pdf121}{{abspage}{8}}
\newlabeldata{mcid-136}{{tagabspage}{8}{tagmcabs}{136}{tagmcid}{4}}
\newlabeldata{l3pdf122}{{abspage}{8}}
\newlabeldata{mcid-137}{{tagabspage}{8}{tagmcabs}{137}{tagmcid}{5}}
\newlabeldata{l3pdf123}{{abspage}{8}}
\newlabeldata{mcid-138}{{tagabspage}{8}{tagmcabs}{138}{tagmcid}{6}}
\newlabeldata{l3pdf124}{{abspage}{8}}
\newlabeldata{mcid-139}{{tagabspage}{8}{tagmcabs}{139}{tagmcid}{7}}
\newlabeldata{l3pdf125}{{abspage}{8}}
\newlabeldata{mcid-140}{{tagabspage}{8}{tagmcabs}{140}{tagmcid}{8}}
\newlabeldata{l3pdf126}{{abspage}{8}}
\newlabeldata{mcid-141}{{tagabspage}{8}{tagmcabs}{141}{tagmcid}{9}}
\newlabeldata{l3pdf127}{{abspage}{8}}
\newlabeldata{mcid-142}{{tagabspage}{8}{tagmcabs}{142}{tagmcid}{10}}
\newlabeldata{l3pdf128}{{abspage}{8}}
\newlabeldata{mcid-143}{{tagabspage}{8}{tagmcabs}{143}{tagmcid}{11}}
\newlabeldata{l3pdf129}{{abspage}{8}}
\newlabeldata{mcid-144}{{tagabspage}{8}{tagmcabs}{144}{tagmcid}{12}}
\newlabeldata{l3pdf130}{{abspage}{8}}
\newlabeldata{mcid-145}{{tagabspage}{8}{tagmcabs}{145}{tagmcid}{13}}
\newlabeldata{l3pdf131}{{abspage}{8}}
\newlabeldata{mcid-146}{{tagabspage}{8}{tagmcabs}{146}{tagmcid}{14}}
\newlabeldata{l3pdf132}{{abspage}{8}}
\newlabeldata{mcid-147}{{tagabspage}{8}{tagmcabs}{147}{tagmcid}{15}}
\newlabeldata{l3pdf133}{{abspage}{8}}
\newlabeldata{mcid-148}{{tagabspage}{8}{tagmcabs}{148}{tagmcid}{16}}
\newlabeldata{l3pdf134}{{abspage}{8}}
\newlabeldata{mcid-149}{{tagabspage}{8}{tagmcabs}{149}{tagmcid}{17}}
\newlabeldata{l3pdf135}{{abspage}{8}}
\newlabeldata{mcid-150}{{tagabspage}{8}{tagmcabs}{150}{tagmcid}{18}}
\newlabeldata{l3pdf136}{{abspage}{8}}
\newlabeldata{mcid-151}{{tagabspage}{8}{tagmcabs}{151}{tagmcid}{19}}
\newlabeldata{l3pdf137}{{abspage}{8}}
\newlabeldata{mcid-152}{{tagabspage}{8}{tagmcabs}{152}{tagmcid}{20}}
\newlabeldata{l3pdf138}{{abspage}{8}}
\newlabeldata{mcid-153}{{tagabspage}{8}{tagmcabs}{153}{tagmcid}{21}}
\newlabeldata{l3pdf139}{{abspage}{8}}
\newlabeldata{mcid-154}{{tagabspage}{8}{tagmcabs}{154}{tagmcid}{22}}
\newlabeldata{l3pdf140}{{abspage}{8}}
\newlabeldata{mcid-155}{{tagabspage}{8}{tagmcabs}{155}{tagmcid}{23}}
\newlabeldata{l3pdf141}{{abspage}{8}}
\@writefile{nav}{\headcommand {\slideentry {1}{4}{1}{8/8}{Array as an Function Parameters}{0}}}
\@writefile{nav}{\headcommand {\beamer@framepages {8}{8}}}
\BKM@entry{id=6,open,dest={4F75746C696E65302E312E352E39},srcline={237}}{5C3337365C3337375C303030545C303030775C3030306F5C3030302D5C303030445C303030695C3030306D5C303030655C3030306E5C303030735C303030695C3030306F5C3030306E5C303030615C3030306C5C3030305C3034305C303030415C303030725C303030725C303030615C303030795C30303073}
\@writefile{toc}{\beamer@subsectionintoc {1}{5}{Two-Dimensional Arrays}{9}{0}{1}}
\@writefile{nav}{\headcommand {\beamer@subsectionpages {8}{8}}}
\@writefile{nav}{\headcommand {\beamer@subsectionentry {0}{1}{5}{9}{Two-Dimensional Arrays}}}
\newlabeldata{mcid-185}{{tagabspage}{9}{tagmcabs}{185}{tagmcid}{26}}
\newlabeldata{l3pdf169}{{abspage}{9}}
\newlabeldata{mcid-159}{{tagabspage}{9}{tagmcabs}{159}{tagmcid}{0}}
\newlabeldata{l3pdf143}{{abspage}{9}}
\newlabeldata{mcid-160}{{tagabspage}{9}{tagmcabs}{160}{tagmcid}{1}}
\newlabeldata{l3pdf144}{{abspage}{9}}
\newlabeldata{mcid-161}{{tagabspage}{9}{tagmcabs}{161}{tagmcid}{2}}
\newlabeldata{l3pdf145}{{abspage}{9}}
\newlabeldata{mcid-162}{{tagabspage}{9}{tagmcabs}{162}{tagmcid}{3}}
\newlabeldata{l3pdf146}{{abspage}{9}}
\newlabeldata{mcid-163}{{tagabspage}{9}{tagmcabs}{163}{tagmcid}{4}}
\newlabeldata{l3pdf147}{{abspage}{9}}
\newlabeldata{mcid-164}{{tagabspage}{9}{tagmcabs}{164}{tagmcid}{5}}
\newlabeldata{l3pdf148}{{abspage}{9}}
\newlabeldata{mcid-165}{{tagabspage}{9}{tagmcabs}{165}{tagmcid}{6}}
\newlabeldata{l3pdf149}{{abspage}{9}}
\newlabeldata{mcid-166}{{tagabspage}{9}{tagmcabs}{166}{tagmcid}{7}}
\newlabeldata{l3pdf150}{{abspage}{9}}
\newlabeldata{mcid-167}{{tagabspage}{9}{tagmcabs}{167}{tagmcid}{8}}
\newlabeldata{l3pdf151}{{abspage}{9}}
\newlabeldata{mcid-168}{{tagabspage}{9}{tagmcabs}{168}{tagmcid}{9}}
\newlabeldata{l3pdf152}{{abspage}{9}}
\newlabeldata{mcid-169}{{tagabspage}{9}{tagmcabs}{169}{tagmcid}{10}}
\newlabeldata{l3pdf153}{{abspage}{9}}
\newlabeldata{mcid-170}{{tagabspage}{9}{tagmcabs}{170}{tagmcid}{11}}
\newlabeldata{l3pdf154}{{abspage}{9}}
\newlabeldata{mcid-171}{{tagabspage}{9}{tagmcabs}{171}{tagmcid}{12}}
\newlabeldata{l3pdf155}{{abspage}{9}}
\newlabeldata{mcid-172}{{tagabspage}{9}{tagmcabs}{172}{tagmcid}{13}}
\newlabeldata{l3pdf156}{{abspage}{9}}
\newlabeldata{mcid-173}{{tagabspage}{9}{tagmcabs}{173}{tagmcid}{14}}
\newlabeldata{l3pdf157}{{abspage}{9}}
\newlabeldata{mcid-174}{{tagabspage}{9}{tagmcabs}{174}{tagmcid}{15}}
\newlabeldata{l3pdf158}{{abspage}{9}}
\newlabeldata{mcid-175}{{tagabspage}{9}{tagmcabs}{175}{tagmcid}{16}}
\newlabeldata{l3pdf159}{{abspage}{9}}
\newlabeldata{mcid-176}{{tagabspage}{9}{tagmcabs}{176}{tagmcid}{17}}
\newlabeldata{l3pdf160}{{abspage}{9}}
\newlabeldata{mcid-177}{{tagabspage}{9}{tagmcabs}{177}{tagmcid}{18}}
\newlabeldata{l3pdf161}{{abspage}{9}}
\newlabeldata{mcid-178}{{tagabspage}{9}{tagmcabs}{178}{tagmcid}{19}}
\newlabeldata{l3pdf162}{{abspage}{9}}
\newlabeldata{mcid-179}{{tagabspage}{9}{tagmcabs}{179}{tagmcid}{20}}
\newlabeldata{l3pdf163}{{abspage}{9}}
\newlabeldata{mcid-180}{{tagabspage}{9}{tagmcabs}{180}{tagmcid}{21}}
\newlabeldata{l3pdf164}{{abspage}{9}}
\newlabeldata{mcid-181}{{tagabspage}{9}{tagmcabs}{181}{tagmcid}{22}}
\newlabeldata{l3pdf165}{{abspage}{9}}
\newlabeldata{mcid-182}{{tagabspage}{9}{tagmcabs}{182}{tagmcid}{23}}
\newlabeldata{l3pdf166}{{abspage}{9}}
\newlabeldata{mcid-183}{{tagabspage}{9}{tagmcabs}{183}{tagmcid}{24}}
\newlabeldata{l3pdf167}{{abspage}{9}}
\newlabeldata{mcid-184}{{tagabspage}{9}{tagmcabs}{184}{tagmcid}{25}}
\newlabeldata{l3pdf168}{{abspage}{9}}
\@writefile{nav}{\headcommand {\slideentry {1}{5}{1}{9/9}{Two-Dimensional Arrays}{0}}}
\@writefile{nav}{\headcommand {\beamer@framepages {9}{9}}}
\BKM@entry{id=7,open,dest={4F75746C696E65302E312E362E3130},srcline={269}}{5C3337365C3337375C303030545C303030775C3030306F5C3030302D5C303030445C303030695C3030306D5C303030655C3030306E5C303030735C303030695C3030306F5C3030306E5C303030615C3030306C5C3030305C3034305C303030415C303030725C303030725C303030615C303030795C3030305C3034305C303030415C303030725C303030675C303030755C3030306D5C303030655C3030306E5C303030745C30303073}
\@writefile{toc}{\beamer@subsectionintoc {1}{6}{Two-Dimensional Array Arguments}{10}{0}{1}}
\@writefile{nav}{\headcommand {\beamer@subsectionpages {9}{9}}}
\@writefile{nav}{\headcommand {\beamer@subsectionentry {0}{1}{6}{10}{Two-Dimensional Array Arguments}}}
\newlabeldata{mcid-203}{{tagabspage}{10}{tagmcabs}{203}{tagmcid}{15}}
\newlabeldata{l3pdf185}{{abspage}{10}}
\newlabeldata{mcid-188}{{tagabspage}{10}{tagmcabs}{188}{tagmcid}{0}}
\newlabeldata{l3pdf170}{{abspage}{10}}
\newlabeldata{mcid-189}{{tagabspage}{10}{tagmcabs}{189}{tagmcid}{1}}
\newlabeldata{l3pdf171}{{abspage}{10}}
\newlabeldata{mcid-190}{{tagabspage}{10}{tagmcabs}{190}{tagmcid}{2}}
\newlabeldata{l3pdf172}{{abspage}{10}}
\newlabeldata{mcid-191}{{tagabspage}{10}{tagmcabs}{191}{tagmcid}{3}}
\newlabeldata{l3pdf173}{{abspage}{10}}
\newlabeldata{mcid-192}{{tagabspage}{10}{tagmcabs}{192}{tagmcid}{4}}
\newlabeldata{l3pdf174}{{abspage}{10}}
\newlabeldata{mcid-193}{{tagabspage}{10}{tagmcabs}{193}{tagmcid}{5}}
\newlabeldata{l3pdf175}{{abspage}{10}}
\newlabeldata{mcid-194}{{tagabspage}{10}{tagmcabs}{194}{tagmcid}{6}}
\newlabeldata{l3pdf176}{{abspage}{10}}
\newlabeldata{mcid-195}{{tagabspage}{10}{tagmcabs}{195}{tagmcid}{7}}
\newlabeldata{l3pdf177}{{abspage}{10}}
\newlabeldata{mcid-196}{{tagabspage}{10}{tagmcabs}{196}{tagmcid}{8}}
\newlabeldata{l3pdf178}{{abspage}{10}}
\newlabeldata{mcid-197}{{tagabspage}{10}{tagmcabs}{197}{tagmcid}{9}}
\newlabeldata{l3pdf179}{{abspage}{10}}
\newlabeldata{mcid-198}{{tagabspage}{10}{tagmcabs}{198}{tagmcid}{10}}
\newlabeldata{l3pdf180}{{abspage}{10}}
\newlabeldata{mcid-199}{{tagabspage}{10}{tagmcabs}{199}{tagmcid}{11}}
\newlabeldata{l3pdf181}{{abspage}{10}}
\newlabeldata{mcid-200}{{tagabspage}{10}{tagmcabs}{200}{tagmcid}{12}}
\newlabeldata{l3pdf182}{{abspage}{10}}
\newlabeldata{mcid-201}{{tagabspage}{10}{tagmcabs}{201}{tagmcid}{13}}
\newlabeldata{l3pdf183}{{abspage}{10}}
\newlabeldata{mcid-202}{{tagabspage}{10}{tagmcabs}{202}{tagmcid}{14}}
\newlabeldata{l3pdf184}{{abspage}{10}}
\@writefile{nav}{\headcommand {\slideentry {1}{6}{1}{10/10}{Two-Dimensional Array Arguments}{0}}}
\@writefile{nav}{\headcommand {\beamer@framepages {10}{10}}}
\BKM@entry{id=8,open,dest={4F75746C696E65302E32},srcline={290}}{5C3337365C3337375C303030415C3030306C5C3030306C5C3030306F5C303030635C303030615C303030745C303030695C3030306E5C303030675C3030305C3034305C303030615C3030305C3034305C303030325C3030302D5C303030445C303030695C3030306D5C303030655C3030306E5C303030735C303030695C3030306F5C3030306E5C303030615C3030306C5C3030305C3034305C303030415C303030725C303030725C303030615C303030795C3030305C3034305C303030445C303030795C3030306E5C303030615C3030306D5C303030695C303030635C303030615C3030306C5C3030306C5C30303079}
\@writefile{toc}{\beamer@sectionintoc {2}{Allocating a 2-Dimensional Array Dynamically}{11}{0}{2}}
\@writefile{nav}{\headcommand {\beamer@sectionpages {4}{10}}}
\@writefile{nav}{\headcommand {\beamer@subsectionpages {10}{10}}}
\@writefile{nav}{\headcommand {\sectionentry {2}{Allocating a 2-Dimensional Array Dynamically}{11}{Allocating a 2-Dimensional Array Dynamically}{0}}}
\newlabeldata{mcid-225}{{tagabspage}{11}{tagmcabs}{225}{tagmcid}{19}}
\newlabeldata{l3pdf205}{{abspage}{11}}
\newlabeldata{mcid-206}{{tagabspage}{11}{tagmcabs}{206}{tagmcid}{0}}
\newlabeldata{l3pdf186}{{abspage}{11}}
\newlabeldata{mcid-207}{{tagabspage}{11}{tagmcabs}{207}{tagmcid}{1}}
\newlabeldata{l3pdf187}{{abspage}{11}}
\newlabeldata{mcid-208}{{tagabspage}{11}{tagmcabs}{208}{tagmcid}{2}}
\newlabeldata{l3pdf188}{{abspage}{11}}
\newlabeldata{mcid-209}{{tagabspage}{11}{tagmcabs}{209}{tagmcid}{3}}
\newlabeldata{l3pdf189}{{abspage}{11}}
\newlabeldata{mcid-210}{{tagabspage}{11}{tagmcabs}{210}{tagmcid}{4}}
\newlabeldata{l3pdf190}{{abspage}{11}}
\newlabeldata{mcid-211}{{tagabspage}{11}{tagmcabs}{211}{tagmcid}{5}}
\newlabeldata{l3pdf191}{{abspage}{11}}
\newlabeldata{mcid-212}{{tagabspage}{11}{tagmcabs}{212}{tagmcid}{6}}
\newlabeldata{l3pdf192}{{abspage}{11}}
\newlabeldata{mcid-213}{{tagabspage}{11}{tagmcabs}{213}{tagmcid}{7}}
\newlabeldata{l3pdf193}{{abspage}{11}}
\newlabeldata{mcid-214}{{tagabspage}{11}{tagmcabs}{214}{tagmcid}{8}}
\newlabeldata{l3pdf194}{{abspage}{11}}
\newlabeldata{mcid-215}{{tagabspage}{11}{tagmcabs}{215}{tagmcid}{9}}
\newlabeldata{l3pdf195}{{abspage}{11}}
\newlabeldata{mcid-216}{{tagabspage}{11}{tagmcabs}{216}{tagmcid}{10}}
\newlabeldata{l3pdf196}{{abspage}{11}}
\newlabeldata{mcid-217}{{tagabspage}{11}{tagmcabs}{217}{tagmcid}{11}}
\newlabeldata{l3pdf197}{{abspage}{11}}
\newlabeldata{mcid-218}{{tagabspage}{11}{tagmcabs}{218}{tagmcid}{12}}
\newlabeldata{l3pdf198}{{abspage}{11}}
\newlabeldata{mcid-219}{{tagabspage}{11}{tagmcabs}{219}{tagmcid}{13}}
\newlabeldata{l3pdf199}{{abspage}{11}}
\newlabeldata{mcid-220}{{tagabspage}{11}{tagmcabs}{220}{tagmcid}{14}}
\newlabeldata{l3pdf200}{{abspage}{11}}
\newlabeldata{mcid-221}{{tagabspage}{11}{tagmcabs}{221}{tagmcid}{15}}
\newlabeldata{l3pdf201}{{abspage}{11}}
\newlabeldata{mcid-222}{{tagabspage}{11}{tagmcabs}{222}{tagmcid}{16}}
\newlabeldata{l3pdf202}{{abspage}{11}}
\newlabeldata{mcid-223}{{tagabspage}{11}{tagmcabs}{223}{tagmcid}{17}}
\newlabeldata{l3pdf203}{{abspage}{11}}
\newlabeldata{mcid-224}{{tagabspage}{11}{tagmcabs}{224}{tagmcid}{18}}
\newlabeldata{l3pdf204}{{abspage}{11}}
\@writefile{nav}{\headcommand {\slideentry {2}{0}{1}{11/11}{}{0}}}
\@writefile{nav}{\headcommand {\beamer@framepages {11}{11}}}
\BKM@entry{id=9,open,dest={4F75746C696E65302E322E312E3132},srcline={316}}{5C3337365C3337375C303030505C303030615C303030735C303030735C303030695C3030306E5C303030675C3030305C3034305C303030615C3030305C3034305C303030445C303030795C3030306E5C303030615C3030306D5C303030695C303030635C3030305C3034305C303030325C303030445C3030305C3034305C303030415C303030725C303030725C303030615C303030795C3030305C3034305C303030615C303030735C3030305C3034305C303030615C3030306E5C3030305C3034305C303030415C303030725C303030675C303030755C3030306D5C303030655C3030306E5C30303074}
\@writefile{toc}{\beamer@subsectionintoc {2}{1}{Passing a Dynamic 2D Array as an Argument}{12}{0}{2}}
\@writefile{nav}{\headcommand {\beamer@subsectionpages {11}{11}}}
\@writefile{nav}{\headcommand {\beamer@subsectionentry {0}{2}{1}{12}{Passing a Dynamic 2D Array as an Argument}}}
\newlabeldata{mcid-239}{{tagabspage}{12}{tagmcabs}{239}{tagmcid}{11}}
\newlabeldata{l3pdf217}{{abspage}{12}}
\newlabeldata{mcid-228}{{tagabspage}{12}{tagmcabs}{228}{tagmcid}{0}}
\newlabeldata{l3pdf206}{{abspage}{12}}
\newlabeldata{mcid-229}{{tagabspage}{12}{tagmcabs}{229}{tagmcid}{1}}
\newlabeldata{l3pdf207}{{abspage}{12}}
\newlabeldata{mcid-230}{{tagabspage}{12}{tagmcabs}{230}{tagmcid}{2}}
\newlabeldata{l3pdf208}{{abspage}{12}}
\newlabeldata{mcid-231}{{tagabspage}{12}{tagmcabs}{231}{tagmcid}{3}}
\newlabeldata{l3pdf209}{{abspage}{12}}
\newlabeldata{mcid-232}{{tagabspage}{12}{tagmcabs}{232}{tagmcid}{4}}
\newlabeldata{l3pdf210}{{abspage}{12}}
\newlabeldata{mcid-233}{{tagabspage}{12}{tagmcabs}{233}{tagmcid}{5}}
\newlabeldata{l3pdf211}{{abspage}{12}}
\newlabeldata{mcid-234}{{tagabspage}{12}{tagmcabs}{234}{tagmcid}{6}}
\newlabeldata{l3pdf212}{{abspage}{12}}
\newlabeldata{mcid-235}{{tagabspage}{12}{tagmcabs}{235}{tagmcid}{7}}
\newlabeldata{l3pdf213}{{abspage}{12}}
\newlabeldata{mcid-236}{{tagabspage}{12}{tagmcabs}{236}{tagmcid}{8}}
\newlabeldata{l3pdf214}{{abspage}{12}}
\newlabeldata{mcid-237}{{tagabspage}{12}{tagmcabs}{237}{tagmcid}{9}}
\newlabeldata{l3pdf215}{{abspage}{12}}
\newlabeldata{mcid-238}{{tagabspage}{12}{tagmcabs}{238}{tagmcid}{10}}
\newlabeldata{l3pdf216}{{abspage}{12}}
\@writefile{nav}{\headcommand {\slideentry {2}{1}{1}{12/12}{Passing a Dynamic 2D Array as an Argument}{0}}}
\@writefile{nav}{\headcommand {\beamer@framepages {12}{12}}}
\@writefile{nav}{\headcommand {\beamer@partpages {1}{12}}}
\@writefile{nav}{\headcommand {\beamer@subsectionpages {12}{12}}}
\@writefile{nav}{\headcommand {\beamer@sectionpages {11}{12}}}
\@writefile{nav}{\headcommand {\beamer@documentpages {12}}}
\@writefile{nav}{\headcommand {\gdef \inserttotalframenumber {12}}}
\gdef\minted@oldcachelist{,
  default.pygstyle,
  F3A6D77EAF8207E412AE7D517F51675295A0E0316CDC503836DF94A235E39E25.pygtex,
  C5A0A816EFFF5CC45DABCB9BA416403A95A0E0316CDC503836DF94A235E39E25.pygtex,
  89D4A4EE3348A676C7D1DC73C303645995A0E0316CDC503836DF94A235E39E25.pygtex,
  6E2EF97794FE3463A7F8D520B4DD025695A0E0316CDC503836DF94A235E39E25.pygtex,
  656B132E7710B6C100BFE4B60F66AFAC95A0E0316CDC503836DF94A235E39E25.pygtex,
  AEC9877FE9A3C020310FFF5C95FB0CA895A0E0316CDC503836DF94A235E39E25.pygtex,
  2FE03D68AC98C1D32764DA4DCA578E5D95A0E0316CDC503836DF94A235E39E25.pygtex,
  EA93A1D0745153AED8581CA04D929D4195A0E0316CDC503836DF94A235E39E25.pygtex}
\newlabeldata{__tag_LastPage}{{abspage}{12}{tagmcabs}{241}}
\gdef\svg@ink@ver@settings{{\m@ne }{inkscape}{1}}
\gdef \@abspage@last{12}
