\headcommand {\slideentry {0}{0}{1}{1/1}{}{0}}
\headcommand {\beamer@framepages {1}{1}}
\headcommand {\slideentry {0}{0}{2}{2/2}{}{0}}
\headcommand {\beamer@framepages {2}{2}}
\headcommand {\slideentry {0}{0}{3}{3/3}{}{0}}
\headcommand {\beamer@framepages {3}{3}}
\headcommand {\beamer@sectionpages {1}{3}}
\headcommand {\beamer@subsectionpages {1}{3}}
\headcommand {\sectionentry {1}{Arrays}{4}{Arrays}{0}}
\headcommand {\beamer@subsectionpages {4}{3}}
\headcommand {\beamer@subsectionentry {0}{1}{1}{4}{What is an Array}}
\headcommand {\slideentry {1}{1}{1}{4/4}{What is an Array}{0}}
\headcommand {\beamer@framepages {4}{4}}
\headcommand {\beamer@subsectionpages {4}{4}}
\headcommand {\beamer@subsectionentry {0}{1}{2}{5}{Declaring an Array}}
\headcommand {\slideentry {1}{2}{1}{5/5}{Declaring an Array}{0}}
\headcommand {\beamer@framepages {5}{5}}
\headcommand {\beamer@subsectionpages {5}{5}}
\headcommand {\beamer@subsectionentry {0}{1}{3}{6}{Indexing an Array}}
\headcommand {\slideentry {1}{3}{1}{6/6}{Indexing an Array}{0}}
\headcommand {\beamer@framepages {6}{6}}
\headcommand {\slideentry {1}{3}{2}{7/7}{Indexing an Array}{0}}
\headcommand {\beamer@framepages {7}{7}}
\headcommand {\beamer@subsectionpages {6}{7}}
\headcommand {\beamer@subsectionentry {0}{1}{4}{8}{Array as an Function Parameters}}
\headcommand {\slideentry {1}{4}{1}{8/8}{Array as an Function Parameters}{0}}
\headcommand {\beamer@framepages {8}{8}}
\headcommand {\beamer@subsectionpages {8}{8}}
\headcommand {\beamer@subsectionentry {0}{1}{5}{9}{Two-Dimensional Arrays}}
\headcommand {\slideentry {1}{5}{1}{9/9}{Two-Dimensional Arrays}{0}}
\headcommand {\beamer@framepages {9}{9}}
\headcommand {\beamer@subsectionpages {9}{9}}
\headcommand {\beamer@subsectionentry {0}{1}{6}{10}{Two-Dimensional Array Arguments}}
\headcommand {\slideentry {1}{6}{1}{10/10}{Two-Dimensional Array Arguments}{0}}
\headcommand {\beamer@framepages {10}{10}}
\headcommand {\beamer@sectionpages {4}{10}}
\headcommand {\beamer@subsectionpages {10}{10}}
\headcommand {\sectionentry {2}{Allocating a 2-Dimensional Array Dynamically}{11}{Allocating a 2-Dimensional Array Dynamically}{0}}
\headcommand {\slideentry {2}{0}{1}{11/11}{}{0}}
\headcommand {\beamer@framepages {11}{11}}
\headcommand {\beamer@subsectionpages {11}{11}}
\headcommand {\beamer@subsectionentry {0}{2}{1}{12}{Passing a Dynamic 2D Array as an Argument}}
\headcommand {\slideentry {2}{1}{1}{12/12}{Passing a Dynamic 2D Array as an Argument}{0}}
\headcommand {\beamer@framepages {12}{12}}
\headcommand {\beamer@partpages {1}{12}}
\headcommand {\beamer@subsectionpages {12}{12}}
\headcommand {\beamer@sectionpages {11}{12}}
\headcommand {\beamer@documentpages {12}}
\headcommand {\gdef \inserttotalframenumber {12}}
