<svg viewBox="0 0 261 385.5" xmlns="http://www.w3.org/2000/svg">
<g>
<g>
<g transform="translate(0,0)">
<path d="M0,0 l0,17.5 l59,0 l0,-17.5 z" fill="black" stroke="none"/>
<path d="M1.5,1.5 l0,14.5 l56,0 l0,-14.5 z" fill="white" stroke="none"/>
<text dominant-baseline="middle" fill="black" font-family="monospace" font-size="8" text-anchor="middle" x="29.5" y="8.75">
----
</text>
</g>
<g transform="translate(0,16)">
<path d="M0,0 l0,17.5 l59,0 l0,-17.5 z" fill="black" stroke="none"/>
<path d="M1.5,1.5 l0,14.5 l56,0 l0,-14.5 z" fill="white" stroke="none"/>
<text dominant-baseline="middle" fill="black" font-family="monospace" font-size="8" text-anchor="middle" x="29.5" y="8.75">
----
</text>
</g>
<g transform="translate(0,32)">
<path d="M0,0 l0,17.5 l59,0 l0,-17.5 z" fill="black" stroke="none"/>
<path d="M1.5,1.5 l0,14.5 l56,0 l0,-14.5 z" fill="white" stroke="none"/>
<text dominant-baseline="middle" fill="black" font-family="monospace" font-size="8" text-anchor="middle" x="29.5" y="8.75">
----
</text>
</g>
<g transform="translate(0,48)">
<path d="M0,0 l0,17.5 l59,0 l0,-17.5 z" fill="black" stroke="none"/>
<path d="M1.5,1.5 l0,14.5 l56,0 l0,-14.5 z" fill="white" stroke="none"/>
<text dominant-baseline="middle" fill="black" font-family="monospace" font-size="8" text-anchor="middle" x="29.5" y="8.75">
----
</text>
</g>
<g transform="translate(0,64)">
<path d="M0,0 l0,17.5 l59,0 l0,-17.5 z" fill="black" stroke="none"/>
<path d="M1.5,1.5 l0,14.5 l56,0 l0,-14.5 z" fill="white" stroke="none"/>
<text dominant-baseline="middle" fill="black" font-family="monospace" font-size="8" text-anchor="middle" x="29.5" y="8.75">
----
</text>
</g>
<g transform="translate(0,80)">
<path d="M0,0 l0,17.5 l59,0 l0,-17.5 z" fill="black" stroke="none"/>
<path d="M1.5,1.5 l0,14.5 l56,0 l0,-14.5 z" fill="white" stroke="none"/>
<text dominant-baseline="middle" fill="black" font-family="monospace" font-size="8" text-anchor="middle" x="29.5" y="8.75">
----
</text>
</g>
<g transform="translate(0,96)">
<path d="M0,0 l0,17.5 l59,0 l0,-17.5 z" fill="black" stroke="none"/>
<path d="M1.5,1.5 l0,14.5 l56,0 l0,-14.5 z" fill="white" stroke="none"/>
<text dominant-baseline="middle" fill="black" font-family="monospace" font-size="8" text-anchor="middle" x="29.5" y="8.75">
----
</text>
</g>
<g transform="translate(0,112)">
<path d="M0,0 l0,17.5 l59,0 l0,-17.5 z" fill="black" stroke="none"/>
<path d="M1.5,1.5 l0,14.5 l56,0 l0,-14.5 z" fill="white" stroke="none"/>
<text dominant-baseline="middle" fill="black" font-family="monospace" font-size="8" text-anchor="middle" x="29.5" y="8.75">
----
</text>
</g>
<g transform="translate(0,128)">
<path d="M0,0 l0,17.5 l59,0 l0,-17.5 z" fill="black" stroke="none"/>
<path d="M1.5,1.5 l0,14.5 l56,0 l0,-14.5 z" fill="white" stroke="none"/>
<text dominant-baseline="middle" fill="black" font-family="monospace" font-size="8" text-anchor="middle" x="29.5" y="8.75">
----
</text>
</g>
<g transform="translate(0,144)">
<path d="M0,0 l0,17.5 l59,0 l0,-17.5 z" fill="black" stroke="none"/>
<path d="M1.5,1.5 l0,14.5 l56,0 l0,-14.5 z" fill="white" stroke="none"/>
<text dominant-baseline="middle" fill="black" font-family="monospace" font-size="8" text-anchor="middle" x="29.5" y="8.75">
----
</text>
</g>
<g transform="translate(0,160)">
<path d="M0,0 l0,17.5 l59,0 l0,-17.5 z" fill="black" stroke="none"/>
<path d="M1.5,1.5 l0,14.5 l56,0 l0,-14.5 z" fill="white" stroke="none"/>
<text dominant-baseline="middle" fill="black" font-family="monospace" font-size="8" text-anchor="middle" x="29.5" y="8.75">
----
</text>
</g>
<g transform="translate(0,176)">
<path d="M0,0 l0,17.5 l59,0 l0,-17.5 z" fill="black" stroke="none"/>
<path d="M1.5,1.5 l0,14.5 l56,0 l0,-14.5 z" fill="white" stroke="none"/>
<text dominant-baseline="middle" fill="black" font-family="monospace" font-size="8" text-anchor="middle" x="29.5" y="8.75">
----
</text>
</g>
<g transform="translate(0,192)">
<path d="M0,0 l0,17.5 l59,0 l0,-17.5 z" fill="black" stroke="none"/>
<path d="M1.5,1.5 l0,14.5 l56,0 l0,-14.5 z" fill="white" stroke="none"/>
<text dominant-baseline="middle" fill="black" font-family="monospace" font-size="8" text-anchor="middle" x="29.5" y="8.75">
----
</text>
</g>
<g transform="translate(0,208)">
<path d="M0,0 l0,17.5 l59,0 l0,-17.5 z" fill="black" stroke="none"/>
<path d="M1.5,1.5 l0,14.5 l56,0 l0,-14.5 z" fill="white" stroke="none"/>
<text dominant-baseline="middle" fill="black" font-family="monospace" font-size="8" text-anchor="middle" x="29.5" y="8.75">
----
</text>
</g>
<g transform="translate(0,224)">
<path d="M0,0 l0,17.5 l59,0 l0,-17.5 z" fill="black" stroke="none"/>
<path d="M1.5,1.5 l0,14.5 l56,0 l0,-14.5 z" fill="white" stroke="none"/>
<text dominant-baseline="middle" fill="black" font-family="monospace" font-size="8" text-anchor="middle" x="29.5" y="8.75">
----
</text>
</g>
<g transform="translate(0,240)">
<path d="M0,0 l0,17.5 l59,0 l0,-17.5 z" fill="black" stroke="none"/>
<path d="M1.5,1.5 l0,14.5 l56,0 l0,-14.5 z" fill="white" stroke="none"/>
<text dominant-baseline="middle" fill="black" font-family="monospace" font-size="8" text-anchor="middle" x="29.5" y="8.75">
----
</text>
</g>
<g transform="translate(0,256)">
<path d="M0,0 l0,17.5 l59,0 l0,-17.5 z" fill="black" stroke="none"/>
<path d="M1.5,1.5 l0,14.5 l56,0 l0,-14.5 z" fill="white" stroke="none"/>
<text dominant-baseline="middle" fill="black" font-family="monospace" font-size="8" text-anchor="middle" x="29.5" y="8.75">
----
</text>
</g>
<g transform="translate(0,272)">
<path d="M0,0 l0,17.5 l59,0 l0,-17.5 z" fill="black" stroke="none"/>
<path d="M1.5,1.5 l0,14.5 l56,0 l0,-14.5 z" fill="white" stroke="none"/>
<text dominant-baseline="middle" fill="black" font-family="monospace" font-size="8" text-anchor="middle" x="29.5" y="8.75">
----
</text>
</g>
<g transform="translate(0,288)">
<path d="M0,0 l0,17.5 l59,0 l0,-17.5 z" fill="black" stroke="none"/>
<path d="M1.5,1.5 l0,14.5 l56,0 l0,-14.5 z" fill="white" stroke="none"/>
<text dominant-baseline="middle" fill="black" font-family="monospace" font-size="8" text-anchor="middle" x="29.5" y="8.75">
----
</text>
</g>
<g transform="translate(0,304)">
<path d="M0,0 l0,17.5 l59,0 l0,-17.5 z" fill="black" stroke="none"/>
<path d="M1.5,1.5 l0,14.5 l56,0 l0,-14.5 z" fill="white" stroke="none"/>
<text dominant-baseline="middle" fill="black" font-family="monospace" font-size="8" text-anchor="middle" x="29.5" y="8.75">
----
</text>
</g>
<g transform="translate(0,320)">
<path d="M0,0 l0,17.5 l59,0 l0,-17.5 z" fill="black" stroke="none"/>
<path d="M1.5,1.5 l0,14.5 l56,0 l0,-14.5 z" fill="white" stroke="none"/>
<text dominant-baseline="middle" fill="black" font-family="monospace" font-size="8" text-anchor="middle" x="29.5" y="8.75">
----
</text>
</g>
<g transform="translate(0,336)">
<path d="M0,0 l0,17.5 l59,0 l0,-17.5 z" fill="black" stroke="none"/>
<path d="M1.5,1.5 l0,14.5 l56,0 l0,-14.5 z" fill="white" stroke="none"/>
<text dominant-baseline="middle" fill="black" font-family="monospace" font-size="8" text-anchor="middle" x="29.5" y="8.75">
----
</text>
</g>
<g transform="translate(0,352)">
<path d="M0,0 l0,17.5 l59,0 l0,-17.5 z" fill="black" stroke="none"/>
<path d="M1.5,1.5 l0,14.5 l56,0 l0,-14.5 z" fill="white" stroke="none"/>
<text dominant-baseline="middle" fill="black" font-family="monospace" font-size="8" text-anchor="middle" x="29.5" y="8.75">
----
</text>
</g>
<g transform="translate(0,368)">
<path d="M0,0 l0,17.5 l59,0 l0,-17.5 z" fill="black" stroke="none"/>
<path d="M1.5,1.5 l0,14.5 l56,0 l0,-14.5 z" fill="white" stroke="none"/>
<text dominant-baseline="middle" fill="black" font-family="monospace" font-size="8" text-anchor="middle" x="29.5" y="8.75">
----
</text>
</g>
<g fill="#DDD" transform="translate(56,0)">
<path d="M0,0 l0,385.5 l199,0 l6,-6 l0,-363.5 l-0,-8 l0,-8 z" fill="black" stroke="none"/>
<path d="M1.5,1.5 l0,382.5 l196.75,0 l5.25,-5.25 l0,-362 l-0,-8.75 l0,-6.5 z" stroke="none"/>
<g fill="#BBB" transform="translate(0,0)">
<path d="M0,0 l0,129.5 l122,0 l6,-6 l0,-107.5 l-6,-8 l6,-8 z" fill="black" stroke="none"/>
<path d="M1.5,1.5 l0,126.5 l119.75,0 l5.25,-5.25 l0,-106 l-6,-8.75 l6,-6.5 z" stroke="none"/>
<g fill="#DDD" transform="translate(0,0)">
<path d="M0,0 l0,65.5 l55,0 l6,-6 l0,-43.5 l-6,-8 l6,-8 z" fill="black" stroke="none"/>
<path d="M1.5,1.5 l0,62.5 l52.75,0 l5.25,-5.25 l0,-42 l-6,-8.75 l6,-6.5 z" stroke="none"/>
<g transform="translate(0,0)">
<path d="M0,0 l-6,8 l6,8 l61,0 l-6,-8 l6,-8 z" fill="black" stroke="none"/>
<text dominant-baseline="middle" fill="white" font-family="monospace" font-size="8" text-anchor="middle" x="14.5" y="8">
float
</text>
<g transform="translate(37,2.75)">
<path d="M0,0 a2,2,0,0,0,0,12 l5,0 a2,2,0,0,0,0,-12 z" fill="white" stroke="none"/>
<text dominant-baseline="middle" fill="black" font-family="monospace" font-size="8" text-anchor="middle" x="2.5" y="6">
x
</text>
</g>
</g>
</g>
<g fill="#999" transform="translate(0,64)">
<path d="M0,0 l0,65.5 l55,0 l6,-6 l0,-43.5 l-0,-8 l0,-8 z" fill="black" stroke="none"/>
<path d="M1.5,1.5 l0,62.5 l52.75,0 l5.25,-5.25 l0,-42 l-0,-8.75 l0,-6.5 z" stroke="none"/>
<g transform="translate(0,0)">
<path d="M0,0 l-6,8 l6,8 l61,0 l-0,-8 l0,-8 z" fill="black" stroke="none"/>
<text dominant-baseline="middle" fill="white" font-family="monospace" font-size="8" text-anchor="middle" x="14.5" y="8">
float
</text>
<g transform="translate(37,2.75)">
<path d="M0,0 a2,2,0,0,0,0,12 l5,0 a2,2,0,0,0,0,-12 z" fill="white" stroke="none"/>
<text dominant-baseline="middle" fill="black" font-family="monospace" font-size="8" text-anchor="middle" x="2.5" y="6">
y
</text>
</g>
</g>
</g>
<g transform="translate(64,0)">
<path d="M0,0 l-6,8 l6,8 l64,0 l-6,-8 l6,-8 z" fill="black" stroke="none"/>
<text dominant-baseline="middle" fill="white" font-family="monospace" font-size="8" text-anchor="middle" x="14.5" y="8">
Point
</text>
<g transform="translate(40,2.75)">
<path d="M0,0 a2,2,0,0,0,0,12 l5,0 a2,2,0,0,0,0,-12 z" fill="white" stroke="none"/>
<text dominant-baseline="middle" fill="black" font-family="monospace" font-size="8" text-anchor="middle" x="2.5" y="6">
a
</text>
</g>
</g>
</g>
<g fill="#777" transform="translate(0,128)">
<path d="M0,0 l0,129.5 l122,0 l6,-6 l0,-107.5 l-0,-8 l0,-8 z" fill="black" stroke="none"/>
<path d="M1.5,1.5 l0,126.5 l119.75,0 l5.25,-5.25 l0,-106 l-0,-8.75 l0,-6.5 z" stroke="none"/>
<g fill="#BBB" transform="translate(0,0)">
<path d="M0,0 l0,65.5 l55,0 l6,-6 l0,-43.5 l-6,-8 l6,-8 z" fill="black" stroke="none"/>
<path d="M1.5,1.5 l0,62.5 l52.75,0 l5.25,-5.25 l0,-42 l-6,-8.75 l6,-6.5 z" stroke="none"/>
<g transform="translate(0,0)">
<path d="M0,0 l-6,8 l6,8 l61,0 l-6,-8 l6,-8 z" fill="black" stroke="none"/>
<text dominant-baseline="middle" fill="white" font-family="monospace" font-size="8" text-anchor="middle" x="14.5" y="8">
float
</text>
<g transform="translate(37,2.75)">
<path d="M0,0 a2,2,0,0,0,0,12 l5,0 a2,2,0,0,0,0,-12 z" fill="white" stroke="none"/>
<text dominant-baseline="middle" fill="black" font-family="monospace" font-size="8" text-anchor="middle" x="2.5" y="6">
x
</text>
</g>
</g>
</g>
<g fill="#999" transform="translate(0,64)">
<path d="M0,0 l0,65.5 l55,0 l6,-6 l0,-43.5 l-0,-8 l0,-8 z" fill="black" stroke="none"/>
<path d="M1.5,1.5 l0,62.5 l52.75,0 l5.25,-5.25 l0,-42 l-0,-8.75 l0,-6.5 z" stroke="none"/>
<g transform="translate(0,0)">
<path d="M0,0 l-6,8 l6,8 l61,0 l-0,-8 l0,-8 z" fill="black" stroke="none"/>
<text dominant-baseline="middle" fill="white" font-family="monospace" font-size="8" text-anchor="middle" x="14.5" y="8">
float
</text>
<g transform="translate(37,2.75)">
<path d="M0,0 a2,2,0,0,0,0,12 l5,0 a2,2,0,0,0,0,-12 z" fill="white" stroke="none"/>
<text dominant-baseline="middle" fill="black" font-family="monospace" font-size="8" text-anchor="middle" x="2.5" y="6">
y
</text>
</g>
</g>
</g>
<g transform="translate(64,0)">
<path d="M0,0 l-6,8 l6,8 l64,0 l-0,-8 l0,-8 z" fill="black" stroke="none"/>
<text dominant-baseline="middle" fill="white" font-family="monospace" font-size="8" text-anchor="middle" x="14.5" y="8">
Point
</text>
<g transform="translate(40,2.75)">
<path d="M0,0 a2,2,0,0,0,0,12 l5,0 a2,2,0,0,0,0,-12 z" fill="white" stroke="none"/>
<text dominant-baseline="middle" fill="black" font-family="monospace" font-size="8" text-anchor="middle" x="2.5" y="6">
b
</text>
</g>
</g>
</g>
<g fill="#BBB" transform="translate(0,256)">
<path d="M0,0 l0,129.5 l122,0 l6,-6 l0,-107.5 l-0,-8 l0,-8 z" fill="black" stroke="none"/>
<path d="M1.5,1.5 l0,126.5 l119.75,0 l5.25,-5.25 l0,-106 l-0,-8.75 l0,-6.5 z" stroke="none"/>
<g fill="#777" transform="translate(0,0)">
<path d="M0,0 l0,65.5 l55,0 l6,-6 l0,-43.5 l-6,-8 l6,-8 z" fill="black" stroke="none"/>
<path d="M1.5,1.5 l0,62.5 l52.75,0 l5.25,-5.25 l0,-42 l-6,-8.75 l6,-6.5 z" stroke="none"/>
<g transform="translate(0,0)">
<path d="M0,0 l-6,8 l6,8 l61,0 l-6,-8 l6,-8 z" fill="black" stroke="none"/>
<text dominant-baseline="middle" fill="white" font-family="monospace" font-size="8" text-anchor="middle" x="14.5" y="8">
float
</text>
<g transform="translate(37,2.75)">
<path d="M0,0 a2,2,0,0,0,0,12 l5,0 a2,2,0,0,0,0,-12 z" fill="white" stroke="none"/>
<text dominant-baseline="middle" fill="black" font-family="monospace" font-size="8" text-anchor="middle" x="2.5" y="6">
x
</text>
</g>
</g>
</g>
<g fill="#DDD" transform="translate(0,64)">
<path d="M0,0 l0,65.5 l55,0 l6,-6 l0,-43.5 l-0,-8 l0,-8 z" fill="black" stroke="none"/>
<path d="M1.5,1.5 l0,62.5 l52.75,0 l5.25,-5.25 l0,-42 l-0,-8.75 l0,-6.5 z" stroke="none"/>
<g transform="translate(0,0)">
<path d="M0,0 l-6,8 l6,8 l61,0 l-0,-8 l0,-8 z" fill="black" stroke="none"/>
<text dominant-baseline="middle" fill="white" font-family="monospace" font-size="8" text-anchor="middle" x="14.5" y="8">
float
</text>
<g transform="translate(37,2.75)">
<path d="M0,0 a2,2,0,0,0,0,12 l5,0 a2,2,0,0,0,0,-12 z" fill="white" stroke="none"/>
<text dominant-baseline="middle" fill="black" font-family="monospace" font-size="8" text-anchor="middle" x="2.5" y="6">
y
</text>
</g>
</g>
</g>
<g transform="translate(64,0)">
<path d="M0,0 l-6,8 l6,8 l64,0 l-0,-8 l0,-8 z" fill="black" stroke="none"/>
<text dominant-baseline="middle" fill="white" font-family="monospace" font-size="8" text-anchor="middle" x="14.5" y="8">
Point
</text>
<g transform="translate(40,2.75)">
<path d="M0,0 a2,2,0,0,0,0,12 l5,0 a2,2,0,0,0,0,-12 z" fill="white" stroke="none"/>
<text dominant-baseline="middle" fill="black" font-family="monospace" font-size="8" text-anchor="middle" x="2.5" y="6">
c
</text>
</g>
</g>
</g>
<g transform="translate(131,0)">
<path d="M0,0 l-6,8 l6,8 l74,0 l-0,-8 l0,-8 z" fill="black" stroke="none"/>
<text dominant-baseline="middle" fill="white" font-family="monospace" font-size="8" text-anchor="middle" x="22" y="8">
Triangle
</text>
</g>
</g>
</g>
</g>
</svg>