\relax 
\providecommand\hyper@newdestlabel[2]{}
\providecommand\HyperFirstAtBeginDocument{\AtBeginDocument}
\HyperFirstAtBeginDocument{\ifx\hyper@anchor\@undefined
\global\let\oldcontentsline\contentsline
\gdef\contentsline#1#2#3#4{\oldcontentsline{#1}{#2}{#3}}
\global\let\oldnewlabel\newlabel
\gdef\newlabel#1#2{\newlabelxx{#1}#2}
\gdef\newlabelxx#1#2#3#4#5#6{\oldnewlabel{#1}{{#2}{#3}}}
\AtEndDocument{\ifx\hyper@anchor\@undefined
\let\contentsline\oldcontentsline
\let\newlabel\oldnewlabel
\fi}
\fi}
\global\let\hyper@last\relax 
\gdef\HyperFirstAtBeginDocument#1{#1}
\providecommand\HyField@AuxAddToFields[1]{}
\providecommand\HyField@AuxAddToCoFields[2]{}
\providecommand\BKM@entry[2]{}
\newlabeldata{mcid-1}{{tagabspage}{1}{tagmcabs}{1}{tagmcid}{0}}
\newlabeldata{l3pdf1}{{abspage}{1}}
\newlabeldata{mcid-2}{{tagabspage}{1}{tagmcabs}{2}{tagmcid}{1}}
\newlabeldata{l3pdf2}{{abspage}{1}}
\@writefile{nav}{\headcommand {\slideentry {0}{0}{1}{1/1}{}{0}}}
\@writefile{nav}{\headcommand {\beamer@framepages {1}{1}}}
\BKM@entry{id=1,open,dest={4F75746C696E65302E31},srcline={90}}{5C3337365C3337375C303030525C303030755C3030306C5C303030655C303030735C3030305C3034305C303030535C303030755C3030306D5C3030306D5C303030615C303030725C30303079}
\@writefile{toc}{\beamer@sectionintoc {1}{Rules Summary}{2}{0}{1}}
\@writefile{nav}{\headcommand {\beamer@sectionpages {1}{1}}}
\@writefile{nav}{\headcommand {\beamer@subsectionpages {1}{1}}}
\@writefile{nav}{\headcommand {\sectionentry {1}{Rules Summary}{2}{Rules Summary}{0}}}
\newlabeldata{mcid-56}{{tagabspage}{2}{tagmcabs}{56}{tagmcid}{51}}
\newlabeldata{l3pdf54}{{abspage}{2}}
\newlabeldata{mcid-5}{{tagabspage}{2}{tagmcabs}{5}{tagmcid}{0}}
\newlabeldata{l3pdf3}{{abspage}{2}}
\newlabeldata{mcid-6}{{tagabspage}{2}{tagmcabs}{6}{tagmcid}{1}}
\newlabeldata{l3pdf4}{{abspage}{2}}
\newlabeldata{mcid-7}{{tagabspage}{2}{tagmcabs}{7}{tagmcid}{2}}
\newlabeldata{l3pdf5}{{abspage}{2}}
\newlabeldata{mcid-8}{{tagabspage}{2}{tagmcabs}{8}{tagmcid}{3}}
\newlabeldata{l3pdf6}{{abspage}{2}}
\newlabeldata{mcid-9}{{tagabspage}{2}{tagmcabs}{9}{tagmcid}{4}}
\newlabeldata{l3pdf7}{{abspage}{2}}
\newlabeldata{mcid-10}{{tagabspage}{2}{tagmcabs}{10}{tagmcid}{5}}
\newlabeldata{l3pdf8}{{abspage}{2}}
\newlabeldata{mcid-11}{{tagabspage}{2}{tagmcabs}{11}{tagmcid}{6}}
\newlabeldata{l3pdf9}{{abspage}{2}}
\newlabeldata{mcid-12}{{tagabspage}{2}{tagmcabs}{12}{tagmcid}{7}}
\newlabeldata{l3pdf10}{{abspage}{2}}
\newlabeldata{mcid-13}{{tagabspage}{2}{tagmcabs}{13}{tagmcid}{8}}
\newlabeldata{l3pdf11}{{abspage}{2}}
\newlabeldata{mcid-15}{{tagabspage}{2}{tagmcabs}{15}{tagmcid}{10}}
\newlabeldata{l3pdf13}{{abspage}{2}}
\newlabeldata{mcid-14}{{tagabspage}{2}{tagmcabs}{14}{tagmcid}{9}}
\newlabeldata{l3pdf12}{{abspage}{2}}
\newlabeldata{mcid-16}{{tagabspage}{2}{tagmcabs}{16}{tagmcid}{11}}
\newlabeldata{l3pdf14}{{abspage}{2}}
\newlabeldata{mcid-17}{{tagabspage}{2}{tagmcabs}{17}{tagmcid}{12}}
\newlabeldata{l3pdf15}{{abspage}{2}}
\newlabeldata{mcid-18}{{tagabspage}{2}{tagmcabs}{18}{tagmcid}{13}}
\newlabeldata{l3pdf16}{{abspage}{2}}
\newlabeldata{mcid-20}{{tagabspage}{2}{tagmcabs}{20}{tagmcid}{15}}
\newlabeldata{l3pdf18}{{abspage}{2}}
\newlabeldata{mcid-19}{{tagabspage}{2}{tagmcabs}{19}{tagmcid}{14}}
\newlabeldata{l3pdf17}{{abspage}{2}}
\newlabeldata{mcid-21}{{tagabspage}{2}{tagmcabs}{21}{tagmcid}{16}}
\newlabeldata{l3pdf19}{{abspage}{2}}
\newlabeldata{mcid-22}{{tagabspage}{2}{tagmcabs}{22}{tagmcid}{17}}
\newlabeldata{l3pdf20}{{abspage}{2}}
\newlabeldata{mcid-23}{{tagabspage}{2}{tagmcabs}{23}{tagmcid}{18}}
\newlabeldata{l3pdf21}{{abspage}{2}}
\newlabeldata{mcid-24}{{tagabspage}{2}{tagmcabs}{24}{tagmcid}{19}}
\newlabeldata{l3pdf22}{{abspage}{2}}
\newlabeldata{mcid-25}{{tagabspage}{2}{tagmcabs}{25}{tagmcid}{20}}
\newlabeldata{l3pdf23}{{abspage}{2}}
\newlabeldata{mcid-27}{{tagabspage}{2}{tagmcabs}{27}{tagmcid}{22}}
\newlabeldata{l3pdf25}{{abspage}{2}}
\newlabeldata{mcid-26}{{tagabspage}{2}{tagmcabs}{26}{tagmcid}{21}}
\newlabeldata{l3pdf24}{{abspage}{2}}
\newlabeldata{mcid-29}{{tagabspage}{2}{tagmcabs}{29}{tagmcid}{24}}
\newlabeldata{l3pdf27}{{abspage}{2}}
\newlabeldata{mcid-28}{{tagabspage}{2}{tagmcabs}{28}{tagmcid}{23}}
\newlabeldata{l3pdf26}{{abspage}{2}}
\newlabeldata{mcid-30}{{tagabspage}{2}{tagmcabs}{30}{tagmcid}{25}}
\newlabeldata{l3pdf28}{{abspage}{2}}
\newlabeldata{mcid-31}{{tagabspage}{2}{tagmcabs}{31}{tagmcid}{26}}
\newlabeldata{l3pdf29}{{abspage}{2}}
\newlabeldata{mcid-32}{{tagabspage}{2}{tagmcabs}{32}{tagmcid}{27}}
\newlabeldata{l3pdf30}{{abspage}{2}}
\newlabeldata{mcid-33}{{tagabspage}{2}{tagmcabs}{33}{tagmcid}{28}}
\newlabeldata{l3pdf31}{{abspage}{2}}
\newlabeldata{mcid-34}{{tagabspage}{2}{tagmcabs}{34}{tagmcid}{29}}
\newlabeldata{l3pdf32}{{abspage}{2}}
\newlabeldata{mcid-35}{{tagabspage}{2}{tagmcabs}{35}{tagmcid}{30}}
\newlabeldata{l3pdf33}{{abspage}{2}}
\newlabeldata{mcid-36}{{tagabspage}{2}{tagmcabs}{36}{tagmcid}{31}}
\newlabeldata{l3pdf34}{{abspage}{2}}
\newlabeldata{mcid-37}{{tagabspage}{2}{tagmcabs}{37}{tagmcid}{32}}
\newlabeldata{l3pdf35}{{abspage}{2}}
\newlabeldata{mcid-38}{{tagabspage}{2}{tagmcabs}{38}{tagmcid}{33}}
\newlabeldata{l3pdf36}{{abspage}{2}}
\newlabeldata{mcid-39}{{tagabspage}{2}{tagmcabs}{39}{tagmcid}{34}}
\newlabeldata{l3pdf37}{{abspage}{2}}
\newlabeldata{mcid-41}{{tagabspage}{2}{tagmcabs}{41}{tagmcid}{36}}
\newlabeldata{l3pdf39}{{abspage}{2}}
\newlabeldata{mcid-40}{{tagabspage}{2}{tagmcabs}{40}{tagmcid}{35}}
\newlabeldata{l3pdf38}{{abspage}{2}}
\newlabeldata{mcid-43}{{tagabspage}{2}{tagmcabs}{43}{tagmcid}{38}}
\newlabeldata{l3pdf41}{{abspage}{2}}
\newlabeldata{mcid-42}{{tagabspage}{2}{tagmcabs}{42}{tagmcid}{37}}
\newlabeldata{l3pdf40}{{abspage}{2}}
\newlabeldata{mcid-44}{{tagabspage}{2}{tagmcabs}{44}{tagmcid}{39}}
\newlabeldata{l3pdf42}{{abspage}{2}}
\newlabeldata{mcid-45}{{tagabspage}{2}{tagmcabs}{45}{tagmcid}{40}}
\newlabeldata{l3pdf43}{{abspage}{2}}
\newlabeldata{mcid-46}{{tagabspage}{2}{tagmcabs}{46}{tagmcid}{41}}
\newlabeldata{l3pdf44}{{abspage}{2}}
\newlabeldata{mcid-48}{{tagabspage}{2}{tagmcabs}{48}{tagmcid}{43}}
\newlabeldata{l3pdf46}{{abspage}{2}}
\newlabeldata{mcid-47}{{tagabspage}{2}{tagmcabs}{47}{tagmcid}{42}}
\newlabeldata{l3pdf45}{{abspage}{2}}
\newlabeldata{mcid-50}{{tagabspage}{2}{tagmcabs}{50}{tagmcid}{45}}
\newlabeldata{l3pdf48}{{abspage}{2}}
\newlabeldata{mcid-49}{{tagabspage}{2}{tagmcabs}{49}{tagmcid}{44}}
\newlabeldata{l3pdf47}{{abspage}{2}}
\newlabeldata{mcid-52}{{tagabspage}{2}{tagmcabs}{52}{tagmcid}{47}}
\newlabeldata{l3pdf50}{{abspage}{2}}
\newlabeldata{mcid-51}{{tagabspage}{2}{tagmcabs}{51}{tagmcid}{46}}
\newlabeldata{l3pdf49}{{abspage}{2}}
\newlabeldata{mcid-53}{{tagabspage}{2}{tagmcabs}{53}{tagmcid}{48}}
\newlabeldata{l3pdf51}{{abspage}{2}}
\newlabeldata{mcid-54}{{tagabspage}{2}{tagmcabs}{54}{tagmcid}{49}}
\newlabeldata{l3pdf52}{{abspage}{2}}
\newlabeldata{mcid-55}{{tagabspage}{2}{tagmcabs}{55}{tagmcid}{50}}
\newlabeldata{l3pdf53}{{abspage}{2}}
\@writefile{nav}{\headcommand {\slideentry {1}{0}{1}{2/2}{}{0}}}
\@writefile{nav}{\headcommand {\beamer@framepages {2}{2}}}
\BKM@entry{id=2,open,dest={4F75746C696E65302E32},srcline={160}}{5C3337365C3337375C3030304C5C303030615C3030306E5C303030675C303030755C303030615C303030675C303030655C3030305C3034305C303030525C303030655C303030735C303030745C303030725C303030695C303030635C303030745C303030695C3030306F5C3030306E5C30303073}
\BKM@entry{id=3,open,dest={4F75746C696E65302E322E312E33},srcline={161}}{5C3337365C3337375C3030306E5C303030755C3030306C5C3030306C5C303030705C303030745C30303072}
\@writefile{toc}{\beamer@sectionintoc {2}{Language Restrictions}{3}{0}{2}}
\@writefile{nav}{\headcommand {\beamer@sectionpages {2}{2}}}
\@writefile{nav}{\headcommand {\beamer@subsectionpages {2}{2}}}
\@writefile{nav}{\headcommand {\sectionentry {2}{Language Restrictions}{3}{Language Restrictions}{0}}}
\@writefile{toc}{\beamer@subsectionintoc {2}{1}{nullptr}{3}{0}{2}}
\@writefile{nav}{\headcommand {\beamer@subsectionpages {3}{2}}}
\@writefile{nav}{\headcommand {\beamer@subsectionentry {0}{2}{1}{3}{nullptr}}}
\newlabeldata{mcid-71}{{tagabspage}{3}{tagmcabs}{71}{tagmcid}{12}}
\newlabeldata{l3pdf67}{{abspage}{3}}
\newlabeldata{mcid-59}{{tagabspage}{3}{tagmcabs}{59}{tagmcid}{0}}
\newlabeldata{l3pdf55}{{abspage}{3}}
\newlabeldata{mcid-60}{{tagabspage}{3}{tagmcabs}{60}{tagmcid}{1}}
\newlabeldata{l3pdf56}{{abspage}{3}}
\newlabeldata{mcid-61}{{tagabspage}{3}{tagmcabs}{61}{tagmcid}{2}}
\newlabeldata{l3pdf57}{{abspage}{3}}
\newlabeldata{mcid-62}{{tagabspage}{3}{tagmcabs}{62}{tagmcid}{3}}
\newlabeldata{l3pdf58}{{abspage}{3}}
\newlabeldata{mcid-63}{{tagabspage}{3}{tagmcabs}{63}{tagmcid}{4}}
\newlabeldata{l3pdf59}{{abspage}{3}}
\newlabeldata{mcid-64}{{tagabspage}{3}{tagmcabs}{64}{tagmcid}{5}}
\newlabeldata{l3pdf60}{{abspage}{3}}
\newlabeldata{mcid-65}{{tagabspage}{3}{tagmcabs}{65}{tagmcid}{6}}
\newlabeldata{l3pdf61}{{abspage}{3}}
\newlabeldata{mcid-66}{{tagabspage}{3}{tagmcabs}{66}{tagmcid}{7}}
\newlabeldata{l3pdf62}{{abspage}{3}}
\newlabeldata{mcid-67}{{tagabspage}{3}{tagmcabs}{67}{tagmcid}{8}}
\newlabeldata{l3pdf63}{{abspage}{3}}
\newlabeldata{mcid-68}{{tagabspage}{3}{tagmcabs}{68}{tagmcid}{9}}
\newlabeldata{l3pdf64}{{abspage}{3}}
\newlabeldata{mcid-69}{{tagabspage}{3}{tagmcabs}{69}{tagmcid}{10}}
\newlabeldata{l3pdf65}{{abspage}{3}}
\newlabeldata{mcid-70}{{tagabspage}{3}{tagmcabs}{70}{tagmcid}{11}}
\newlabeldata{l3pdf66}{{abspage}{3}}
\@writefile{nav}{\headcommand {\slideentry {2}{1}{1}{3/3}{nullptr}{0}}}
\@writefile{nav}{\headcommand {\beamer@framepages {3}{3}}}
\BKM@entry{id=4,open,dest={4F75746C696E65302E322E322E34},srcline={184}}{5C3337365C3337375C303030475C3030306C5C3030306F5C303030625C303030615C3030306C5C3030305C3034305C303030565C303030615C303030725C303030695C303030615C303030625C3030306C5C303030655C30303073}
\@writefile{toc}{\beamer@subsectionintoc {2}{2}{Global Variables}{4}{0}{2}}
\@writefile{nav}{\headcommand {\beamer@subsectionpages {3}{3}}}
\@writefile{nav}{\headcommand {\beamer@subsectionentry {0}{2}{2}{4}{Global Variables}}}
\newlabeldata{mcid-102}{{tagabspage}{4}{tagmcabs}{102}{tagmcid}{28}}
\newlabeldata{l3pdf96}{{abspage}{4}}
\newlabeldata{mcid-74}{{tagabspage}{4}{tagmcabs}{74}{tagmcid}{0}}
\newlabeldata{l3pdf68}{{abspage}{4}}
\newlabeldata{mcid-75}{{tagabspage}{4}{tagmcabs}{75}{tagmcid}{1}}
\newlabeldata{l3pdf69}{{abspage}{4}}
\newlabeldata{mcid-76}{{tagabspage}{4}{tagmcabs}{76}{tagmcid}{2}}
\newlabeldata{l3pdf70}{{abspage}{4}}
\newlabeldata{mcid-77}{{tagabspage}{4}{tagmcabs}{77}{tagmcid}{3}}
\newlabeldata{l3pdf71}{{abspage}{4}}
\newlabeldata{mcid-78}{{tagabspage}{4}{tagmcabs}{78}{tagmcid}{4}}
\newlabeldata{l3pdf72}{{abspage}{4}}
\newlabeldata{mcid-79}{{tagabspage}{4}{tagmcabs}{79}{tagmcid}{5}}
\newlabeldata{l3pdf73}{{abspage}{4}}
\newlabeldata{mcid-80}{{tagabspage}{4}{tagmcabs}{80}{tagmcid}{6}}
\newlabeldata{l3pdf74}{{abspage}{4}}
\newlabeldata{mcid-81}{{tagabspage}{4}{tagmcabs}{81}{tagmcid}{7}}
\newlabeldata{l3pdf75}{{abspage}{4}}
\newlabeldata{mcid-82}{{tagabspage}{4}{tagmcabs}{82}{tagmcid}{8}}
\newlabeldata{l3pdf76}{{abspage}{4}}
\newlabeldata{mcid-83}{{tagabspage}{4}{tagmcabs}{83}{tagmcid}{9}}
\newlabeldata{l3pdf77}{{abspage}{4}}
\newlabeldata{mcid-84}{{tagabspage}{4}{tagmcabs}{84}{tagmcid}{10}}
\newlabeldata{l3pdf78}{{abspage}{4}}
\newlabeldata{mcid-85}{{tagabspage}{4}{tagmcabs}{85}{tagmcid}{11}}
\newlabeldata{l3pdf79}{{abspage}{4}}
\newlabeldata{mcid-86}{{tagabspage}{4}{tagmcabs}{86}{tagmcid}{12}}
\newlabeldata{l3pdf80}{{abspage}{4}}
\newlabeldata{mcid-87}{{tagabspage}{4}{tagmcabs}{87}{tagmcid}{13}}
\newlabeldata{l3pdf81}{{abspage}{4}}
\newlabeldata{mcid-88}{{tagabspage}{4}{tagmcabs}{88}{tagmcid}{14}}
\newlabeldata{l3pdf82}{{abspage}{4}}
\newlabeldata{mcid-89}{{tagabspage}{4}{tagmcabs}{89}{tagmcid}{15}}
\newlabeldata{l3pdf83}{{abspage}{4}}
\newlabeldata{mcid-90}{{tagabspage}{4}{tagmcabs}{90}{tagmcid}{16}}
\newlabeldata{l3pdf84}{{abspage}{4}}
\newlabeldata{mcid-91}{{tagabspage}{4}{tagmcabs}{91}{tagmcid}{17}}
\newlabeldata{l3pdf85}{{abspage}{4}}
\newlabeldata{mcid-92}{{tagabspage}{4}{tagmcabs}{92}{tagmcid}{18}}
\newlabeldata{l3pdf86}{{abspage}{4}}
\newlabeldata{mcid-93}{{tagabspage}{4}{tagmcabs}{93}{tagmcid}{19}}
\newlabeldata{l3pdf87}{{abspage}{4}}
\newlabeldata{mcid-94}{{tagabspage}{4}{tagmcabs}{94}{tagmcid}{20}}
\newlabeldata{l3pdf88}{{abspage}{4}}
\newlabeldata{mcid-95}{{tagabspage}{4}{tagmcabs}{95}{tagmcid}{21}}
\newlabeldata{l3pdf89}{{abspage}{4}}
\newlabeldata{mcid-96}{{tagabspage}{4}{tagmcabs}{96}{tagmcid}{22}}
\newlabeldata{l3pdf90}{{abspage}{4}}
\newlabeldata{mcid-97}{{tagabspage}{4}{tagmcabs}{97}{tagmcid}{23}}
\newlabeldata{l3pdf91}{{abspage}{4}}
\newlabeldata{mcid-98}{{tagabspage}{4}{tagmcabs}{98}{tagmcid}{24}}
\newlabeldata{l3pdf92}{{abspage}{4}}
\newlabeldata{mcid-99}{{tagabspage}{4}{tagmcabs}{99}{tagmcid}{25}}
\newlabeldata{l3pdf93}{{abspage}{4}}
\newlabeldata{mcid-100}{{tagabspage}{4}{tagmcabs}{100}{tagmcid}{26}}
\newlabeldata{l3pdf94}{{abspage}{4}}
\newlabeldata{mcid-101}{{tagabspage}{4}{tagmcabs}{101}{tagmcid}{27}}
\newlabeldata{l3pdf95}{{abspage}{4}}
\@writefile{nav}{\headcommand {\slideentry {2}{2}{1}{4/4}{Global Variables}{0}}}
\@writefile{nav}{\headcommand {\beamer@framepages {4}{4}}}
\BKM@entry{id=5,open,dest={4F75746C696E65302E322E332E35},srcline={224}}{5C3337365C3337375C303030615C303030755C303030745C3030306F}
\@writefile{toc}{\beamer@subsectionintoc {2}{3}{auto}{5}{0}{2}}
\@writefile{nav}{\headcommand {\beamer@subsectionpages {4}{4}}}
\@writefile{nav}{\headcommand {\beamer@subsectionentry {0}{2}{3}{5}{auto}}}
\newlabeldata{mcid-123}{{tagabspage}{5}{tagmcabs}{123}{tagmcid}{18}}
\newlabeldata{l3pdf115}{{abspage}{5}}
\newlabeldata{mcid-105}{{tagabspage}{5}{tagmcabs}{105}{tagmcid}{0}}
\newlabeldata{l3pdf97}{{abspage}{5}}
\newlabeldata{mcid-106}{{tagabspage}{5}{tagmcabs}{106}{tagmcid}{1}}
\newlabeldata{l3pdf98}{{abspage}{5}}
\newlabeldata{mcid-107}{{tagabspage}{5}{tagmcabs}{107}{tagmcid}{2}}
\newlabeldata{l3pdf99}{{abspage}{5}}
\newlabeldata{mcid-108}{{tagabspage}{5}{tagmcabs}{108}{tagmcid}{3}}
\newlabeldata{l3pdf100}{{abspage}{5}}
\newlabeldata{mcid-109}{{tagabspage}{5}{tagmcabs}{109}{tagmcid}{4}}
\newlabeldata{l3pdf101}{{abspage}{5}}
\newlabeldata{mcid-110}{{tagabspage}{5}{tagmcabs}{110}{tagmcid}{5}}
\newlabeldata{l3pdf102}{{abspage}{5}}
\newlabeldata{mcid-111}{{tagabspage}{5}{tagmcabs}{111}{tagmcid}{6}}
\newlabeldata{l3pdf103}{{abspage}{5}}
\newlabeldata{mcid-112}{{tagabspage}{5}{tagmcabs}{112}{tagmcid}{7}}
\newlabeldata{l3pdf104}{{abspage}{5}}
\newlabeldata{mcid-113}{{tagabspage}{5}{tagmcabs}{113}{tagmcid}{8}}
\newlabeldata{l3pdf105}{{abspage}{5}}
\newlabeldata{mcid-114}{{tagabspage}{5}{tagmcabs}{114}{tagmcid}{9}}
\newlabeldata{l3pdf106}{{abspage}{5}}
\newlabeldata{mcid-115}{{tagabspage}{5}{tagmcabs}{115}{tagmcid}{10}}
\newlabeldata{l3pdf107}{{abspage}{5}}
\newlabeldata{mcid-116}{{tagabspage}{5}{tagmcabs}{116}{tagmcid}{11}}
\newlabeldata{l3pdf108}{{abspage}{5}}
\newlabeldata{mcid-117}{{tagabspage}{5}{tagmcabs}{117}{tagmcid}{12}}
\newlabeldata{l3pdf109}{{abspage}{5}}
\newlabeldata{mcid-118}{{tagabspage}{5}{tagmcabs}{118}{tagmcid}{13}}
\newlabeldata{l3pdf110}{{abspage}{5}}
\newlabeldata{mcid-119}{{tagabspage}{5}{tagmcabs}{119}{tagmcid}{14}}
\newlabeldata{l3pdf111}{{abspage}{5}}
\newlabeldata{mcid-120}{{tagabspage}{5}{tagmcabs}{120}{tagmcid}{15}}
\newlabeldata{l3pdf112}{{abspage}{5}}
\newlabeldata{mcid-121}{{tagabspage}{5}{tagmcabs}{121}{tagmcid}{16}}
\newlabeldata{l3pdf113}{{abspage}{5}}
\newlabeldata{mcid-122}{{tagabspage}{5}{tagmcabs}{122}{tagmcid}{17}}
\newlabeldata{l3pdf114}{{abspage}{5}}
\@writefile{nav}{\headcommand {\slideentry {2}{3}{1}{5/5}{auto}{0}}}
\@writefile{nav}{\headcommand {\beamer@framepages {5}{5}}}
\BKM@entry{id=6,open,dest={4F75746C696E65302E322E342E36},srcline={254}}{5C3337365C3337375C303030675C3030306F5C303030745C3030306F}
\@writefile{toc}{\beamer@subsectionintoc {2}{4}{goto}{6}{0}{2}}
\@writefile{nav}{\headcommand {\beamer@subsectionpages {5}{5}}}
\@writefile{nav}{\headcommand {\beamer@subsectionentry {0}{2}{4}{6}{goto}}}
\newlabeldata{mcid-160}{{tagabspage}{6}{tagmcabs}{160}{tagmcid}{34}}
\newlabeldata{l3pdf150}{{abspage}{6}}
\newlabeldata{mcid-126}{{tagabspage}{6}{tagmcabs}{126}{tagmcid}{0}}
\newlabeldata{l3pdf116}{{abspage}{6}}
\newlabeldata{mcid-127}{{tagabspage}{6}{tagmcabs}{127}{tagmcid}{1}}
\newlabeldata{l3pdf117}{{abspage}{6}}
\newlabeldata{mcid-128}{{tagabspage}{6}{tagmcabs}{128}{tagmcid}{2}}
\newlabeldata{l3pdf118}{{abspage}{6}}
\newlabeldata{mcid-129}{{tagabspage}{6}{tagmcabs}{129}{tagmcid}{3}}
\newlabeldata{l3pdf119}{{abspage}{6}}
\newlabeldata{mcid-130}{{tagabspage}{6}{tagmcabs}{130}{tagmcid}{4}}
\newlabeldata{l3pdf120}{{abspage}{6}}
\newlabeldata{mcid-131}{{tagabspage}{6}{tagmcabs}{131}{tagmcid}{5}}
\newlabeldata{l3pdf121}{{abspage}{6}}
\newlabeldata{mcid-132}{{tagabspage}{6}{tagmcabs}{132}{tagmcid}{6}}
\newlabeldata{l3pdf122}{{abspage}{6}}
\newlabeldata{mcid-133}{{tagabspage}{6}{tagmcabs}{133}{tagmcid}{7}}
\newlabeldata{l3pdf123}{{abspage}{6}}
\newlabeldata{mcid-134}{{tagabspage}{6}{tagmcabs}{134}{tagmcid}{8}}
\newlabeldata{l3pdf124}{{abspage}{6}}
\newlabeldata{mcid-135}{{tagabspage}{6}{tagmcabs}{135}{tagmcid}{9}}
\newlabeldata{l3pdf125}{{abspage}{6}}
\newlabeldata{mcid-136}{{tagabspage}{6}{tagmcabs}{136}{tagmcid}{10}}
\newlabeldata{l3pdf126}{{abspage}{6}}
\newlabeldata{mcid-137}{{tagabspage}{6}{tagmcabs}{137}{tagmcid}{11}}
\newlabeldata{l3pdf127}{{abspage}{6}}
\newlabeldata{mcid-138}{{tagabspage}{6}{tagmcabs}{138}{tagmcid}{12}}
\newlabeldata{l3pdf128}{{abspage}{6}}
\newlabeldata{mcid-139}{{tagabspage}{6}{tagmcabs}{139}{tagmcid}{13}}
\newlabeldata{l3pdf129}{{abspage}{6}}
\newlabeldata{mcid-140}{{tagabspage}{6}{tagmcabs}{140}{tagmcid}{14}}
\newlabeldata{l3pdf130}{{abspage}{6}}
\newlabeldata{mcid-141}{{tagabspage}{6}{tagmcabs}{141}{tagmcid}{15}}
\newlabeldata{l3pdf131}{{abspage}{6}}
\newlabeldata{mcid-142}{{tagabspage}{6}{tagmcabs}{142}{tagmcid}{16}}
\newlabeldata{l3pdf132}{{abspage}{6}}
\newlabeldata{mcid-143}{{tagabspage}{6}{tagmcabs}{143}{tagmcid}{17}}
\newlabeldata{l3pdf133}{{abspage}{6}}
\newlabeldata{mcid-144}{{tagabspage}{6}{tagmcabs}{144}{tagmcid}{18}}
\newlabeldata{l3pdf134}{{abspage}{6}}
\newlabeldata{mcid-145}{{tagabspage}{6}{tagmcabs}{145}{tagmcid}{19}}
\newlabeldata{l3pdf135}{{abspage}{6}}
\newlabeldata{mcid-146}{{tagabspage}{6}{tagmcabs}{146}{tagmcid}{20}}
\newlabeldata{l3pdf136}{{abspage}{6}}
\newlabeldata{mcid-147}{{tagabspage}{6}{tagmcabs}{147}{tagmcid}{21}}
\newlabeldata{l3pdf137}{{abspage}{6}}
\newlabeldata{mcid-148}{{tagabspage}{6}{tagmcabs}{148}{tagmcid}{22}}
\newlabeldata{l3pdf138}{{abspage}{6}}
\newlabeldata{mcid-149}{{tagabspage}{6}{tagmcabs}{149}{tagmcid}{23}}
\newlabeldata{l3pdf139}{{abspage}{6}}
\newlabeldata{mcid-150}{{tagabspage}{6}{tagmcabs}{150}{tagmcid}{24}}
\newlabeldata{l3pdf140}{{abspage}{6}}
\newlabeldata{mcid-151}{{tagabspage}{6}{tagmcabs}{151}{tagmcid}{25}}
\newlabeldata{l3pdf141}{{abspage}{6}}
\newlabeldata{mcid-152}{{tagabspage}{6}{tagmcabs}{152}{tagmcid}{26}}
\newlabeldata{l3pdf142}{{abspage}{6}}
\newlabeldata{mcid-153}{{tagabspage}{6}{tagmcabs}{153}{tagmcid}{27}}
\newlabeldata{l3pdf143}{{abspage}{6}}
\newlabeldata{mcid-154}{{tagabspage}{6}{tagmcabs}{154}{tagmcid}{28}}
\newlabeldata{l3pdf144}{{abspage}{6}}
\newlabeldata{mcid-155}{{tagabspage}{6}{tagmcabs}{155}{tagmcid}{29}}
\newlabeldata{l3pdf145}{{abspage}{6}}
\newlabeldata{mcid-156}{{tagabspage}{6}{tagmcabs}{156}{tagmcid}{30}}
\newlabeldata{l3pdf146}{{abspage}{6}}
\newlabeldata{mcid-157}{{tagabspage}{6}{tagmcabs}{157}{tagmcid}{31}}
\newlabeldata{l3pdf147}{{abspage}{6}}
\newlabeldata{mcid-158}{{tagabspage}{6}{tagmcabs}{158}{tagmcid}{32}}
\newlabeldata{l3pdf148}{{abspage}{6}}
\newlabeldata{mcid-159}{{tagabspage}{6}{tagmcabs}{159}{tagmcid}{33}}
\newlabeldata{l3pdf149}{{abspage}{6}}
\@writefile{nav}{\headcommand {\slideentry {2}{4}{1}{6/6}{goto}{0}}}
\@writefile{nav}{\headcommand {\beamer@framepages {6}{6}}}
\BKM@entry{id=7,open,dest={4F75746C696E65302E33},srcline={300}}{5C3337365C3337375C3030304C5C303030695C303030625C303030725C303030615C303030725C303030795C3030305C3034305C303030525C303030655C303030735C303030745C303030725C303030695C303030635C303030745C303030695C3030306F5C3030306E5C30303073}
\@writefile{toc}{\beamer@sectionintoc {3}{Library Restrictions}{7}{0}{3}}
\@writefile{nav}{\headcommand {\beamer@sectionpages {3}{6}}}
\@writefile{nav}{\headcommand {\beamer@subsectionpages {6}{6}}}
\@writefile{nav}{\headcommand {\sectionentry {3}{Library Restrictions}{7}{Library Restrictions}{0}}}
\newlabeldata{mcid-183}{{tagabspage}{7}{tagmcabs}{183}{tagmcid}{20}}
\newlabeldata{l3pdf171}{{abspage}{7}}
\newlabeldata{mcid-163}{{tagabspage}{7}{tagmcabs}{163}{tagmcid}{0}}
\newlabeldata{l3pdf151}{{abspage}{7}}
\newlabeldata{mcid-164}{{tagabspage}{7}{tagmcabs}{164}{tagmcid}{1}}
\newlabeldata{l3pdf152}{{abspage}{7}}
\newlabeldata{mcid-165}{{tagabspage}{7}{tagmcabs}{165}{tagmcid}{2}}
\newlabeldata{l3pdf153}{{abspage}{7}}
\newlabeldata{mcid-166}{{tagabspage}{7}{tagmcabs}{166}{tagmcid}{3}}
\newlabeldata{l3pdf154}{{abspage}{7}}
\newlabeldata{mcid-167}{{tagabspage}{7}{tagmcabs}{167}{tagmcid}{4}}
\newlabeldata{l3pdf155}{{abspage}{7}}
\newlabeldata{mcid-168}{{tagabspage}{7}{tagmcabs}{168}{tagmcid}{5}}
\newlabeldata{l3pdf156}{{abspage}{7}}
\newlabeldata{mcid-169}{{tagabspage}{7}{tagmcabs}{169}{tagmcid}{6}}
\newlabeldata{l3pdf157}{{abspage}{7}}
\newlabeldata{mcid-170}{{tagabspage}{7}{tagmcabs}{170}{tagmcid}{7}}
\newlabeldata{l3pdf158}{{abspage}{7}}
\newlabeldata{mcid-171}{{tagabspage}{7}{tagmcabs}{171}{tagmcid}{8}}
\newlabeldata{l3pdf159}{{abspage}{7}}
\newlabeldata{mcid-172}{{tagabspage}{7}{tagmcabs}{172}{tagmcid}{9}}
\newlabeldata{l3pdf160}{{abspage}{7}}
\newlabeldata{mcid-173}{{tagabspage}{7}{tagmcabs}{173}{tagmcid}{10}}
\newlabeldata{l3pdf161}{{abspage}{7}}
\newlabeldata{mcid-174}{{tagabspage}{7}{tagmcabs}{174}{tagmcid}{11}}
\newlabeldata{l3pdf162}{{abspage}{7}}
\newlabeldata{mcid-175}{{tagabspage}{7}{tagmcabs}{175}{tagmcid}{12}}
\newlabeldata{l3pdf163}{{abspage}{7}}
\newlabeldata{mcid-176}{{tagabspage}{7}{tagmcabs}{176}{tagmcid}{13}}
\newlabeldata{l3pdf164}{{abspage}{7}}
\newlabeldata{mcid-177}{{tagabspage}{7}{tagmcabs}{177}{tagmcid}{14}}
\newlabeldata{l3pdf165}{{abspage}{7}}
\newlabeldata{mcid-178}{{tagabspage}{7}{tagmcabs}{178}{tagmcid}{15}}
\newlabeldata{l3pdf166}{{abspage}{7}}
\newlabeldata{mcid-179}{{tagabspage}{7}{tagmcabs}{179}{tagmcid}{16}}
\newlabeldata{l3pdf167}{{abspage}{7}}
\newlabeldata{mcid-180}{{tagabspage}{7}{tagmcabs}{180}{tagmcid}{17}}
\newlabeldata{l3pdf168}{{abspage}{7}}
\newlabeldata{mcid-181}{{tagabspage}{7}{tagmcabs}{181}{tagmcid}{18}}
\newlabeldata{l3pdf169}{{abspage}{7}}
\newlabeldata{mcid-182}{{tagabspage}{7}{tagmcabs}{182}{tagmcid}{19}}
\newlabeldata{l3pdf170}{{abspage}{7}}
\@writefile{nav}{\headcommand {\slideentry {3}{0}{1}{7/7}{}{0}}}
\@writefile{nav}{\headcommand {\beamer@framepages {7}{7}}}
\BKM@entry{id=8,open,dest={4F75746C696E65302E34},srcline={333}}{5C3337365C3337375C303030505C3030306C5C303030615C303030635C303030655C3030306D5C303030655C3030306E5C30303074}
\BKM@entry{id=9,open,dest={4F75746C696E65302E342E312E38},srcline={335}}{5C3337365C3337375C3030304F5C3030306E5C303030655C3030305C3034305C303030435C3030306F5C3030306E5C303030645C303030695C303030745C303030695C3030306F5C3030306E5C3030302F5C303030535C303030745C303030615C303030745C303030655C3030306D5C303030655C3030306E5C303030745C3030305C3034305C303030505C303030655C303030725C3030305C3034305C3030304C5C303030695C3030306E5C30303065}
\@writefile{toc}{\beamer@sectionintoc {4}{Placement}{8}{0}{4}}
\@writefile{nav}{\headcommand {\beamer@sectionpages {7}{7}}}
\@writefile{nav}{\headcommand {\beamer@subsectionpages {7}{7}}}
\@writefile{nav}{\headcommand {\sectionentry {4}{Placement}{8}{Placement}{0}}}
\@writefile{toc}{\beamer@subsectionintoc {4}{1}{One Condition/Statement Per Line}{8}{0}{4}}
\@writefile{nav}{\headcommand {\beamer@subsectionpages {8}{7}}}
\@writefile{nav}{\headcommand {\beamer@subsectionentry {0}{4}{1}{8}{One Condition/Statement Per Line}}}
\newlabeldata{mcid-208}{{tagabspage}{8}{tagmcabs}{208}{tagmcid}{22}}
\newlabeldata{l3pdf194}{{abspage}{8}}
\newlabeldata{mcid-186}{{tagabspage}{8}{tagmcabs}{186}{tagmcid}{0}}
\newlabeldata{l3pdf172}{{abspage}{8}}
\newlabeldata{mcid-187}{{tagabspage}{8}{tagmcabs}{187}{tagmcid}{1}}
\newlabeldata{l3pdf173}{{abspage}{8}}
\newlabeldata{mcid-188}{{tagabspage}{8}{tagmcabs}{188}{tagmcid}{2}}
\newlabeldata{l3pdf174}{{abspage}{8}}
\newlabeldata{mcid-189}{{tagabspage}{8}{tagmcabs}{189}{tagmcid}{3}}
\newlabeldata{l3pdf175}{{abspage}{8}}
\newlabeldata{mcid-190}{{tagabspage}{8}{tagmcabs}{190}{tagmcid}{4}}
\newlabeldata{l3pdf176}{{abspage}{8}}
\newlabeldata{mcid-191}{{tagabspage}{8}{tagmcabs}{191}{tagmcid}{5}}
\newlabeldata{l3pdf177}{{abspage}{8}}
\newlabeldata{mcid-192}{{tagabspage}{8}{tagmcabs}{192}{tagmcid}{6}}
\newlabeldata{l3pdf178}{{abspage}{8}}
\newlabeldata{mcid-193}{{tagabspage}{8}{tagmcabs}{193}{tagmcid}{7}}
\newlabeldata{l3pdf179}{{abspage}{8}}
\newlabeldata{mcid-194}{{tagabspage}{8}{tagmcabs}{194}{tagmcid}{8}}
\newlabeldata{l3pdf180}{{abspage}{8}}
\newlabeldata{mcid-195}{{tagabspage}{8}{tagmcabs}{195}{tagmcid}{9}}
\newlabeldata{l3pdf181}{{abspage}{8}}
\newlabeldata{mcid-196}{{tagabspage}{8}{tagmcabs}{196}{tagmcid}{10}}
\newlabeldata{l3pdf182}{{abspage}{8}}
\newlabeldata{mcid-197}{{tagabspage}{8}{tagmcabs}{197}{tagmcid}{11}}
\newlabeldata{l3pdf183}{{abspage}{8}}
\newlabeldata{mcid-198}{{tagabspage}{8}{tagmcabs}{198}{tagmcid}{12}}
\newlabeldata{l3pdf184}{{abspage}{8}}
\newlabeldata{mcid-199}{{tagabspage}{8}{tagmcabs}{199}{tagmcid}{13}}
\newlabeldata{l3pdf185}{{abspage}{8}}
\newlabeldata{mcid-200}{{tagabspage}{8}{tagmcabs}{200}{tagmcid}{14}}
\newlabeldata{l3pdf186}{{abspage}{8}}
\newlabeldata{mcid-201}{{tagabspage}{8}{tagmcabs}{201}{tagmcid}{15}}
\newlabeldata{l3pdf187}{{abspage}{8}}
\newlabeldata{mcid-202}{{tagabspage}{8}{tagmcabs}{202}{tagmcid}{16}}
\newlabeldata{l3pdf188}{{abspage}{8}}
\newlabeldata{mcid-203}{{tagabspage}{8}{tagmcabs}{203}{tagmcid}{17}}
\newlabeldata{l3pdf189}{{abspage}{8}}
\newlabeldata{mcid-204}{{tagabspage}{8}{tagmcabs}{204}{tagmcid}{18}}
\newlabeldata{l3pdf190}{{abspage}{8}}
\newlabeldata{mcid-205}{{tagabspage}{8}{tagmcabs}{205}{tagmcid}{19}}
\newlabeldata{l3pdf191}{{abspage}{8}}
\newlabeldata{mcid-206}{{tagabspage}{8}{tagmcabs}{206}{tagmcid}{20}}
\newlabeldata{l3pdf192}{{abspage}{8}}
\newlabeldata{mcid-207}{{tagabspage}{8}{tagmcabs}{207}{tagmcid}{21}}
\newlabeldata{l3pdf193}{{abspage}{8}}
\@writefile{nav}{\headcommand {\slideentry {4}{1}{1}{8/8}{One Condition/Statement Per Line}{0}}}
\@writefile{nav}{\headcommand {\beamer@framepages {8}{8}}}
\BKM@entry{id=10,open,dest={4F75746C696E65302E342E322E39},srcline={369}}{5C3337365C3337375C303030505C303030725C3030306F5C303030745C3030306F5C303030745C303030795C303030705C303030655C3030305C3034305C303030475C303030725C3030306F5C303030755C303030705C303030695C3030306E5C30303067}
\@writefile{toc}{\beamer@subsectionintoc {4}{2}{Prototype Grouping}{9}{0}{4}}
\@writefile{nav}{\headcommand {\beamer@subsectionpages {8}{8}}}
\@writefile{nav}{\headcommand {\beamer@subsectionentry {0}{4}{2}{9}{Prototype Grouping}}}
\newlabeldata{mcid-249}{{tagabspage}{9}{tagmcabs}{249}{tagmcid}{38}}
\newlabeldata{l3pdf233}{{abspage}{9}}
\newlabeldata{mcid-211}{{tagabspage}{9}{tagmcabs}{211}{tagmcid}{0}}
\newlabeldata{l3pdf195}{{abspage}{9}}
\newlabeldata{mcid-212}{{tagabspage}{9}{tagmcabs}{212}{tagmcid}{1}}
\newlabeldata{l3pdf196}{{abspage}{9}}
\newlabeldata{mcid-213}{{tagabspage}{9}{tagmcabs}{213}{tagmcid}{2}}
\newlabeldata{l3pdf197}{{abspage}{9}}
\newlabeldata{mcid-214}{{tagabspage}{9}{tagmcabs}{214}{tagmcid}{3}}
\newlabeldata{l3pdf198}{{abspage}{9}}
\newlabeldata{mcid-215}{{tagabspage}{9}{tagmcabs}{215}{tagmcid}{4}}
\newlabeldata{l3pdf199}{{abspage}{9}}
\newlabeldata{mcid-216}{{tagabspage}{9}{tagmcabs}{216}{tagmcid}{5}}
\newlabeldata{l3pdf200}{{abspage}{9}}
\newlabeldata{mcid-217}{{tagabspage}{9}{tagmcabs}{217}{tagmcid}{6}}
\newlabeldata{l3pdf201}{{abspage}{9}}
\newlabeldata{mcid-218}{{tagabspage}{9}{tagmcabs}{218}{tagmcid}{7}}
\newlabeldata{l3pdf202}{{abspage}{9}}
\newlabeldata{mcid-219}{{tagabspage}{9}{tagmcabs}{219}{tagmcid}{8}}
\newlabeldata{l3pdf203}{{abspage}{9}}
\newlabeldata{mcid-220}{{tagabspage}{9}{tagmcabs}{220}{tagmcid}{9}}
\newlabeldata{l3pdf204}{{abspage}{9}}
\newlabeldata{mcid-221}{{tagabspage}{9}{tagmcabs}{221}{tagmcid}{10}}
\newlabeldata{l3pdf205}{{abspage}{9}}
\newlabeldata{mcid-222}{{tagabspage}{9}{tagmcabs}{222}{tagmcid}{11}}
\newlabeldata{l3pdf206}{{abspage}{9}}
\newlabeldata{mcid-223}{{tagabspage}{9}{tagmcabs}{223}{tagmcid}{12}}
\newlabeldata{l3pdf207}{{abspage}{9}}
\newlabeldata{mcid-224}{{tagabspage}{9}{tagmcabs}{224}{tagmcid}{13}}
\newlabeldata{l3pdf208}{{abspage}{9}}
\newlabeldata{mcid-225}{{tagabspage}{9}{tagmcabs}{225}{tagmcid}{14}}
\newlabeldata{l3pdf209}{{abspage}{9}}
\newlabeldata{mcid-226}{{tagabspage}{9}{tagmcabs}{226}{tagmcid}{15}}
\newlabeldata{l3pdf210}{{abspage}{9}}
\newlabeldata{mcid-227}{{tagabspage}{9}{tagmcabs}{227}{tagmcid}{16}}
\newlabeldata{l3pdf211}{{abspage}{9}}
\newlabeldata{mcid-228}{{tagabspage}{9}{tagmcabs}{228}{tagmcid}{17}}
\newlabeldata{l3pdf212}{{abspage}{9}}
\newlabeldata{mcid-229}{{tagabspage}{9}{tagmcabs}{229}{tagmcid}{18}}
\newlabeldata{l3pdf213}{{abspage}{9}}
\newlabeldata{mcid-230}{{tagabspage}{9}{tagmcabs}{230}{tagmcid}{19}}
\newlabeldata{l3pdf214}{{abspage}{9}}
\newlabeldata{mcid-231}{{tagabspage}{9}{tagmcabs}{231}{tagmcid}{20}}
\newlabeldata{l3pdf215}{{abspage}{9}}
\newlabeldata{mcid-232}{{tagabspage}{9}{tagmcabs}{232}{tagmcid}{21}}
\newlabeldata{l3pdf216}{{abspage}{9}}
\newlabeldata{mcid-233}{{tagabspage}{9}{tagmcabs}{233}{tagmcid}{22}}
\newlabeldata{l3pdf217}{{abspage}{9}}
\newlabeldata{mcid-234}{{tagabspage}{9}{tagmcabs}{234}{tagmcid}{23}}
\newlabeldata{l3pdf218}{{abspage}{9}}
\newlabeldata{mcid-235}{{tagabspage}{9}{tagmcabs}{235}{tagmcid}{24}}
\newlabeldata{l3pdf219}{{abspage}{9}}
\newlabeldata{mcid-236}{{tagabspage}{9}{tagmcabs}{236}{tagmcid}{25}}
\newlabeldata{l3pdf220}{{abspage}{9}}
\newlabeldata{mcid-237}{{tagabspage}{9}{tagmcabs}{237}{tagmcid}{26}}
\newlabeldata{l3pdf221}{{abspage}{9}}
\newlabeldata{mcid-238}{{tagabspage}{9}{tagmcabs}{238}{tagmcid}{27}}
\newlabeldata{l3pdf222}{{abspage}{9}}
\newlabeldata{mcid-239}{{tagabspage}{9}{tagmcabs}{239}{tagmcid}{28}}
\newlabeldata{l3pdf223}{{abspage}{9}}
\newlabeldata{mcid-240}{{tagabspage}{9}{tagmcabs}{240}{tagmcid}{29}}
\newlabeldata{l3pdf224}{{abspage}{9}}
\newlabeldata{mcid-241}{{tagabspage}{9}{tagmcabs}{241}{tagmcid}{30}}
\newlabeldata{l3pdf225}{{abspage}{9}}
\newlabeldata{mcid-242}{{tagabspage}{9}{tagmcabs}{242}{tagmcid}{31}}
\newlabeldata{l3pdf226}{{abspage}{9}}
\newlabeldata{mcid-243}{{tagabspage}{9}{tagmcabs}{243}{tagmcid}{32}}
\newlabeldata{l3pdf227}{{abspage}{9}}
\newlabeldata{mcid-244}{{tagabspage}{9}{tagmcabs}{244}{tagmcid}{33}}
\newlabeldata{l3pdf228}{{abspage}{9}}
\newlabeldata{mcid-245}{{tagabspage}{9}{tagmcabs}{245}{tagmcid}{34}}
\newlabeldata{l3pdf229}{{abspage}{9}}
\newlabeldata{mcid-246}{{tagabspage}{9}{tagmcabs}{246}{tagmcid}{35}}
\newlabeldata{l3pdf230}{{abspage}{9}}
\newlabeldata{mcid-247}{{tagabspage}{9}{tagmcabs}{247}{tagmcid}{36}}
\newlabeldata{l3pdf231}{{abspage}{9}}
\newlabeldata{mcid-248}{{tagabspage}{9}{tagmcabs}{248}{tagmcid}{37}}
\newlabeldata{l3pdf232}{{abspage}{9}}
\@writefile{nav}{\headcommand {\slideentry {4}{2}{1}{9/9}{Prototype Grouping}{0}}}
\@writefile{nav}{\headcommand {\beamer@framepages {9}{9}}}
\BKM@entry{id=11,open,dest={4F75746C696E65302E342E332E3130},srcline={418}}{5C3337365C3337375C303030475C303030725C3030306F5C303030755C303030705C303030695C3030306E5C303030675C3030305C3034305C303030525C303030655C3030306C5C303030615C303030745C303030655C303030645C3030305C3034305C303030435C3030306F5C303030645C30303065}
\@writefile{toc}{\beamer@subsectionintoc {4}{3}{Grouping Related Code}{10}{0}{4}}
\@writefile{nav}{\headcommand {\beamer@subsectionpages {9}{9}}}
\@writefile{nav}{\headcommand {\beamer@subsectionentry {0}{4}{3}{10}{Grouping Related Code}}}
\newlabeldata{mcid-282}{{tagabspage}{10}{tagmcabs}{282}{tagmcid}{30}}
\newlabeldata{l3pdf264}{{abspage}{10}}
\newlabeldata{mcid-252}{{tagabspage}{10}{tagmcabs}{252}{tagmcid}{0}}
\newlabeldata{l3pdf234}{{abspage}{10}}
\newlabeldata{mcid-253}{{tagabspage}{10}{tagmcabs}{253}{tagmcid}{1}}
\newlabeldata{l3pdf235}{{abspage}{10}}
\newlabeldata{mcid-254}{{tagabspage}{10}{tagmcabs}{254}{tagmcid}{2}}
\newlabeldata{l3pdf236}{{abspage}{10}}
\newlabeldata{mcid-255}{{tagabspage}{10}{tagmcabs}{255}{tagmcid}{3}}
\newlabeldata{l3pdf237}{{abspage}{10}}
\newlabeldata{mcid-256}{{tagabspage}{10}{tagmcabs}{256}{tagmcid}{4}}
\newlabeldata{l3pdf238}{{abspage}{10}}
\newlabeldata{mcid-257}{{tagabspage}{10}{tagmcabs}{257}{tagmcid}{5}}
\newlabeldata{l3pdf239}{{abspage}{10}}
\newlabeldata{mcid-258}{{tagabspage}{10}{tagmcabs}{258}{tagmcid}{6}}
\newlabeldata{l3pdf240}{{abspage}{10}}
\newlabeldata{mcid-259}{{tagabspage}{10}{tagmcabs}{259}{tagmcid}{7}}
\newlabeldata{l3pdf241}{{abspage}{10}}
\newlabeldata{mcid-260}{{tagabspage}{10}{tagmcabs}{260}{tagmcid}{8}}
\newlabeldata{l3pdf242}{{abspage}{10}}
\newlabeldata{mcid-261}{{tagabspage}{10}{tagmcabs}{261}{tagmcid}{9}}
\newlabeldata{l3pdf243}{{abspage}{10}}
\newlabeldata{mcid-262}{{tagabspage}{10}{tagmcabs}{262}{tagmcid}{10}}
\newlabeldata{l3pdf244}{{abspage}{10}}
\newlabeldata{mcid-263}{{tagabspage}{10}{tagmcabs}{263}{tagmcid}{11}}
\newlabeldata{l3pdf245}{{abspage}{10}}
\newlabeldata{mcid-264}{{tagabspage}{10}{tagmcabs}{264}{tagmcid}{12}}
\newlabeldata{l3pdf246}{{abspage}{10}}
\newlabeldata{mcid-265}{{tagabspage}{10}{tagmcabs}{265}{tagmcid}{13}}
\newlabeldata{l3pdf247}{{abspage}{10}}
\newlabeldata{mcid-266}{{tagabspage}{10}{tagmcabs}{266}{tagmcid}{14}}
\newlabeldata{l3pdf248}{{abspage}{10}}
\newlabeldata{mcid-267}{{tagabspage}{10}{tagmcabs}{267}{tagmcid}{15}}
\newlabeldata{l3pdf249}{{abspage}{10}}
\newlabeldata{mcid-268}{{tagabspage}{10}{tagmcabs}{268}{tagmcid}{16}}
\newlabeldata{l3pdf250}{{abspage}{10}}
\newlabeldata{mcid-269}{{tagabspage}{10}{tagmcabs}{269}{tagmcid}{17}}
\newlabeldata{l3pdf251}{{abspage}{10}}
\newlabeldata{mcid-270}{{tagabspage}{10}{tagmcabs}{270}{tagmcid}{18}}
\newlabeldata{l3pdf252}{{abspage}{10}}
\newlabeldata{mcid-271}{{tagabspage}{10}{tagmcabs}{271}{tagmcid}{19}}
\newlabeldata{l3pdf253}{{abspage}{10}}
\newlabeldata{mcid-272}{{tagabspage}{10}{tagmcabs}{272}{tagmcid}{20}}
\newlabeldata{l3pdf254}{{abspage}{10}}
\newlabeldata{mcid-273}{{tagabspage}{10}{tagmcabs}{273}{tagmcid}{21}}
\newlabeldata{l3pdf255}{{abspage}{10}}
\newlabeldata{mcid-274}{{tagabspage}{10}{tagmcabs}{274}{tagmcid}{22}}
\newlabeldata{l3pdf256}{{abspage}{10}}
\newlabeldata{mcid-275}{{tagabspage}{10}{tagmcabs}{275}{tagmcid}{23}}
\newlabeldata{l3pdf257}{{abspage}{10}}
\newlabeldata{mcid-276}{{tagabspage}{10}{tagmcabs}{276}{tagmcid}{24}}
\newlabeldata{l3pdf258}{{abspage}{10}}
\newlabeldata{mcid-277}{{tagabspage}{10}{tagmcabs}{277}{tagmcid}{25}}
\newlabeldata{l3pdf259}{{abspage}{10}}
\newlabeldata{mcid-278}{{tagabspage}{10}{tagmcabs}{278}{tagmcid}{26}}
\newlabeldata{l3pdf260}{{abspage}{10}}
\newlabeldata{mcid-279}{{tagabspage}{10}{tagmcabs}{279}{tagmcid}{27}}
\newlabeldata{l3pdf261}{{abspage}{10}}
\newlabeldata{mcid-280}{{tagabspage}{10}{tagmcabs}{280}{tagmcid}{28}}
\newlabeldata{l3pdf262}{{abspage}{10}}
\newlabeldata{mcid-281}{{tagabspage}{10}{tagmcabs}{281}{tagmcid}{29}}
\newlabeldata{l3pdf263}{{abspage}{10}}
\@writefile{nav}{\headcommand {\slideentry {4}{3}{1}{10/10}{Grouping Related Code}{0}}}
\@writefile{nav}{\headcommand {\beamer@framepages {10}{10}}}
\BKM@entry{id=12,open,dest={4F75746C696E65302E35},srcline={460}}{5C3337365C3337375C303030445C3030306F5C303030635C303030755C3030306D5C303030655C3030306E5C303030745C303030615C303030745C303030695C3030306F5C3030306E5C3030305C3034305C303030425C303030655C303030665C3030306F5C303030725C303030655C3030305C3034305C303030455C303030615C303030635C303030685C3030305C3034305C303030465C303030755C3030306E5C303030635C303030745C303030695C3030306F5C3030306E}
\@writefile{toc}{\beamer@sectionintoc {5}{Documentation Before Each Function}{11}{0}{5}}
\@writefile{nav}{\headcommand {\beamer@sectionpages {8}{10}}}
\@writefile{nav}{\headcommand {\beamer@subsectionpages {10}{10}}}
\@writefile{nav}{\headcommand {\sectionentry {5}{Documentation Before Each Function}{11}{Documentation Before Each Function}{0}}}
\newlabeldata{mcid-318}{{tagabspage}{11}{tagmcabs}{318}{tagmcid}{33}}
\newlabeldata{l3pdf298}{{abspage}{11}}
\newlabeldata{mcid-285}{{tagabspage}{11}{tagmcabs}{285}{tagmcid}{0}}
\newlabeldata{l3pdf265}{{abspage}{11}}
\newlabeldata{mcid-286}{{tagabspage}{11}{tagmcabs}{286}{tagmcid}{1}}
\newlabeldata{l3pdf266}{{abspage}{11}}
\newlabeldata{mcid-287}{{tagabspage}{11}{tagmcabs}{287}{tagmcid}{2}}
\newlabeldata{l3pdf267}{{abspage}{11}}
\newlabeldata{mcid-288}{{tagabspage}{11}{tagmcabs}{288}{tagmcid}{3}}
\newlabeldata{l3pdf268}{{abspage}{11}}
\newlabeldata{mcid-289}{{tagabspage}{11}{tagmcabs}{289}{tagmcid}{4}}
\newlabeldata{l3pdf269}{{abspage}{11}}
\newlabeldata{mcid-290}{{tagabspage}{11}{tagmcabs}{290}{tagmcid}{5}}
\newlabeldata{l3pdf270}{{abspage}{11}}
\newlabeldata{mcid-291}{{tagabspage}{11}{tagmcabs}{291}{tagmcid}{6}}
\newlabeldata{l3pdf271}{{abspage}{11}}
\newlabeldata{mcid-292}{{tagabspage}{11}{tagmcabs}{292}{tagmcid}{7}}
\newlabeldata{l3pdf272}{{abspage}{11}}
\newlabeldata{mcid-293}{{tagabspage}{11}{tagmcabs}{293}{tagmcid}{8}}
\newlabeldata{l3pdf273}{{abspage}{11}}
\newlabeldata{mcid-294}{{tagabspage}{11}{tagmcabs}{294}{tagmcid}{9}}
\newlabeldata{l3pdf274}{{abspage}{11}}
\newlabeldata{mcid-295}{{tagabspage}{11}{tagmcabs}{295}{tagmcid}{10}}
\newlabeldata{l3pdf275}{{abspage}{11}}
\newlabeldata{mcid-296}{{tagabspage}{11}{tagmcabs}{296}{tagmcid}{11}}
\newlabeldata{l3pdf276}{{abspage}{11}}
\newlabeldata{mcid-297}{{tagabspage}{11}{tagmcabs}{297}{tagmcid}{12}}
\newlabeldata{l3pdf277}{{abspage}{11}}
\newlabeldata{mcid-298}{{tagabspage}{11}{tagmcabs}{298}{tagmcid}{13}}
\newlabeldata{l3pdf278}{{abspage}{11}}
\newlabeldata{mcid-299}{{tagabspage}{11}{tagmcabs}{299}{tagmcid}{14}}
\newlabeldata{l3pdf279}{{abspage}{11}}
\newlabeldata{mcid-300}{{tagabspage}{11}{tagmcabs}{300}{tagmcid}{15}}
\newlabeldata{l3pdf280}{{abspage}{11}}
\newlabeldata{mcid-301}{{tagabspage}{11}{tagmcabs}{301}{tagmcid}{16}}
\newlabeldata{l3pdf281}{{abspage}{11}}
\newlabeldata{mcid-302}{{tagabspage}{11}{tagmcabs}{302}{tagmcid}{17}}
\newlabeldata{l3pdf282}{{abspage}{11}}
\newlabeldata{mcid-303}{{tagabspage}{11}{tagmcabs}{303}{tagmcid}{18}}
\newlabeldata{l3pdf283}{{abspage}{11}}
\newlabeldata{mcid-304}{{tagabspage}{11}{tagmcabs}{304}{tagmcid}{19}}
\newlabeldata{l3pdf284}{{abspage}{11}}
\newlabeldata{mcid-305}{{tagabspage}{11}{tagmcabs}{305}{tagmcid}{20}}
\newlabeldata{l3pdf285}{{abspage}{11}}
\newlabeldata{mcid-306}{{tagabspage}{11}{tagmcabs}{306}{tagmcid}{21}}
\newlabeldata{l3pdf286}{{abspage}{11}}
\newlabeldata{mcid-307}{{tagabspage}{11}{tagmcabs}{307}{tagmcid}{22}}
\newlabeldata{l3pdf287}{{abspage}{11}}
\newlabeldata{mcid-308}{{tagabspage}{11}{tagmcabs}{308}{tagmcid}{23}}
\newlabeldata{l3pdf288}{{abspage}{11}}
\newlabeldata{mcid-309}{{tagabspage}{11}{tagmcabs}{309}{tagmcid}{24}}
\newlabeldata{l3pdf289}{{abspage}{11}}
\newlabeldata{mcid-310}{{tagabspage}{11}{tagmcabs}{310}{tagmcid}{25}}
\newlabeldata{l3pdf290}{{abspage}{11}}
\newlabeldata{mcid-311}{{tagabspage}{11}{tagmcabs}{311}{tagmcid}{26}}
\newlabeldata{l3pdf291}{{abspage}{11}}
\newlabeldata{mcid-312}{{tagabspage}{11}{tagmcabs}{312}{tagmcid}{27}}
\newlabeldata{l3pdf292}{{abspage}{11}}
\newlabeldata{mcid-313}{{tagabspage}{11}{tagmcabs}{313}{tagmcid}{28}}
\newlabeldata{l3pdf293}{{abspage}{11}}
\newlabeldata{mcid-314}{{tagabspage}{11}{tagmcabs}{314}{tagmcid}{29}}
\newlabeldata{l3pdf294}{{abspage}{11}}
\newlabeldata{mcid-315}{{tagabspage}{11}{tagmcabs}{315}{tagmcid}{30}}
\newlabeldata{l3pdf295}{{abspage}{11}}
\newlabeldata{mcid-316}{{tagabspage}{11}{tagmcabs}{316}{tagmcid}{31}}
\newlabeldata{l3pdf296}{{abspage}{11}}
\newlabeldata{mcid-317}{{tagabspage}{11}{tagmcabs}{317}{tagmcid}{32}}
\newlabeldata{l3pdf297}{{abspage}{11}}
\@writefile{nav}{\headcommand {\slideentry {5}{0}{1}{11/11}{}{0}}}
\@writefile{nav}{\headcommand {\beamer@framepages {11}{11}}}
\BKM@entry{id=13,open,dest={4F75746C696E65302E36},srcline={510}}{5C3337365C3337375C303030465C3030306F5C303030725C3030306D5C303030615C303030745C303030745C303030695C3030306E5C30303067}
\BKM@entry{id=14,open,dest={4F75746C696E65302E362E312E3132},srcline={511}}{5C3337365C3337375C303030315C303030325C303030305C3030305C3034305C303030635C303030685C303030615C303030725C303030615C303030635C303030745C303030655C303030725C3030302D5C303030705C303030655C303030725C3030302D5C3030306C5C303030695C3030306E5C303030655C3030305C3034305C3030306C5C303030695C3030306D5C303030695C30303074}
\@writefile{toc}{\beamer@sectionintoc {6}{Formatting}{12}{0}{6}}
\@writefile{nav}{\headcommand {\beamer@sectionpages {11}{11}}}
\@writefile{nav}{\headcommand {\beamer@subsectionpages {11}{11}}}
\@writefile{nav}{\headcommand {\sectionentry {6}{Formatting}{12}{Formatting}{0}}}
\@writefile{toc}{\beamer@subsectionintoc {6}{1}{120 character-per-line limit}{12}{0}{6}}
\@writefile{nav}{\headcommand {\beamer@subsectionpages {12}{11}}}
\@writefile{nav}{\headcommand {\beamer@subsectionentry {0}{6}{1}{12}{120 character-per-line limit}}}
\newlabeldata{mcid-327}{{tagabspage}{12}{tagmcabs}{327}{tagmcid}{6}}
\newlabeldata{l3pdf305}{{abspage}{12}}
\newlabeldata{mcid-321}{{tagabspage}{12}{tagmcabs}{321}{tagmcid}{0}}
\newlabeldata{l3pdf299}{{abspage}{12}}
\newlabeldata{mcid-322}{{tagabspage}{12}{tagmcabs}{322}{tagmcid}{1}}
\newlabeldata{l3pdf300}{{abspage}{12}}
\newlabeldata{mcid-323}{{tagabspage}{12}{tagmcabs}{323}{tagmcid}{2}}
\newlabeldata{l3pdf301}{{abspage}{12}}
\newlabeldata{mcid-324}{{tagabspage}{12}{tagmcabs}{324}{tagmcid}{3}}
\newlabeldata{l3pdf302}{{abspage}{12}}
\newlabeldata{mcid-325}{{tagabspage}{12}{tagmcabs}{325}{tagmcid}{4}}
\newlabeldata{l3pdf303}{{abspage}{12}}
\newlabeldata{mcid-326}{{tagabspage}{12}{tagmcabs}{326}{tagmcid}{5}}
\newlabeldata{l3pdf304}{{abspage}{12}}
\@writefile{nav}{\headcommand {\slideentry {6}{1}{1}{12/12}{120 character-per-line limit}{0}}}
\@writefile{nav}{\headcommand {\beamer@framepages {12}{12}}}
\newlabeldata{mcid-339}{{tagabspage}{13}{tagmcabs}{339}{tagmcid}{9}}
\newlabeldata{l3pdf315}{{abspage}{13}}
\newlabeldata{mcid-330}{{tagabspage}{13}{tagmcabs}{330}{tagmcid}{0}}
\newlabeldata{l3pdf306}{{abspage}{13}}
\newlabeldata{mcid-331}{{tagabspage}{13}{tagmcabs}{331}{tagmcid}{1}}
\newlabeldata{l3pdf307}{{abspage}{13}}
\newlabeldata{mcid-332}{{tagabspage}{13}{tagmcabs}{332}{tagmcid}{2}}
\newlabeldata{l3pdf308}{{abspage}{13}}
\newlabeldata{mcid-333}{{tagabspage}{13}{tagmcabs}{333}{tagmcid}{3}}
\newlabeldata{l3pdf309}{{abspage}{13}}
\newlabeldata{mcid-334}{{tagabspage}{13}{tagmcabs}{334}{tagmcid}{4}}
\newlabeldata{l3pdf310}{{abspage}{13}}
\newlabeldata{mcid-335}{{tagabspage}{13}{tagmcabs}{335}{tagmcid}{5}}
\newlabeldata{l3pdf311}{{abspage}{13}}
\newlabeldata{mcid-336}{{tagabspage}{13}{tagmcabs}{336}{tagmcid}{6}}
\newlabeldata{l3pdf312}{{abspage}{13}}
\newlabeldata{mcid-337}{{tagabspage}{13}{tagmcabs}{337}{tagmcid}{7}}
\newlabeldata{l3pdf313}{{abspage}{13}}
\newlabeldata{mcid-338}{{tagabspage}{13}{tagmcabs}{338}{tagmcid}{8}}
\newlabeldata{l3pdf314}{{abspage}{13}}
\@writefile{nav}{\headcommand {\slideentry {6}{1}{2}{13/13}{120 character-per-line limit}{0}}}
\@writefile{nav}{\headcommand {\beamer@framepages {13}{13}}}
\@writefile{nav}{\headcommand {\beamer@partpages {1}{13}}}
\@writefile{nav}{\headcommand {\beamer@subsectionpages {12}{13}}}
\@writefile{nav}{\headcommand {\beamer@sectionpages {12}{13}}}
\@writefile{nav}{\headcommand {\beamer@documentpages {13}}}
\@writefile{nav}{\headcommand {\gdef \inserttotalframenumber {13}}}
\gdef\minted@oldcachelist{,
  default.pygstyle,
  AC3C69A7AD818B0A84FF04A0994D20104DC1BCDAAD74894D21B59A241C4F5492.pygtex,
  B08D3B3D864F08B2916C5404DADC57794DC1BCDAAD74894D21B59A241C4F5492.pygtex,
  162DB16E2734BD04CA8CEC07CE1A02264DC1BCDAAD74894D21B59A241C4F5492.pygtex,
  4A983A9A110A3C880C3D347CDD337E0C4DC1BCDAAD74894D21B59A241C4F5492.pygtex,
  4B59008441C0EB1572DF65DC4143214E4DC1BCDAAD74894D21B59A241C4F5492.pygtex,
  85B9B3C31F3898501AB588329880292A4DC1BCDAAD74894D21B59A241C4F5492.pygtex,
  E3018D63BD8D20B68C2D960DE9BB60364DC1BCDAAD74894D21B59A241C4F5492.pygtex,
  A099FA78D947824166B552F3AF0E40DF4DC1BCDAAD74894D21B59A241C4F5492.pygtex,
  C4EF1365F08842917CBED3B0A12274C44DC1BCDAAD74894D21B59A241C4F5492.pygtex,
  AD89E1B5A14DEB10CAE8A2AC3A0B14F14DC1BCDAAD74894D21B59A241C4F5492.pygtex,
  CE0A9CB39DBF90498A2B85D3826905FC4DC1BCDAAD74894D21B59A241C4F5492.pygtex,
  CEBC8D2D270EC19D68E344EB7006FF064DC1BCDAAD74894D21B59A241C4F5492.pygtex,
  6943A59FDCBA63BC1A5B12D66844C0F54DC1BCDAAD74894D21B59A241C4F5492.pygtex,
  EB14CDECF3CB804F16C494439DB935A84DC1BCDAAD74894D21B59A241C4F5492.pygtex,
  919C10A851A26483D5247439382122BE4DC1BCDAAD74894D21B59A241C4F5492.pygtex,
  95FAD05291F5A68F12CBE2CBA2601E7C4DC1BCDAAD74894D21B59A241C4F5492.pygtex,
  E2726FF472C4138F66664E1629F68EDB4DC1BCDAAD74894D21B59A241C4F5492.pygtex,
  99FD4C087F684C6BF96D49DE8B7DA72F4DC1BCDAAD74894D21B59A241C4F5492.pygtex,
  A7A93F105CFCDF0FBAA33687E7CD3E714DC1BCDAAD74894D21B59A241C4F5492.pygtex,
  032D17701C085FCA83168841714F16E74DC1BCDAAD74894D21B59A241C4F5492.pygtex}
\newlabeldata{__tag_LastPage}{{abspage}{13}{tagmcabs}{341}}
\gdef\svg@ink@ver@settings{{\m@ne }{inkscape}{1}}
\gdef \@abspage@last{13}
