\relax 
\gdef\minted@oldcachelist{,
  default.pygstyle,
  B425F568A61B33847F907F59C673E389681D2C337A1E1130BA44B49275874BF7.pygtex}
\newlabeldata{mcid-2}{{tagabspage}{1}{tagmcabs}{2}{tagmcid}{0}}
\newlabeldata{l3pdf1}{{abspage}{1}}
\newlabeldata{mcid-5}{{tagabspage}{1}{tagmcabs}{5}{tagmcid}{1}}
\newlabeldata{l3pdf2}{{abspage}{1}}
\newlabeldata{mcid-8}{{tagabspage}{1}{tagmcabs}{8}{tagmcid}{2}}
\newlabeldata{l3pdf3}{{abspage}{1}}
\newlabeldata{mcid-11}{{tagabspage}{1}{tagmcabs}{11}{tagmcid}{3}}
\newlabeldata{l3pdf4}{{abspage}{1}}
\newlabeldata{mcid-14}{{tagabspage}{1}{tagmcabs}{14}{tagmcid}{4}}
\newlabeldata{l3pdf5}{{abspage}{1}}
\newlabeldata{mcid-17}{{tagabspage}{1}{tagmcabs}{17}{tagmcid}{5}}
\newlabeldata{l3pdf6}{{abspage}{1}}
\newlabeldata{mcid-20}{{tagabspage}{1}{tagmcabs}{20}{tagmcid}{6}}
\newlabeldata{l3pdf7}{{abspage}{1}}
\newlabeldata{mcid-23}{{tagabspage}{1}{tagmcabs}{23}{tagmcid}{7}}
\newlabeldata{l3pdf8}{{abspage}{1}}
\newlabeldata{mcid-26}{{tagabspage}{1}{tagmcabs}{26}{tagmcid}{8}}
\newlabeldata{l3pdf9}{{abspage}{1}}
\newlabeldata{mcid-29}{{tagabspage}{1}{tagmcabs}{29}{tagmcid}{9}}
\newlabeldata{l3pdf10}{{abspage}{1}}
\newlabeldata{mcid-31}{{tagabspage}{1}{tagmcabs}{31}{tagmcid}{0}}
\newlabeldata{l3pdf11}{{abspage}{1}}
\newlabeldata{mcid-32}{{tagabspage}{1}{tagmcabs}{32}{tagmcid}{1}}
\newlabeldata{l3pdf12}{{abspage}{1}}
\newlabeldata{mcid-33}{{tagabspage}{1}{tagmcabs}{33}{tagmcid}{2}}
\newlabeldata{l3pdf13}{{abspage}{1}}
\newlabeldata{mcid-36}{{tagabspage}{1}{tagmcabs}{36}{tagmcid}{3}}
\newlabeldata{l3pdf14}{{abspage}{1}}
\newlabeldata{mcid-38}{{tagabspage}{1}{tagmcabs}{38}{tagmcid}{4}}
\newlabeldata{l3pdf15}{{abspage}{1}}
\newlabeldata{mcid-39}{{tagabspage}{1}{tagmcabs}{39}{tagmcid}{5}}
\newlabeldata{l3pdf16}{{abspage}{1}}
\newlabeldata{mcid-40}{{tagabspage}{1}{tagmcabs}{40}{tagmcid}{6}}
\newlabeldata{l3pdf17}{{abspage}{1}}
\newlabeldata{mcid-43}{{tagabspage}{1}{tagmcabs}{43}{tagmcid}{0}}
\newlabeldata{l3pdf18}{{abspage}{1}}
\newlabeldata{mcid-45}{{tagabspage}{1}{tagmcabs}{45}{tagmcid}{1}}
\newlabeldata{l3pdf19}{{abspage}{1}}
\newlabeldata{mcid-48}{{tagabspage}{1}{tagmcabs}{48}{tagmcid}{2}}
\newlabeldata{l3pdf20}{{abspage}{1}}
\newlabeldata{mcid-50}{{tagabspage}{1}{tagmcabs}{50}{tagmcid}{3}}
\newlabeldata{l3pdf21}{{abspage}{1}}
\newlabeldata{mcid-52}{{tagabspage}{1}{tagmcabs}{52}{tagmcid}{10}}
\newlabeldata{l3pdf22}{{abspage}{1}}
\newlabeldata{mcid-54}{{tagabspage}{1}{tagmcabs}{54}{tagmcid}{0}}
\newlabeldata{l3pdf23}{{abspage}{1}}
\newlabeldata{mcid-57}{{tagabspage}{1}{tagmcabs}{57}{tagmcid}{11}}
\newlabeldata{l3pdf24}{{abspage}{1}}
\newlabeldata{mcid-60}{{tagabspage}{1}{tagmcabs}{60}{tagmcid}{12}}
\newlabeldata{l3pdf25}{{abspage}{1}}
\newlabeldata{mcid-63}{{tagabspage}{1}{tagmcabs}{63}{tagmcid}{13}}
\newlabeldata{l3pdf26}{{abspage}{1}}
\newlabeldata{mcid-66}{{tagabspage}{1}{tagmcabs}{66}{tagmcid}{14}}
\newlabeldata{l3pdf27}{{abspage}{1}}
\newlabeldata{mcid-69}{{tagabspage}{1}{tagmcabs}{69}{tagmcid}{15}}
\newlabeldata{l3pdf28}{{abspage}{1}}
\newlabeldata{mcid-72}{{tagabspage}{1}{tagmcabs}{72}{tagmcid}{16}}
\newlabeldata{l3pdf29}{{abspage}{1}}
\newlabeldata{mcid-75}{{tagabspage}{1}{tagmcabs}{75}{tagmcid}{17}}
\newlabeldata{l3pdf30}{{abspage}{1}}
\newlabeldata{mcid-78}{{tagabspage}{1}{tagmcabs}{78}{tagmcid}{18}}
\newlabeldata{l3pdf31}{{abspage}{1}}
\newlabeldata{mcid-80}{{tagabspage}{1}{tagmcabs}{80}{tagmcid}{19}}
\newlabeldata{l3pdf32}{{abspage}{1}}
\newlabeldata{mcid-82}{{tagabspage}{1}{tagmcabs}{82}{tagmcid}{20}}
\newlabeldata{l3pdf33}{{abspage}{1}}
\newlabeldata{mcid-84}{{tagabspage}{1}{tagmcabs}{84}{tagmcid}{21}}
\newlabeldata{l3pdf34}{{abspage}{1}}
\newlabeldata{mcid-86}{{tagabspage}{1}{tagmcabs}{86}{tagmcid}{22}}
\newlabeldata{l3pdf35}{{abspage}{1}}
\newlabeldata{mcid-88}{{tagabspage}{1}{tagmcabs}{88}{tagmcid}{23}}
\newlabeldata{l3pdf36}{{abspage}{1}}
\newlabeldata{mcid-90}{{tagabspage}{1}{tagmcabs}{90}{tagmcid}{24}}
\newlabeldata{l3pdf37}{{abspage}{1}}
\newlabeldata{mcid-92}{{tagabspage}{1}{tagmcabs}{92}{tagmcid}{25}}
\newlabeldata{l3pdf38}{{abspage}{1}}
\newlabeldata{mcid-94}{{tagabspage}{1}{tagmcabs}{94}{tagmcid}{26}}
\newlabeldata{l3pdf39}{{abspage}{1}}
\newlabeldata{mcid-96}{{tagabspage}{1}{tagmcabs}{96}{tagmcid}{27}}
\newlabeldata{l3pdf40}{{abspage}{1}}
\newlabeldata{mcid-97}{{tagabspage}{1}{tagmcabs}{97}{tagmcid}{28}}
\newlabeldata{l3pdf41}{{abspage}{1}}
\newlabeldata{mcid-98}{{tagabspage}{1}{tagmcabs}{98}{tagmcid}{29}}
\newlabeldata{l3pdf42}{{abspage}{1}}
\newlabeldata{mcid-99}{{tagabspage}{1}{tagmcabs}{99}{tagmcid}{30}}
\newlabeldata{l3pdf43}{{abspage}{1}}
\newlabeldata{mcid-101}{{tagabspage}{1}{tagmcabs}{101}{tagmcid}{31}}
\newlabeldata{l3pdf44}{{abspage}{1}}
\newlabeldata{mcid-103}{{tagabspage}{1}{tagmcabs}{103}{tagmcid}{32}}
\newlabeldata{l3pdf45}{{abspage}{1}}
\newlabeldata{mcid-104}{{tagabspage}{1}{tagmcabs}{104}{tagmcid}{33}}
\newlabeldata{l3pdf46}{{abspage}{1}}
\newlabeldata{mcid-105}{{tagabspage}{1}{tagmcabs}{105}{tagmcid}{34}}
\newlabeldata{l3pdf47}{{abspage}{1}}
\newlabeldata{mcid-107}{{tagabspage}{1}{tagmcabs}{107}{tagmcid}{35}}
\newlabeldata{l3pdf48}{{abspage}{1}}
\newlabeldata{mcid-109}{{tagabspage}{1}{tagmcabs}{109}{tagmcid}{36}}
\newlabeldata{l3pdf49}{{abspage}{1}}
\newlabeldata{mcid-110}{{tagabspage}{1}{tagmcabs}{110}{tagmcid}{37}}
\newlabeldata{l3pdf50}{{abspage}{1}}
\newlabeldata{mcid-111}{{tagabspage}{1}{tagmcabs}{111}{tagmcid}{38}}
\newlabeldata{l3pdf51}{{abspage}{1}}
\newlabeldata{__tag_LastPage}{{abspage}{1}{tagmcabs}{113}}
\gdef\svg@ink@ver@settings{{\m@ne }{inkscape}{1}}
\gdef \@abspage@last{1}
