\relax 
\providecommand\hyper@newdestlabel[2]{}
\providecommand\HyperFirstAtBeginDocument{\AtBeginDocument}
\HyperFirstAtBeginDocument{\ifx\hyper@anchor\@undefined
\global\let\oldcontentsline\contentsline
\gdef\contentsline#1#2#3#4{\oldcontentsline{#1}{#2}{#3}}
\global\let\oldnewlabel\newlabel
\gdef\newlabel#1#2{\newlabelxx{#1}#2}
\gdef\newlabelxx#1#2#3#4#5#6{\oldnewlabel{#1}{{#2}{#3}}}
\AtEndDocument{\ifx\hyper@anchor\@undefined
\let\contentsline\oldcontentsline
\let\newlabel\oldnewlabel
\fi}
\fi}
\global\let\hyper@last\relax 
\gdef\HyperFirstAtBeginDocument#1{#1}
\providecommand\HyField@AuxAddToFields[1]{}
\providecommand\HyField@AuxAddToCoFields[2]{}
\providecommand\BKM@entry[2]{}
\newlabeldata{mcid-1}{{tagabspage}{1}{tagmcabs}{1}{tagmcid}{0}}
\newlabeldata{l3pdf1}{{abspage}{1}}
\newlabeldata{mcid-2}{{tagabspage}{1}{tagmcabs}{2}{tagmcid}{1}}
\newlabeldata{l3pdf2}{{abspage}{1}}
\newlabeldata{mcid-3}{{tagabspage}{1}{tagmcabs}{3}{tagmcid}{2}}
\newlabeldata{l3pdf3}{{abspage}{1}}
\newlabeldata{mcid-4}{{tagabspage}{1}{tagmcabs}{4}{tagmcid}{3}}
\newlabeldata{l3pdf4}{{abspage}{1}}
\@writefile{nav}{\headcommand {\slideentry {0}{0}{1}{1/1}{}{0}}}
\@writefile{nav}{\headcommand {\beamer@framepages {1}{1}}}
\newlabeldata{mcid-25}{{tagabspage}{2}{tagmcabs}{25}{tagmcid}{18}}
\newlabeldata{l3pdf23}{{abspage}{2}}
\newlabeldata{mcid-26}{{tagabspage}{2}{tagmcabs}{26}{tagmcid}{19}}
\newlabeldata{l3pdf24}{{abspage}{2}}
\newlabeldata{mcid-27}{{tagabspage}{2}{tagmcabs}{27}{tagmcid}{20}}
\newlabeldata{l3pdf25}{{abspage}{2}}
\newlabeldata{mcid-7}{{tagabspage}{2}{tagmcabs}{7}{tagmcid}{0}}
\newlabeldata{l3pdf5}{{abspage}{2}}
\newlabeldata{mcid-8}{{tagabspage}{2}{tagmcabs}{8}{tagmcid}{1}}
\newlabeldata{l3pdf6}{{abspage}{2}}
\newlabeldata{mcid-9}{{tagabspage}{2}{tagmcabs}{9}{tagmcid}{2}}
\newlabeldata{l3pdf7}{{abspage}{2}}
\newlabeldata{mcid-10}{{tagabspage}{2}{tagmcabs}{10}{tagmcid}{3}}
\newlabeldata{l3pdf8}{{abspage}{2}}
\newlabeldata{mcid-11}{{tagabspage}{2}{tagmcabs}{11}{tagmcid}{4}}
\newlabeldata{l3pdf9}{{abspage}{2}}
\newlabeldata{mcid-12}{{tagabspage}{2}{tagmcabs}{12}{tagmcid}{5}}
\newlabeldata{l3pdf10}{{abspage}{2}}
\newlabeldata{mcid-13}{{tagabspage}{2}{tagmcabs}{13}{tagmcid}{6}}
\newlabeldata{l3pdf11}{{abspage}{2}}
\newlabeldata{mcid-14}{{tagabspage}{2}{tagmcabs}{14}{tagmcid}{7}}
\newlabeldata{l3pdf12}{{abspage}{2}}
\newlabeldata{mcid-15}{{tagabspage}{2}{tagmcabs}{15}{tagmcid}{8}}
\newlabeldata{l3pdf13}{{abspage}{2}}
\newlabeldata{mcid-16}{{tagabspage}{2}{tagmcabs}{16}{tagmcid}{9}}
\newlabeldata{l3pdf14}{{abspage}{2}}
\newlabeldata{mcid-17}{{tagabspage}{2}{tagmcabs}{17}{tagmcid}{10}}
\newlabeldata{l3pdf15}{{abspage}{2}}
\newlabeldata{mcid-18}{{tagabspage}{2}{tagmcabs}{18}{tagmcid}{11}}
\newlabeldata{l3pdf16}{{abspage}{2}}
\newlabeldata{mcid-19}{{tagabspage}{2}{tagmcabs}{19}{tagmcid}{12}}
\newlabeldata{l3pdf17}{{abspage}{2}}
\newlabeldata{mcid-20}{{tagabspage}{2}{tagmcabs}{20}{tagmcid}{13}}
\newlabeldata{l3pdf18}{{abspage}{2}}
\newlabeldata{mcid-21}{{tagabspage}{2}{tagmcabs}{21}{tagmcid}{14}}
\newlabeldata{l3pdf19}{{abspage}{2}}
\newlabeldata{mcid-22}{{tagabspage}{2}{tagmcabs}{22}{tagmcid}{15}}
\newlabeldata{l3pdf20}{{abspage}{2}}
\newlabeldata{mcid-23}{{tagabspage}{2}{tagmcabs}{23}{tagmcid}{16}}
\newlabeldata{l3pdf21}{{abspage}{2}}
\newlabeldata{mcid-24}{{tagabspage}{2}{tagmcabs}{24}{tagmcid}{17}}
\newlabeldata{l3pdf22}{{abspage}{2}}
\@writefile{nav}{\headcommand {\slideentry {0}{0}{2}{2/2}{}{0}}}
\@writefile{nav}{\headcommand {\beamer@framepages {2}{2}}}
\BKM@entry{id=1,open,dest={4F75746C696E65302E31},srcline={57}}{5C3337365C3337375C303030435C3030306F5C303030755C303030725C303030735C303030655C3030305C3034305C3030304C5C303030655C303030615C303030725C3030306E5C303030695C3030306E5C303030675C3030305C3034305C3030304F5C303030755C303030745C303030635C3030306F5C3030306D5C303030655C30303073}
\@writefile{toc}{\beamer@sectionintoc {1}{Course Learning Outcomes}{3}{0}{1}}
\@writefile{nav}{\headcommand {\beamer@sectionpages {1}{2}}}
\@writefile{nav}{\headcommand {\beamer@subsectionpages {1}{2}}}
\@writefile{nav}{\headcommand {\sectionentry {1}{Course Learning Outcomes}{3}{Course Learning Outcomes}{0}}}
\newlabeldata{mcid-34}{{tagabspage}{3}{tagmcabs}{34}{tagmcid}{4}}
\newlabeldata{l3pdf30}{{abspage}{3}}
\newlabeldata{mcid-35}{{tagabspage}{3}{tagmcabs}{35}{tagmcid}{0}}
\newlabeldata{l3pdf31}{{abspage}{3}}
\newlabeldata{mcid-36}{{tagabspage}{3}{tagmcabs}{36}{tagmcid}{1}}
\newlabeldata{l3pdf32}{{abspage}{3}}
\newlabeldata{mcid-31}{{tagabspage}{3}{tagmcabs}{31}{tagmcid}{1}}
\newlabeldata{l3pdf27}{{abspage}{3}}
\newlabeldata{mcid-30}{{tagabspage}{3}{tagmcabs}{30}{tagmcid}{0}}
\newlabeldata{l3pdf26}{{abspage}{3}}
\newlabeldata{mcid-33}{{tagabspage}{3}{tagmcabs}{33}{tagmcid}{3}}
\newlabeldata{l3pdf29}{{abspage}{3}}
\newlabeldata{mcid-32}{{tagabspage}{3}{tagmcabs}{32}{tagmcid}{2}}
\newlabeldata{l3pdf28}{{abspage}{3}}
\@writefile{nav}{\headcommand {\slideentry {1}{0}{1}{3/3}{}{0}}}
\@writefile{nav}{\headcommand {\beamer@framepages {3}{3}}}
\BKM@entry{id=2,open,dest={4F75746C696E65302E32},srcline={70}}{5C3337365C3337375C303030575C303030685C303030795C3030305C3034305C3030304D5C303030755C3030306C5C303030745C303030695C303030705C3030306C5C303030655C3030305C3034305C303030465C303030695C3030306C5C303030655C303030735C3030303F}
\@writefile{toc}{\beamer@sectionintoc {2}{Why Multiple Files?}{4}{0}{2}}
\@writefile{nav}{\headcommand {\beamer@sectionpages {3}{3}}}
\@writefile{nav}{\headcommand {\beamer@subsectionpages {3}{3}}}
\@writefile{nav}{\headcommand {\sectionentry {2}{Why Multiple Files?}{4}{Why Multiple Files?}{0}}}
\newlabeldata{mcid-47}{{tagabspage}{4}{tagmcabs}{47}{tagmcid}{2}}
\newlabeldata{l3pdf41}{{abspage}{4}}
\newlabeldata{mcid-48}{{tagabspage}{4}{tagmcabs}{48}{tagmcid}{3}}
\newlabeldata{l3pdf42}{{abspage}{4}}
\newlabeldata{mcid-39}{{tagabspage}{4}{tagmcabs}{39}{tagmcid}{0}}
\newlabeldata{l3pdf33}{{abspage}{4}}
\newlabeldata{mcid-40}{{tagabspage}{4}{tagmcabs}{40}{tagmcid}{1}}
\newlabeldata{l3pdf34}{{abspage}{4}}
\newlabeldata{mcid-41}{{tagabspage}{4}{tagmcabs}{41}{tagmcid}{2}}
\newlabeldata{l3pdf35}{{abspage}{4}}
\newlabeldata{mcid-42}{{tagabspage}{4}{tagmcabs}{42}{tagmcid}{3}}
\newlabeldata{l3pdf36}{{abspage}{4}}
\newlabeldata{mcid-43}{{tagabspage}{4}{tagmcabs}{43}{tagmcid}{4}}
\newlabeldata{l3pdf37}{{abspage}{4}}
\newlabeldata{mcid-44}{{tagabspage}{4}{tagmcabs}{44}{tagmcid}{5}}
\newlabeldata{l3pdf38}{{abspage}{4}}
\newlabeldata{mcid-45}{{tagabspage}{4}{tagmcabs}{45}{tagmcid}{6}}
\newlabeldata{l3pdf39}{{abspage}{4}}
\newlabeldata{mcid-46}{{tagabspage}{4}{tagmcabs}{46}{tagmcid}{7}}
\newlabeldata{l3pdf40}{{abspage}{4}}
\@writefile{nav}{\headcommand {\slideentry {2}{0}{1}{4/4}{}{0}}}
\@writefile{nav}{\headcommand {\beamer@framepages {4}{4}}}
\newlabeldata{mcid-57}{{tagabspage}{5}{tagmcabs}{57}{tagmcid}{4}}
\newlabeldata{l3pdf49}{{abspage}{5}}
\newlabeldata{mcid-58}{{tagabspage}{5}{tagmcabs}{58}{tagmcid}{5}}
\newlabeldata{l3pdf50}{{abspage}{5}}
\newlabeldata{mcid-51}{{tagabspage}{5}{tagmcabs}{51}{tagmcid}{0}}
\newlabeldata{l3pdf43}{{abspage}{5}}
\newlabeldata{mcid-52}{{tagabspage}{5}{tagmcabs}{52}{tagmcid}{1}}
\newlabeldata{l3pdf44}{{abspage}{5}}
\newlabeldata{mcid-53}{{tagabspage}{5}{tagmcabs}{53}{tagmcid}{2}}
\newlabeldata{l3pdf45}{{abspage}{5}}
\newlabeldata{mcid-54}{{tagabspage}{5}{tagmcabs}{54}{tagmcid}{3}}
\newlabeldata{l3pdf46}{{abspage}{5}}
\newlabeldata{mcid-55}{{tagabspage}{5}{tagmcabs}{55}{tagmcid}{4}}
\newlabeldata{l3pdf47}{{abspage}{5}}
\newlabeldata{mcid-56}{{tagabspage}{5}{tagmcabs}{56}{tagmcid}{5}}
\newlabeldata{l3pdf48}{{abspage}{5}}
\@writefile{nav}{\headcommand {\slideentry {2}{0}{2}{5/5}{}{0}}}
\@writefile{nav}{\headcommand {\beamer@framepages {5}{5}}}
\BKM@entry{id=3,open,dest={4F75746C696E65302E33},srcline={105}}{5C3337365C3337375C303030435C3030306F5C3030306D5C303030705C303030695C3030306C5C303030695C3030306E5C303030675C3030305C3034305C303030695C3030306E5C3030305C3034305C303030505C303030615C303030725C303030745C30303073}
\@writefile{toc}{\beamer@sectionintoc {3}{Compiling in Parts}{6}{0}{3}}
\@writefile{nav}{\headcommand {\beamer@sectionpages {4}{5}}}
\@writefile{nav}{\headcommand {\beamer@subsectionpages {4}{5}}}
\@writefile{nav}{\headcommand {\sectionentry {3}{Compiling in Parts}{6}{Compiling in Parts}{0}}}
\newlabeldata{mcid-67}{{tagabspage}{6}{tagmcabs}{67}{tagmcid}{6}}
\newlabeldata{l3pdf57}{{abspage}{6}}
\newlabeldata{mcid-68}{{tagabspage}{6}{tagmcabs}{68}{tagmcid}{7}}
\newlabeldata{l3pdf58}{{abspage}{6}}
\newlabeldata{mcid-61}{{tagabspage}{6}{tagmcabs}{61}{tagmcid}{0}}
\newlabeldata{l3pdf51}{{abspage}{6}}
\newlabeldata{mcid-62}{{tagabspage}{6}{tagmcabs}{62}{tagmcid}{1}}
\newlabeldata{l3pdf52}{{abspage}{6}}
\newlabeldata{mcid-63}{{tagabspage}{6}{tagmcabs}{63}{tagmcid}{2}}
\newlabeldata{l3pdf53}{{abspage}{6}}
\newlabeldata{mcid-64}{{tagabspage}{6}{tagmcabs}{64}{tagmcid}{3}}
\newlabeldata{l3pdf54}{{abspage}{6}}
\newlabeldata{mcid-65}{{tagabspage}{6}{tagmcabs}{65}{tagmcid}{4}}
\newlabeldata{l3pdf55}{{abspage}{6}}
\newlabeldata{mcid-66}{{tagabspage}{6}{tagmcabs}{66}{tagmcid}{5}}
\newlabeldata{l3pdf56}{{abspage}{6}}
\@writefile{nav}{\headcommand {\slideentry {3}{0}{1}{6/6}{}{0}}}
\@writefile{nav}{\headcommand {\beamer@framepages {6}{6}}}
\newlabeldata{mcid-73}{{tagabspage}{7}{tagmcabs}{73}{tagmcid}{8}}
\newlabeldata{l3pdf61}{{abspage}{7}}
\newlabeldata{mcid-74}{{tagabspage}{7}{tagmcabs}{74}{tagmcid}{9}}
\newlabeldata{l3pdf62}{{abspage}{7}}
\newlabeldata{mcid-71}{{tagabspage}{7}{tagmcabs}{71}{tagmcid}{0}}
\newlabeldata{l3pdf59}{{abspage}{7}}
\newlabeldata{mcid-72}{{tagabspage}{7}{tagmcabs}{72}{tagmcid}{1}}
\newlabeldata{l3pdf60}{{abspage}{7}}
\@writefile{nav}{\headcommand {\slideentry {3}{0}{2}{7/7}{}{0}}}
\@writefile{nav}{\headcommand {\beamer@framepages {7}{7}}}
\newlabeldata{mcid-79}{{tagabspage}{8}{tagmcabs}{79}{tagmcid}{10}}
\newlabeldata{l3pdf65}{{abspage}{8}}
\newlabeldata{mcid-80}{{tagabspage}{8}{tagmcabs}{80}{tagmcid}{11}}
\newlabeldata{l3pdf66}{{abspage}{8}}
\newlabeldata{mcid-77}{{tagabspage}{8}{tagmcabs}{77}{tagmcid}{0}}
\newlabeldata{l3pdf63}{{abspage}{8}}
\newlabeldata{mcid-78}{{tagabspage}{8}{tagmcabs}{78}{tagmcid}{1}}
\newlabeldata{l3pdf64}{{abspage}{8}}
\@writefile{nav}{\headcommand {\slideentry {3}{0}{3}{8/8}{}{0}}}
\@writefile{nav}{\headcommand {\beamer@framepages {8}{8}}}
\newlabeldata{mcid-85}{{tagabspage}{9}{tagmcabs}{85}{tagmcid}{12}}
\newlabeldata{l3pdf69}{{abspage}{9}}
\newlabeldata{mcid-86}{{tagabspage}{9}{tagmcabs}{86}{tagmcid}{13}}
\newlabeldata{l3pdf70}{{abspage}{9}}
\newlabeldata{mcid-83}{{tagabspage}{9}{tagmcabs}{83}{tagmcid}{0}}
\newlabeldata{l3pdf67}{{abspage}{9}}
\newlabeldata{mcid-84}{{tagabspage}{9}{tagmcabs}{84}{tagmcid}{1}}
\newlabeldata{l3pdf68}{{abspage}{9}}
\@writefile{nav}{\headcommand {\slideentry {3}{0}{4}{9/9}{}{0}}}
\@writefile{nav}{\headcommand {\beamer@framepages {9}{9}}}
\BKM@entry{id=4,open,dest={4F75746C696E65302E34},srcline={149}}{5C3337365C3337375C303030485C303030655C303030615C303030645C303030655C303030725C3030305C3034305C303030465C303030695C3030306C5C303030655C303030735C3030305C3034305C3030305C3035305C3030302E5C303030685C3030305C303531}
\@writefile{toc}{\beamer@sectionintoc {4}{Header Files (.h)}{10}{0}{4}}
\@writefile{nav}{\headcommand {\beamer@sectionpages {6}{9}}}
\@writefile{nav}{\headcommand {\beamer@subsectionpages {6}{9}}}
\@writefile{nav}{\headcommand {\sectionentry {4}{Header Files (.h)}{10}{Header Files (.h)}{0}}}
\newlabeldata{mcid-118}{{tagabspage}{10}{tagmcabs}{118}{tagmcid}{14}}
\newlabeldata{l3pdf100}{{abspage}{10}}
\newlabeldata{mcid-119}{{tagabspage}{10}{tagmcabs}{119}{tagmcid}{15}}
\newlabeldata{l3pdf101}{{abspage}{10}}
\newlabeldata{mcid-89}{{tagabspage}{10}{tagmcabs}{89}{tagmcid}{0}}
\newlabeldata{l3pdf71}{{abspage}{10}}
\newlabeldata{mcid-90}{{tagabspage}{10}{tagmcabs}{90}{tagmcid}{1}}
\newlabeldata{l3pdf72}{{abspage}{10}}
\newlabeldata{mcid-91}{{tagabspage}{10}{tagmcabs}{91}{tagmcid}{2}}
\newlabeldata{l3pdf73}{{abspage}{10}}
\newlabeldata{mcid-92}{{tagabspage}{10}{tagmcabs}{92}{tagmcid}{3}}
\newlabeldata{l3pdf74}{{abspage}{10}}
\newlabeldata{mcid-93}{{tagabspage}{10}{tagmcabs}{93}{tagmcid}{4}}
\newlabeldata{l3pdf75}{{abspage}{10}}
\newlabeldata{mcid-94}{{tagabspage}{10}{tagmcabs}{94}{tagmcid}{5}}
\newlabeldata{l3pdf76}{{abspage}{10}}
\newlabeldata{mcid-95}{{tagabspage}{10}{tagmcabs}{95}{tagmcid}{6}}
\newlabeldata{l3pdf77}{{abspage}{10}}
\newlabeldata{mcid-96}{{tagabspage}{10}{tagmcabs}{96}{tagmcid}{7}}
\newlabeldata{l3pdf78}{{abspage}{10}}
\newlabeldata{mcid-97}{{tagabspage}{10}{tagmcabs}{97}{tagmcid}{8}}
\newlabeldata{l3pdf79}{{abspage}{10}}
\newlabeldata{mcid-98}{{tagabspage}{10}{tagmcabs}{98}{tagmcid}{9}}
\newlabeldata{l3pdf80}{{abspage}{10}}
\newlabeldata{mcid-99}{{tagabspage}{10}{tagmcabs}{99}{tagmcid}{10}}
\newlabeldata{l3pdf81}{{abspage}{10}}
\newlabeldata{mcid-100}{{tagabspage}{10}{tagmcabs}{100}{tagmcid}{11}}
\newlabeldata{l3pdf82}{{abspage}{10}}
\newlabeldata{mcid-101}{{tagabspage}{10}{tagmcabs}{101}{tagmcid}{12}}
\newlabeldata{l3pdf83}{{abspage}{10}}
\newlabeldata{mcid-102}{{tagabspage}{10}{tagmcabs}{102}{tagmcid}{13}}
\newlabeldata{l3pdf84}{{abspage}{10}}
\newlabeldata{mcid-103}{{tagabspage}{10}{tagmcabs}{103}{tagmcid}{14}}
\newlabeldata{l3pdf85}{{abspage}{10}}
\newlabeldata{mcid-104}{{tagabspage}{10}{tagmcabs}{104}{tagmcid}{15}}
\newlabeldata{l3pdf86}{{abspage}{10}}
\newlabeldata{mcid-105}{{tagabspage}{10}{tagmcabs}{105}{tagmcid}{16}}
\newlabeldata{l3pdf87}{{abspage}{10}}
\newlabeldata{mcid-106}{{tagabspage}{10}{tagmcabs}{106}{tagmcid}{17}}
\newlabeldata{l3pdf88}{{abspage}{10}}
\newlabeldata{mcid-107}{{tagabspage}{10}{tagmcabs}{107}{tagmcid}{18}}
\newlabeldata{l3pdf89}{{abspage}{10}}
\newlabeldata{mcid-108}{{tagabspage}{10}{tagmcabs}{108}{tagmcid}{19}}
\newlabeldata{l3pdf90}{{abspage}{10}}
\newlabeldata{mcid-109}{{tagabspage}{10}{tagmcabs}{109}{tagmcid}{20}}
\newlabeldata{l3pdf91}{{abspage}{10}}
\newlabeldata{mcid-110}{{tagabspage}{10}{tagmcabs}{110}{tagmcid}{21}}
\newlabeldata{l3pdf92}{{abspage}{10}}
\newlabeldata{mcid-111}{{tagabspage}{10}{tagmcabs}{111}{tagmcid}{22}}
\newlabeldata{l3pdf93}{{abspage}{10}}
\newlabeldata{mcid-112}{{tagabspage}{10}{tagmcabs}{112}{tagmcid}{23}}
\newlabeldata{l3pdf94}{{abspage}{10}}
\newlabeldata{mcid-113}{{tagabspage}{10}{tagmcabs}{113}{tagmcid}{24}}
\newlabeldata{l3pdf95}{{abspage}{10}}
\newlabeldata{mcid-114}{{tagabspage}{10}{tagmcabs}{114}{tagmcid}{25}}
\newlabeldata{l3pdf96}{{abspage}{10}}
\newlabeldata{mcid-115}{{tagabspage}{10}{tagmcabs}{115}{tagmcid}{26}}
\newlabeldata{l3pdf97}{{abspage}{10}}
\newlabeldata{mcid-116}{{tagabspage}{10}{tagmcabs}{116}{tagmcid}{27}}
\newlabeldata{l3pdf98}{{abspage}{10}}
\newlabeldata{mcid-117}{{tagabspage}{10}{tagmcabs}{117}{tagmcid}{28}}
\newlabeldata{l3pdf99}{{abspage}{10}}
\@writefile{nav}{\headcommand {\slideentry {4}{0}{1}{10/10}{}{0}}}
\@writefile{nav}{\headcommand {\beamer@framepages {10}{10}}}
\newlabeldata{mcid-155}{{tagabspage}{11}{tagmcabs}{155}{tagmcid}{16}}
\newlabeldata{l3pdf135}{{abspage}{11}}
\newlabeldata{mcid-156}{{tagabspage}{11}{tagmcabs}{156}{tagmcid}{17}}
\newlabeldata{l3pdf136}{{abspage}{11}}
\newlabeldata{mcid-122}{{tagabspage}{11}{tagmcabs}{122}{tagmcid}{0}}
\newlabeldata{l3pdf102}{{abspage}{11}}
\newlabeldata{mcid-123}{{tagabspage}{11}{tagmcabs}{123}{tagmcid}{1}}
\newlabeldata{l3pdf103}{{abspage}{11}}
\newlabeldata{mcid-124}{{tagabspage}{11}{tagmcabs}{124}{tagmcid}{2}}
\newlabeldata{l3pdf104}{{abspage}{11}}
\newlabeldata{mcid-125}{{tagabspage}{11}{tagmcabs}{125}{tagmcid}{3}}
\newlabeldata{l3pdf105}{{abspage}{11}}
\newlabeldata{mcid-126}{{tagabspage}{11}{tagmcabs}{126}{tagmcid}{4}}
\newlabeldata{l3pdf106}{{abspage}{11}}
\newlabeldata{mcid-127}{{tagabspage}{11}{tagmcabs}{127}{tagmcid}{5}}
\newlabeldata{l3pdf107}{{abspage}{11}}
\newlabeldata{mcid-128}{{tagabspage}{11}{tagmcabs}{128}{tagmcid}{6}}
\newlabeldata{l3pdf108}{{abspage}{11}}
\newlabeldata{mcid-129}{{tagabspage}{11}{tagmcabs}{129}{tagmcid}{7}}
\newlabeldata{l3pdf109}{{abspage}{11}}
\newlabeldata{mcid-130}{{tagabspage}{11}{tagmcabs}{130}{tagmcid}{8}}
\newlabeldata{l3pdf110}{{abspage}{11}}
\newlabeldata{mcid-131}{{tagabspage}{11}{tagmcabs}{131}{tagmcid}{9}}
\newlabeldata{l3pdf111}{{abspage}{11}}
\newlabeldata{mcid-132}{{tagabspage}{11}{tagmcabs}{132}{tagmcid}{10}}
\newlabeldata{l3pdf112}{{abspage}{11}}
\newlabeldata{mcid-133}{{tagabspage}{11}{tagmcabs}{133}{tagmcid}{11}}
\newlabeldata{l3pdf113}{{abspage}{11}}
\newlabeldata{mcid-134}{{tagabspage}{11}{tagmcabs}{134}{tagmcid}{12}}
\newlabeldata{l3pdf114}{{abspage}{11}}
\newlabeldata{mcid-135}{{tagabspage}{11}{tagmcabs}{135}{tagmcid}{13}}
\newlabeldata{l3pdf115}{{abspage}{11}}
\newlabeldata{mcid-136}{{tagabspage}{11}{tagmcabs}{136}{tagmcid}{14}}
\newlabeldata{l3pdf116}{{abspage}{11}}
\newlabeldata{mcid-137}{{tagabspage}{11}{tagmcabs}{137}{tagmcid}{15}}
\newlabeldata{l3pdf117}{{abspage}{11}}
\newlabeldata{mcid-138}{{tagabspage}{11}{tagmcabs}{138}{tagmcid}{16}}
\newlabeldata{l3pdf118}{{abspage}{11}}
\newlabeldata{mcid-139}{{tagabspage}{11}{tagmcabs}{139}{tagmcid}{17}}
\newlabeldata{l3pdf119}{{abspage}{11}}
\newlabeldata{mcid-140}{{tagabspage}{11}{tagmcabs}{140}{tagmcid}{18}}
\newlabeldata{l3pdf120}{{abspage}{11}}
\newlabeldata{mcid-141}{{tagabspage}{11}{tagmcabs}{141}{tagmcid}{19}}
\newlabeldata{l3pdf121}{{abspage}{11}}
\newlabeldata{mcid-142}{{tagabspage}{11}{tagmcabs}{142}{tagmcid}{20}}
\newlabeldata{l3pdf122}{{abspage}{11}}
\newlabeldata{mcid-143}{{tagabspage}{11}{tagmcabs}{143}{tagmcid}{21}}
\newlabeldata{l3pdf123}{{abspage}{11}}
\newlabeldata{mcid-144}{{tagabspage}{11}{tagmcabs}{144}{tagmcid}{22}}
\newlabeldata{l3pdf124}{{abspage}{11}}
\newlabeldata{mcid-145}{{tagabspage}{11}{tagmcabs}{145}{tagmcid}{23}}
\newlabeldata{l3pdf125}{{abspage}{11}}
\newlabeldata{mcid-146}{{tagabspage}{11}{tagmcabs}{146}{tagmcid}{24}}
\newlabeldata{l3pdf126}{{abspage}{11}}
\newlabeldata{mcid-147}{{tagabspage}{11}{tagmcabs}{147}{tagmcid}{25}}
\newlabeldata{l3pdf127}{{abspage}{11}}
\newlabeldata{mcid-148}{{tagabspage}{11}{tagmcabs}{148}{tagmcid}{26}}
\newlabeldata{l3pdf128}{{abspage}{11}}
\newlabeldata{mcid-149}{{tagabspage}{11}{tagmcabs}{149}{tagmcid}{27}}
\newlabeldata{l3pdf129}{{abspage}{11}}
\newlabeldata{mcid-150}{{tagabspage}{11}{tagmcabs}{150}{tagmcid}{28}}
\newlabeldata{l3pdf130}{{abspage}{11}}
\newlabeldata{mcid-151}{{tagabspage}{11}{tagmcabs}{151}{tagmcid}{29}}
\newlabeldata{l3pdf131}{{abspage}{11}}
\newlabeldata{mcid-152}{{tagabspage}{11}{tagmcabs}{152}{tagmcid}{30}}
\newlabeldata{l3pdf132}{{abspage}{11}}
\newlabeldata{mcid-153}{{tagabspage}{11}{tagmcabs}{153}{tagmcid}{31}}
\newlabeldata{l3pdf133}{{abspage}{11}}
\newlabeldata{mcid-154}{{tagabspage}{11}{tagmcabs}{154}{tagmcid}{32}}
\newlabeldata{l3pdf134}{{abspage}{11}}
\@writefile{nav}{\headcommand {\slideentry {4}{0}{2}{11/11}{}{0}}}
\@writefile{nav}{\headcommand {\beamer@framepages {11}{11}}}
\BKM@entry{id=5,open,dest={4F75746C696E65302E35},srcline={230}}{5C3337365C3337375C303030535C3030306F5C303030755C303030725C303030635C303030655C3030305C3034305C303030465C303030695C3030306C5C303030655C303030735C3030305C3034305C3030305C3035305C3030302E5C303030635C303030705C303030705C3030305C303531}
\@writefile{toc}{\beamer@sectionintoc {5}{Source Files (.cpp)}{12}{0}{5}}
\@writefile{nav}{\headcommand {\beamer@sectionpages {10}{11}}}
\@writefile{nav}{\headcommand {\beamer@subsectionpages {10}{11}}}
\@writefile{nav}{\headcommand {\sectionentry {5}{Source Files (.cpp)}{12}{Source Files (.cpp)}{0}}}
\newlabeldata{mcid-192}{{tagabspage}{12}{tagmcabs}{192}{tagmcid}{18}}
\newlabeldata{l3pdf170}{{abspage}{12}}
\newlabeldata{mcid-193}{{tagabspage}{12}{tagmcabs}{193}{tagmcid}{19}}
\newlabeldata{l3pdf171}{{abspage}{12}}
\newlabeldata{mcid-159}{{tagabspage}{12}{tagmcabs}{159}{tagmcid}{0}}
\newlabeldata{l3pdf137}{{abspage}{12}}
\newlabeldata{mcid-160}{{tagabspage}{12}{tagmcabs}{160}{tagmcid}{1}}
\newlabeldata{l3pdf138}{{abspage}{12}}
\newlabeldata{mcid-161}{{tagabspage}{12}{tagmcabs}{161}{tagmcid}{2}}
\newlabeldata{l3pdf139}{{abspage}{12}}
\newlabeldata{mcid-162}{{tagabspage}{12}{tagmcabs}{162}{tagmcid}{3}}
\newlabeldata{l3pdf140}{{abspage}{12}}
\newlabeldata{mcid-163}{{tagabspage}{12}{tagmcabs}{163}{tagmcid}{4}}
\newlabeldata{l3pdf141}{{abspage}{12}}
\newlabeldata{mcid-164}{{tagabspage}{12}{tagmcabs}{164}{tagmcid}{5}}
\newlabeldata{l3pdf142}{{abspage}{12}}
\newlabeldata{mcid-165}{{tagabspage}{12}{tagmcabs}{165}{tagmcid}{6}}
\newlabeldata{l3pdf143}{{abspage}{12}}
\newlabeldata{mcid-166}{{tagabspage}{12}{tagmcabs}{166}{tagmcid}{7}}
\newlabeldata{l3pdf144}{{abspage}{12}}
\newlabeldata{mcid-167}{{tagabspage}{12}{tagmcabs}{167}{tagmcid}{8}}
\newlabeldata{l3pdf145}{{abspage}{12}}
\newlabeldata{mcid-168}{{tagabspage}{12}{tagmcabs}{168}{tagmcid}{9}}
\newlabeldata{l3pdf146}{{abspage}{12}}
\newlabeldata{mcid-169}{{tagabspage}{12}{tagmcabs}{169}{tagmcid}{10}}
\newlabeldata{l3pdf147}{{abspage}{12}}
\newlabeldata{mcid-170}{{tagabspage}{12}{tagmcabs}{170}{tagmcid}{11}}
\newlabeldata{l3pdf148}{{abspage}{12}}
\newlabeldata{mcid-171}{{tagabspage}{12}{tagmcabs}{171}{tagmcid}{12}}
\newlabeldata{l3pdf149}{{abspage}{12}}
\newlabeldata{mcid-172}{{tagabspage}{12}{tagmcabs}{172}{tagmcid}{13}}
\newlabeldata{l3pdf150}{{abspage}{12}}
\newlabeldata{mcid-173}{{tagabspage}{12}{tagmcabs}{173}{tagmcid}{14}}
\newlabeldata{l3pdf151}{{abspage}{12}}
\newlabeldata{mcid-174}{{tagabspage}{12}{tagmcabs}{174}{tagmcid}{15}}
\newlabeldata{l3pdf152}{{abspage}{12}}
\newlabeldata{mcid-175}{{tagabspage}{12}{tagmcabs}{175}{tagmcid}{16}}
\newlabeldata{l3pdf153}{{abspage}{12}}
\newlabeldata{mcid-176}{{tagabspage}{12}{tagmcabs}{176}{tagmcid}{17}}
\newlabeldata{l3pdf154}{{abspage}{12}}
\newlabeldata{mcid-177}{{tagabspage}{12}{tagmcabs}{177}{tagmcid}{18}}
\newlabeldata{l3pdf155}{{abspage}{12}}
\newlabeldata{mcid-178}{{tagabspage}{12}{tagmcabs}{178}{tagmcid}{19}}
\newlabeldata{l3pdf156}{{abspage}{12}}
\newlabeldata{mcid-179}{{tagabspage}{12}{tagmcabs}{179}{tagmcid}{20}}
\newlabeldata{l3pdf157}{{abspage}{12}}
\newlabeldata{mcid-180}{{tagabspage}{12}{tagmcabs}{180}{tagmcid}{21}}
\newlabeldata{l3pdf158}{{abspage}{12}}
\newlabeldata{mcid-181}{{tagabspage}{12}{tagmcabs}{181}{tagmcid}{22}}
\newlabeldata{l3pdf159}{{abspage}{12}}
\newlabeldata{mcid-182}{{tagabspage}{12}{tagmcabs}{182}{tagmcid}{23}}
\newlabeldata{l3pdf160}{{abspage}{12}}
\newlabeldata{mcid-183}{{tagabspage}{12}{tagmcabs}{183}{tagmcid}{24}}
\newlabeldata{l3pdf161}{{abspage}{12}}
\newlabeldata{mcid-184}{{tagabspage}{12}{tagmcabs}{184}{tagmcid}{25}}
\newlabeldata{l3pdf162}{{abspage}{12}}
\newlabeldata{mcid-185}{{tagabspage}{12}{tagmcabs}{185}{tagmcid}{26}}
\newlabeldata{l3pdf163}{{abspage}{12}}
\newlabeldata{mcid-186}{{tagabspage}{12}{tagmcabs}{186}{tagmcid}{27}}
\newlabeldata{l3pdf164}{{abspage}{12}}
\newlabeldata{mcid-187}{{tagabspage}{12}{tagmcabs}{187}{tagmcid}{28}}
\newlabeldata{l3pdf165}{{abspage}{12}}
\newlabeldata{mcid-188}{{tagabspage}{12}{tagmcabs}{188}{tagmcid}{29}}
\newlabeldata{l3pdf166}{{abspage}{12}}
\newlabeldata{mcid-189}{{tagabspage}{12}{tagmcabs}{189}{tagmcid}{30}}
\newlabeldata{l3pdf167}{{abspage}{12}}
\newlabeldata{mcid-190}{{tagabspage}{12}{tagmcabs}{190}{tagmcid}{31}}
\newlabeldata{l3pdf168}{{abspage}{12}}
\newlabeldata{mcid-191}{{tagabspage}{12}{tagmcabs}{191}{tagmcid}{32}}
\newlabeldata{l3pdf169}{{abspage}{12}}
\@writefile{nav}{\headcommand {\slideentry {5}{0}{1}{12/12}{}{0}}}
\@writefile{nav}{\headcommand {\beamer@framepages {12}{12}}}
\newlabeldata{mcid-230}{{tagabspage}{13}{tagmcabs}{230}{tagmcid}{20}}
\newlabeldata{l3pdf206}{{abspage}{13}}
\newlabeldata{mcid-231}{{tagabspage}{13}{tagmcabs}{231}{tagmcid}{21}}
\newlabeldata{l3pdf207}{{abspage}{13}}
\newlabeldata{mcid-196}{{tagabspage}{13}{tagmcabs}{196}{tagmcid}{0}}
\newlabeldata{l3pdf172}{{abspage}{13}}
\newlabeldata{mcid-197}{{tagabspage}{13}{tagmcabs}{197}{tagmcid}{1}}
\newlabeldata{l3pdf173}{{abspage}{13}}
\newlabeldata{mcid-198}{{tagabspage}{13}{tagmcabs}{198}{tagmcid}{2}}
\newlabeldata{l3pdf174}{{abspage}{13}}
\newlabeldata{mcid-199}{{tagabspage}{13}{tagmcabs}{199}{tagmcid}{3}}
\newlabeldata{l3pdf175}{{abspage}{13}}
\newlabeldata{mcid-200}{{tagabspage}{13}{tagmcabs}{200}{tagmcid}{4}}
\newlabeldata{l3pdf176}{{abspage}{13}}
\newlabeldata{mcid-201}{{tagabspage}{13}{tagmcabs}{201}{tagmcid}{5}}
\newlabeldata{l3pdf177}{{abspage}{13}}
\newlabeldata{mcid-202}{{tagabspage}{13}{tagmcabs}{202}{tagmcid}{6}}
\newlabeldata{l3pdf178}{{abspage}{13}}
\newlabeldata{mcid-203}{{tagabspage}{13}{tagmcabs}{203}{tagmcid}{7}}
\newlabeldata{l3pdf179}{{abspage}{13}}
\newlabeldata{mcid-204}{{tagabspage}{13}{tagmcabs}{204}{tagmcid}{8}}
\newlabeldata{l3pdf180}{{abspage}{13}}
\newlabeldata{mcid-205}{{tagabspage}{13}{tagmcabs}{205}{tagmcid}{9}}
\newlabeldata{l3pdf181}{{abspage}{13}}
\newlabeldata{mcid-206}{{tagabspage}{13}{tagmcabs}{206}{tagmcid}{10}}
\newlabeldata{l3pdf182}{{abspage}{13}}
\newlabeldata{mcid-207}{{tagabspage}{13}{tagmcabs}{207}{tagmcid}{11}}
\newlabeldata{l3pdf183}{{abspage}{13}}
\newlabeldata{mcid-208}{{tagabspage}{13}{tagmcabs}{208}{tagmcid}{12}}
\newlabeldata{l3pdf184}{{abspage}{13}}
\newlabeldata{mcid-209}{{tagabspage}{13}{tagmcabs}{209}{tagmcid}{13}}
\newlabeldata{l3pdf185}{{abspage}{13}}
\newlabeldata{mcid-210}{{tagabspage}{13}{tagmcabs}{210}{tagmcid}{14}}
\newlabeldata{l3pdf186}{{abspage}{13}}
\newlabeldata{mcid-211}{{tagabspage}{13}{tagmcabs}{211}{tagmcid}{15}}
\newlabeldata{l3pdf187}{{abspage}{13}}
\newlabeldata{mcid-212}{{tagabspage}{13}{tagmcabs}{212}{tagmcid}{16}}
\newlabeldata{l3pdf188}{{abspage}{13}}
\newlabeldata{mcid-213}{{tagabspage}{13}{tagmcabs}{213}{tagmcid}{17}}
\newlabeldata{l3pdf189}{{abspage}{13}}
\newlabeldata{mcid-214}{{tagabspage}{13}{tagmcabs}{214}{tagmcid}{18}}
\newlabeldata{l3pdf190}{{abspage}{13}}
\newlabeldata{mcid-215}{{tagabspage}{13}{tagmcabs}{215}{tagmcid}{19}}
\newlabeldata{l3pdf191}{{abspage}{13}}
\newlabeldata{mcid-216}{{tagabspage}{13}{tagmcabs}{216}{tagmcid}{20}}
\newlabeldata{l3pdf192}{{abspage}{13}}
\newlabeldata{mcid-217}{{tagabspage}{13}{tagmcabs}{217}{tagmcid}{21}}
\newlabeldata{l3pdf193}{{abspage}{13}}
\newlabeldata{mcid-218}{{tagabspage}{13}{tagmcabs}{218}{tagmcid}{22}}
\newlabeldata{l3pdf194}{{abspage}{13}}
\newlabeldata{mcid-219}{{tagabspage}{13}{tagmcabs}{219}{tagmcid}{23}}
\newlabeldata{l3pdf195}{{abspage}{13}}
\newlabeldata{mcid-220}{{tagabspage}{13}{tagmcabs}{220}{tagmcid}{24}}
\newlabeldata{l3pdf196}{{abspage}{13}}
\newlabeldata{mcid-221}{{tagabspage}{13}{tagmcabs}{221}{tagmcid}{25}}
\newlabeldata{l3pdf197}{{abspage}{13}}
\newlabeldata{mcid-222}{{tagabspage}{13}{tagmcabs}{222}{tagmcid}{26}}
\newlabeldata{l3pdf198}{{abspage}{13}}
\newlabeldata{mcid-223}{{tagabspage}{13}{tagmcabs}{223}{tagmcid}{27}}
\newlabeldata{l3pdf199}{{abspage}{13}}
\newlabeldata{mcid-224}{{tagabspage}{13}{tagmcabs}{224}{tagmcid}{28}}
\newlabeldata{l3pdf200}{{abspage}{13}}
\newlabeldata{mcid-225}{{tagabspage}{13}{tagmcabs}{225}{tagmcid}{29}}
\newlabeldata{l3pdf201}{{abspage}{13}}
\newlabeldata{mcid-226}{{tagabspage}{13}{tagmcabs}{226}{tagmcid}{30}}
\newlabeldata{l3pdf202}{{abspage}{13}}
\newlabeldata{mcid-227}{{tagabspage}{13}{tagmcabs}{227}{tagmcid}{31}}
\newlabeldata{l3pdf203}{{abspage}{13}}
\newlabeldata{mcid-228}{{tagabspage}{13}{tagmcabs}{228}{tagmcid}{32}}
\newlabeldata{l3pdf204}{{abspage}{13}}
\newlabeldata{mcid-229}{{tagabspage}{13}{tagmcabs}{229}{tagmcid}{33}}
\newlabeldata{l3pdf205}{{abspage}{13}}
\@writefile{nav}{\headcommand {\slideentry {5}{0}{2}{13/13}{}{0}}}
\@writefile{nav}{\headcommand {\beamer@framepages {13}{13}}}
\BKM@entry{id=6,open,dest={4F75746C696E65302E36},srcline={313}}{5C3337365C3337375C3030304D5C303030615C3030306B5C303030655C303030665C303030695C3030306C5C303030655C30303073}
\@writefile{toc}{\beamer@sectionintoc {6}{Makefiles}{14}{0}{6}}
\@writefile{nav}{\headcommand {\beamer@sectionpages {12}{13}}}
\@writefile{nav}{\headcommand {\beamer@subsectionpages {12}{13}}}
\@writefile{nav}{\headcommand {\sectionentry {6}{Makefiles}{14}{Makefiles}{0}}}
\newlabeldata{mcid-266}{{tagabspage}{14}{tagmcabs}{266}{tagmcid}{22}}
\newlabeldata{l3pdf240}{{abspage}{14}}
\newlabeldata{mcid-267}{{tagabspage}{14}{tagmcabs}{267}{tagmcid}{23}}
\newlabeldata{l3pdf241}{{abspage}{14}}
\newlabeldata{mcid-234}{{tagabspage}{14}{tagmcabs}{234}{tagmcid}{0}}
\newlabeldata{l3pdf208}{{abspage}{14}}
\newlabeldata{mcid-235}{{tagabspage}{14}{tagmcabs}{235}{tagmcid}{1}}
\newlabeldata{l3pdf209}{{abspage}{14}}
\newlabeldata{mcid-236}{{tagabspage}{14}{tagmcabs}{236}{tagmcid}{2}}
\newlabeldata{l3pdf210}{{abspage}{14}}
\newlabeldata{mcid-237}{{tagabspage}{14}{tagmcabs}{237}{tagmcid}{3}}
\newlabeldata{l3pdf211}{{abspage}{14}}
\newlabeldata{mcid-238}{{tagabspage}{14}{tagmcabs}{238}{tagmcid}{4}}
\newlabeldata{l3pdf212}{{abspage}{14}}
\newlabeldata{mcid-239}{{tagabspage}{14}{tagmcabs}{239}{tagmcid}{5}}
\newlabeldata{l3pdf213}{{abspage}{14}}
\newlabeldata{mcid-240}{{tagabspage}{14}{tagmcabs}{240}{tagmcid}{6}}
\newlabeldata{l3pdf214}{{abspage}{14}}
\newlabeldata{mcid-241}{{tagabspage}{14}{tagmcabs}{241}{tagmcid}{7}}
\newlabeldata{l3pdf215}{{abspage}{14}}
\newlabeldata{mcid-242}{{tagabspage}{14}{tagmcabs}{242}{tagmcid}{8}}
\newlabeldata{l3pdf216}{{abspage}{14}}
\newlabeldata{mcid-243}{{tagabspage}{14}{tagmcabs}{243}{tagmcid}{9}}
\newlabeldata{l3pdf217}{{abspage}{14}}
\newlabeldata{mcid-244}{{tagabspage}{14}{tagmcabs}{244}{tagmcid}{10}}
\newlabeldata{l3pdf218}{{abspage}{14}}
\newlabeldata{mcid-245}{{tagabspage}{14}{tagmcabs}{245}{tagmcid}{11}}
\newlabeldata{l3pdf219}{{abspage}{14}}
\newlabeldata{mcid-246}{{tagabspage}{14}{tagmcabs}{246}{tagmcid}{12}}
\newlabeldata{l3pdf220}{{abspage}{14}}
\newlabeldata{mcid-247}{{tagabspage}{14}{tagmcabs}{247}{tagmcid}{13}}
\newlabeldata{l3pdf221}{{abspage}{14}}
\newlabeldata{mcid-248}{{tagabspage}{14}{tagmcabs}{248}{tagmcid}{14}}
\newlabeldata{l3pdf222}{{abspage}{14}}
\newlabeldata{mcid-249}{{tagabspage}{14}{tagmcabs}{249}{tagmcid}{15}}
\newlabeldata{l3pdf223}{{abspage}{14}}
\newlabeldata{mcid-250}{{tagabspage}{14}{tagmcabs}{250}{tagmcid}{16}}
\newlabeldata{l3pdf224}{{abspage}{14}}
\newlabeldata{mcid-251}{{tagabspage}{14}{tagmcabs}{251}{tagmcid}{17}}
\newlabeldata{l3pdf225}{{abspage}{14}}
\newlabeldata{mcid-252}{{tagabspage}{14}{tagmcabs}{252}{tagmcid}{18}}
\newlabeldata{l3pdf226}{{abspage}{14}}
\newlabeldata{mcid-253}{{tagabspage}{14}{tagmcabs}{253}{tagmcid}{19}}
\newlabeldata{l3pdf227}{{abspage}{14}}
\newlabeldata{mcid-254}{{tagabspage}{14}{tagmcabs}{254}{tagmcid}{20}}
\newlabeldata{l3pdf228}{{abspage}{14}}
\newlabeldata{mcid-255}{{tagabspage}{14}{tagmcabs}{255}{tagmcid}{21}}
\newlabeldata{l3pdf229}{{abspage}{14}}
\newlabeldata{mcid-256}{{tagabspage}{14}{tagmcabs}{256}{tagmcid}{22}}
\newlabeldata{l3pdf230}{{abspage}{14}}
\newlabeldata{mcid-257}{{tagabspage}{14}{tagmcabs}{257}{tagmcid}{23}}
\newlabeldata{l3pdf231}{{abspage}{14}}
\newlabeldata{mcid-258}{{tagabspage}{14}{tagmcabs}{258}{tagmcid}{24}}
\newlabeldata{l3pdf232}{{abspage}{14}}
\newlabeldata{mcid-259}{{tagabspage}{14}{tagmcabs}{259}{tagmcid}{25}}
\newlabeldata{l3pdf233}{{abspage}{14}}
\newlabeldata{mcid-260}{{tagabspage}{14}{tagmcabs}{260}{tagmcid}{26}}
\newlabeldata{l3pdf234}{{abspage}{14}}
\newlabeldata{mcid-261}{{tagabspage}{14}{tagmcabs}{261}{tagmcid}{27}}
\newlabeldata{l3pdf235}{{abspage}{14}}
\newlabeldata{mcid-262}{{tagabspage}{14}{tagmcabs}{262}{tagmcid}{28}}
\newlabeldata{l3pdf236}{{abspage}{14}}
\newlabeldata{mcid-263}{{tagabspage}{14}{tagmcabs}{263}{tagmcid}{29}}
\newlabeldata{l3pdf237}{{abspage}{14}}
\newlabeldata{mcid-264}{{tagabspage}{14}{tagmcabs}{264}{tagmcid}{30}}
\newlabeldata{l3pdf238}{{abspage}{14}}
\newlabeldata{mcid-265}{{tagabspage}{14}{tagmcabs}{265}{tagmcid}{31}}
\newlabeldata{l3pdf239}{{abspage}{14}}
\@writefile{nav}{\headcommand {\slideentry {6}{0}{1}{14/14}{}{0}}}
\@writefile{nav}{\headcommand {\beamer@framepages {14}{14}}}
\@writefile{nav}{\headcommand {\beamer@partpages {1}{14}}}
\@writefile{nav}{\headcommand {\beamer@subsectionpages {14}{14}}}
\@writefile{nav}{\headcommand {\beamer@sectionpages {14}{14}}}
\@writefile{nav}{\headcommand {\beamer@documentpages {14}}}
\@writefile{nav}{\headcommand {\gdef \inserttotalframenumber {14}}}
\gdef\minted@oldcachelist{,
  default.pygstyle,
  4A044BF7CD961A90AB00038C739CF89E4006C4CAA34444B49D95EBC908DECEAB.pygtex,
  AB77B1A08325F954E3FC794D366367134006C4CAA34444B49D95EBC908DECEAB.pygtex,
  0F42531FB971D6322099E47DD29CE8FF4006C4CAA34444B49D95EBC908DECEAB.pygtex,
  404E97B8914CBE42B4B8D0C3C9F888D74006C4CAA34444B49D95EBC908DECEAB.pygtex,
  D8BB27016AE024352F9939C98F2469AEEFD443B3684D92636F934AF381EDC117.pygtex}
\newlabeldata{__tag_LastPage}{{abspage}{14}{tagmcabs}{269}}
\gdef\svg@ink@ver@settings{{\m@ne }{inkscape}{1}}
\gdef \@abspage@last{14}
