\headcommand {\slideentry {0}{0}{1}{1/1}{}{0}}
\headcommand {\beamer@framepages {1}{1}}
\headcommand {\slideentry {0}{0}{2}{2/2}{}{0}}
\headcommand {\beamer@framepages {2}{2}}
\headcommand {\beamer@sectionpages {1}{2}}
\headcommand {\beamer@subsectionpages {1}{2}}
\headcommand {\sectionentry {1}{Preface}{3}{Preface}{0}}
\headcommand {\slideentry {1}{0}{1}{3/3}{}{0}}
\headcommand {\beamer@framepages {3}{3}}
\headcommand {\beamer@sectionpages {3}{3}}
\headcommand {\beamer@subsectionpages {3}{3}}
\headcommand {\sectionentry {2}{Summary - Rules without Automation}{4}{Summary - Rules without Automation}{0}}
\headcommand {\slideentry {2}{0}{1}{4/4}{}{0}}
\headcommand {\beamer@framepages {4}{4}}
\headcommand {\beamer@sectionpages {4}{4}}
\headcommand {\beamer@subsectionpages {4}{4}}
\headcommand {\sectionentry {3}{Summary - Rules with Automation}{5}{Summary - Rules with Automation}{0}}
\headcommand {\slideentry {3}{0}{1}{5/5}{}{0}}
\headcommand {\beamer@framepages {5}{5}}
\headcommand {\beamer@sectionpages {5}{5}}
\headcommand {\beamer@subsectionpages {5}{5}}
\headcommand {\sectionentry {4}{Language Restrictions}{6}{Language Restrictions}{0}}
\headcommand {\beamer@subsectionpages {6}{5}}
\headcommand {\beamer@subsectionentry {0}{4}{1}{6}{nullptr}}
\headcommand {\slideentry {4}{1}{1}{6/6}{nullptr}{0}}
\headcommand {\beamer@framepages {6}{6}}
\headcommand {\beamer@subsectionpages {6}{6}}
\headcommand {\beamer@subsectionentry {0}{4}{2}{7}{Global Variables}}
\headcommand {\slideentry {4}{2}{1}{7/7}{Global Variables}{0}}
\headcommand {\beamer@framepages {7}{7}}
\headcommand {\beamer@subsectionpages {7}{7}}
\headcommand {\beamer@subsectionentry {0}{4}{3}{8}{auto}}
\headcommand {\slideentry {4}{3}{1}{8/8}{auto}{0}}
\headcommand {\beamer@framepages {8}{8}}
\headcommand {\beamer@subsectionpages {8}{8}}
\headcommand {\beamer@subsectionentry {0}{4}{4}{9}{goto}}
\headcommand {\slideentry {4}{4}{1}{9/9}{goto}{0}}
\headcommand {\beamer@framepages {9}{9}}
\headcommand {\beamer@sectionpages {6}{9}}
\headcommand {\beamer@subsectionpages {9}{9}}
\headcommand {\sectionentry {5}{Library Restrictions}{10}{Library Restrictions}{0}}
\headcommand {\slideentry {5}{0}{1}{10/10}{}{0}}
\headcommand {\beamer@framepages {10}{10}}
\headcommand {\beamer@sectionpages {10}{10}}
\headcommand {\beamer@subsectionpages {10}{10}}
\headcommand {\sectionentry {6}{Documentation Before Each Function}{11}{Documentation Before Each Function}{0}}
\headcommand {\slideentry {6}{0}{1}{11/11}{}{0}}
\headcommand {\beamer@framepages {11}{11}}
\headcommand {\beamer@sectionpages {11}{11}}
\headcommand {\beamer@subsectionpages {11}{11}}
\headcommand {\sectionentry {7}{General Documentation}{12}{General Documentation}{0}}
\headcommand {\beamer@subsectionpages {12}{11}}
\headcommand {\beamer@subsectionentry {0}{7}{1}{12}{Comments at the Top of Files}}
\headcommand {\slideentry {7}{1}{1}{12/12}{Comments at the Top of Files}{0}}
\headcommand {\beamer@framepages {12}{12}}
\headcommand {\beamer@subsectionpages {12}{12}}
\headcommand {\beamer@subsectionentry {0}{7}{2}{13}{Naming Variables, Functions and Types}}
\headcommand {\slideentry {7}{2}{1}{13/13}{Naming Variables, Functions and Types}{0}}
\headcommand {\beamer@framepages {13}{13}}
\headcommand {\slideentry {7}{2}{2}{14/14}{Naming Variables, Functions and Types}{0}}
\headcommand {\beamer@framepages {14}{14}}
\headcommand {\slideentry {7}{2}{3}{15/15}{Naming Variables, Functions and Types}{0}}
\headcommand {\beamer@framepages {15}{15}}
\headcommand {\beamer@subsectionpages {13}{15}}
\headcommand {\beamer@subsectionentry {0}{7}{3}{16}{Commenting Regions of Related Code}}
\headcommand {\slideentry {7}{3}{1}{16/16}{Commenting Regions of Related Code}{0}}
\headcommand {\beamer@framepages {16}{16}}
\headcommand {\beamer@sectionpages {12}{16}}
\headcommand {\beamer@subsectionpages {16}{16}}
\headcommand {\sectionentry {8}{Formatting}{17}{Formatting}{0}}
\headcommand {\beamer@subsectionpages {17}{16}}
\headcommand {\beamer@subsectionentry {0}{8}{1}{17}{120 character-per-line limit}}
\headcommand {\slideentry {8}{1}{1}{17/17}{120 character-per-line limit}{0}}
\headcommand {\beamer@framepages {17}{17}}
\headcommand {\slideentry {8}{1}{2}{18/18}{120 character-per-line limit}{0}}
\headcommand {\beamer@framepages {18}{18}}
\headcommand {\beamer@subsectionpages {17}{18}}
\headcommand {\beamer@subsectionentry {0}{8}{2}{19}{Brace Placement for Non-Control Structures}}
\headcommand {\slideentry {8}{2}{1}{19/19}{Brace Placement for Non-Control Structures}{0}}
\headcommand {\beamer@framepages {19}{19}}
\headcommand {\beamer@subsectionpages {19}{19}}
\headcommand {\beamer@subsectionentry {0}{8}{3}{20}{Brace Placement for Control Structures}}
\headcommand {\slideentry {8}{3}{1}{20/20}{Brace Placement for Control Structures}{0}}
\headcommand {\beamer@framepages {20}{20}}
\headcommand {\beamer@subsectionpages {20}{20}}
\headcommand {\beamer@subsectionentry {0}{8}{4}{21}{Indentation}}
\headcommand {\slideentry {8}{4}{1}{21/21}{Indentation}{0}}
\headcommand {\beamer@framepages {21}{21}}
\headcommand {\beamer@subsectionpages {21}{21}}
\headcommand {\beamer@subsectionentry {0}{8}{5}{22}{Identifiers}}
\headcommand {\slideentry {8}{5}{1}{22/22}{Identifiers}{0}}
\headcommand {\beamer@framepages {22}{22}}
\headcommand {\beamer@sectionpages {17}{22}}
\headcommand {\beamer@subsectionpages {22}{22}}
\headcommand {\sectionentry {9}{Placement}{23}{Placement}{0}}
\headcommand {\beamer@subsectionpages {23}{22}}
\headcommand {\beamer@subsectionentry {0}{9}{1}{23}{Statements and Conditions}}
\headcommand {\slideentry {9}{1}{1}{23/23}{Statements and Conditions}{0}}
\headcommand {\beamer@framepages {23}{23}}
\headcommand {\beamer@subsectionpages {23}{23}}
\headcommand {\beamer@subsectionentry {0}{9}{2}{24}{Prototype Grouping}}
\headcommand {\slideentry {9}{2}{1}{24/24}{Prototype Grouping}{0}}
\headcommand {\beamer@framepages {24}{24}}
\headcommand {\beamer@subsectionpages {24}{24}}
\headcommand {\beamer@subsectionentry {0}{9}{3}{25}{Grouping Related Code}}
\headcommand {\slideentry {9}{3}{1}{25/25}{Grouping Related Code}{0}}
\headcommand {\beamer@framepages {25}{25}}
\headcommand {\beamer@sectionpages {23}{25}}
\headcommand {\beamer@subsectionpages {25}{25}}
\headcommand {\sectionentry {10}{Code Structure}{26}{Code Structure}{0}}
\headcommand {\beamer@subsectionpages {26}{25}}
\headcommand {\beamer@subsectionentry {0}{10}{1}{26}{Functional Decomposition}}
\headcommand {\slideentry {10}{1}{1}{26/26}{Functional Decomposition}{0}}
\headcommand {\beamer@framepages {26}{26}}
\headcommand {\beamer@subsectionpages {26}{26}}
\headcommand {\beamer@subsectionentry {0}{10}{2}{27}{Code Clarity}}
\headcommand {\slideentry {10}{2}{1}{27/27}{Code Clarity}{0}}
\headcommand {\beamer@framepages {27}{27}}
\headcommand {\beamer@partpages {1}{27}}
\headcommand {\beamer@subsectionpages {27}{27}}
\headcommand {\beamer@sectionpages {26}{27}}
\headcommand {\beamer@documentpages {27}}
\headcommand {\gdef \inserttotalframenumber {27}}
