\relax 
\providecommand\hyper@newdestlabel[2]{}
\providecommand\HyperFirstAtBeginDocument{\AtBeginDocument}
\HyperFirstAtBeginDocument{\ifx\hyper@anchor\@undefined
\global\let\oldcontentsline\contentsline
\gdef\contentsline#1#2#3#4{\oldcontentsline{#1}{#2}{#3}}
\global\let\oldnewlabel\newlabel
\gdef\newlabel#1#2{\newlabelxx{#1}#2}
\gdef\newlabelxx#1#2#3#4#5#6{\oldnewlabel{#1}{{#2}{#3}}}
\AtEndDocument{\ifx\hyper@anchor\@undefined
\let\contentsline\oldcontentsline
\let\newlabel\oldnewlabel
\fi}
\fi}
\global\let\hyper@last\relax 
\gdef\HyperFirstAtBeginDocument#1{#1}
\providecommand\HyField@AuxAddToFields[1]{}
\providecommand\HyField@AuxAddToCoFields[2]{}
\providecommand\BKM@entry[2]{}
\newlabeldata{mcid-1}{{tagabspage}{1}{tagmcabs}{1}{tagmcid}{0}}
\newlabeldata{l3pdf1}{{abspage}{1}}
\@writefile{nav}{\headcommand {\slideentry {0}{0}{1}{1/1}{}{0}}}
\@writefile{nav}{\headcommand {\beamer@framepages {1}{1}}}
\newlabeldata{mcid-31}{{tagabspage}{2}{tagmcabs}{31}{tagmcid}{27}}
\newlabeldata{l3pdf29}{{abspage}{2}}
\newlabeldata{mcid-4}{{tagabspage}{2}{tagmcabs}{4}{tagmcid}{0}}
\newlabeldata{l3pdf2}{{abspage}{2}}
\newlabeldata{mcid-5}{{tagabspage}{2}{tagmcabs}{5}{tagmcid}{1}}
\newlabeldata{l3pdf3}{{abspage}{2}}
\newlabeldata{mcid-6}{{tagabspage}{2}{tagmcabs}{6}{tagmcid}{2}}
\newlabeldata{l3pdf4}{{abspage}{2}}
\newlabeldata{mcid-7}{{tagabspage}{2}{tagmcabs}{7}{tagmcid}{3}}
\newlabeldata{l3pdf5}{{abspage}{2}}
\newlabeldata{mcid-8}{{tagabspage}{2}{tagmcabs}{8}{tagmcid}{4}}
\newlabeldata{l3pdf6}{{abspage}{2}}
\newlabeldata{mcid-9}{{tagabspage}{2}{tagmcabs}{9}{tagmcid}{5}}
\newlabeldata{l3pdf7}{{abspage}{2}}
\newlabeldata{mcid-10}{{tagabspage}{2}{tagmcabs}{10}{tagmcid}{6}}
\newlabeldata{l3pdf8}{{abspage}{2}}
\newlabeldata{mcid-11}{{tagabspage}{2}{tagmcabs}{11}{tagmcid}{7}}
\newlabeldata{l3pdf9}{{abspage}{2}}
\newlabeldata{mcid-12}{{tagabspage}{2}{tagmcabs}{12}{tagmcid}{8}}
\newlabeldata{l3pdf10}{{abspage}{2}}
\newlabeldata{mcid-13}{{tagabspage}{2}{tagmcabs}{13}{tagmcid}{9}}
\newlabeldata{l3pdf11}{{abspage}{2}}
\newlabeldata{mcid-14}{{tagabspage}{2}{tagmcabs}{14}{tagmcid}{10}}
\newlabeldata{l3pdf12}{{abspage}{2}}
\newlabeldata{mcid-15}{{tagabspage}{2}{tagmcabs}{15}{tagmcid}{11}}
\newlabeldata{l3pdf13}{{abspage}{2}}
\newlabeldata{mcid-16}{{tagabspage}{2}{tagmcabs}{16}{tagmcid}{12}}
\newlabeldata{l3pdf14}{{abspage}{2}}
\newlabeldata{mcid-17}{{tagabspage}{2}{tagmcabs}{17}{tagmcid}{13}}
\newlabeldata{l3pdf15}{{abspage}{2}}
\newlabeldata{mcid-18}{{tagabspage}{2}{tagmcabs}{18}{tagmcid}{14}}
\newlabeldata{l3pdf16}{{abspage}{2}}
\newlabeldata{mcid-19}{{tagabspage}{2}{tagmcabs}{19}{tagmcid}{15}}
\newlabeldata{l3pdf17}{{abspage}{2}}
\newlabeldata{mcid-20}{{tagabspage}{2}{tagmcabs}{20}{tagmcid}{16}}
\newlabeldata{l3pdf18}{{abspage}{2}}
\newlabeldata{mcid-21}{{tagabspage}{2}{tagmcabs}{21}{tagmcid}{17}}
\newlabeldata{l3pdf19}{{abspage}{2}}
\newlabeldata{mcid-22}{{tagabspage}{2}{tagmcabs}{22}{tagmcid}{18}}
\newlabeldata{l3pdf20}{{abspage}{2}}
\newlabeldata{mcid-23}{{tagabspage}{2}{tagmcabs}{23}{tagmcid}{19}}
\newlabeldata{l3pdf21}{{abspage}{2}}
\newlabeldata{mcid-24}{{tagabspage}{2}{tagmcabs}{24}{tagmcid}{20}}
\newlabeldata{l3pdf22}{{abspage}{2}}
\newlabeldata{mcid-25}{{tagabspage}{2}{tagmcabs}{25}{tagmcid}{21}}
\newlabeldata{l3pdf23}{{abspage}{2}}
\newlabeldata{mcid-26}{{tagabspage}{2}{tagmcabs}{26}{tagmcid}{22}}
\newlabeldata{l3pdf24}{{abspage}{2}}
\newlabeldata{mcid-27}{{tagabspage}{2}{tagmcabs}{27}{tagmcid}{23}}
\newlabeldata{l3pdf25}{{abspage}{2}}
\newlabeldata{mcid-28}{{tagabspage}{2}{tagmcabs}{28}{tagmcid}{24}}
\newlabeldata{l3pdf26}{{abspage}{2}}
\newlabeldata{mcid-29}{{tagabspage}{2}{tagmcabs}{29}{tagmcid}{25}}
\newlabeldata{l3pdf27}{{abspage}{2}}
\newlabeldata{mcid-30}{{tagabspage}{2}{tagmcabs}{30}{tagmcid}{26}}
\newlabeldata{l3pdf28}{{abspage}{2}}
\@writefile{nav}{\headcommand {\slideentry {0}{0}{2}{2/2}{}{0}}}
\@writefile{nav}{\headcommand {\beamer@framepages {2}{2}}}
\BKM@entry{id=1,open,dest={4F75746C696E65302E31},srcline={86}}{5C3337365C3337375C303030505C303030725C303030655C303030665C303030615C303030635C30303065}
\@writefile{toc}{\beamer@sectionintoc {1}{Preface}{3}{0}{1}}
\@writefile{nav}{\headcommand {\beamer@sectionpages {1}{2}}}
\@writefile{nav}{\headcommand {\beamer@subsectionpages {1}{2}}}
\@writefile{nav}{\headcommand {\sectionentry {1}{Preface}{3}{Preface}{0}}}
\newlabeldata{mcid-36}{{tagabspage}{3}{tagmcabs}{36}{tagmcid}{2}}
\newlabeldata{l3pdf32}{{abspage}{3}}
\newlabeldata{mcid-34}{{tagabspage}{3}{tagmcabs}{34}{tagmcid}{0}}
\newlabeldata{l3pdf30}{{abspage}{3}}
\newlabeldata{mcid-35}{{tagabspage}{3}{tagmcabs}{35}{tagmcid}{1}}
\newlabeldata{l3pdf31}{{abspage}{3}}
\@writefile{nav}{\headcommand {\slideentry {1}{0}{1}{3/3}{}{0}}}
\@writefile{nav}{\headcommand {\beamer@framepages {3}{3}}}
\BKM@entry{id=2,open,dest={4F75746C696E65302E32},srcline={116}}{5C3337365C3337375C303030535C303030755C3030306D5C3030306D5C303030615C303030725C303030795C3030305C3034305C3030302D5C3030305C3034305C303030525C303030755C3030306C5C303030655C303030735C3030305C3034305C303030775C303030695C303030745C303030685C3030306F5C303030755C303030745C3030305C3034305C303030415C303030755C303030745C3030306F5C3030306D5C303030615C303030745C303030695C3030306F5C3030306E}
\@writefile{toc}{\beamer@sectionintoc {2}{Summary - Rules without Automation}{4}{0}{2}}
\@writefile{nav}{\headcommand {\beamer@sectionpages {3}{3}}}
\@writefile{nav}{\headcommand {\beamer@subsectionpages {3}{3}}}
\@writefile{nav}{\headcommand {\sectionentry {2}{Summary - Rules without Automation}{4}{Summary - Rules without Automation}{0}}}
\newlabeldata{mcid-77}{{tagabspage}{4}{tagmcabs}{77}{tagmcid}{38}}
\newlabeldata{l3pdf71}{{abspage}{4}}
\newlabeldata{mcid-39}{{tagabspage}{4}{tagmcabs}{39}{tagmcid}{0}}
\newlabeldata{l3pdf33}{{abspage}{4}}
\newlabeldata{mcid-40}{{tagabspage}{4}{tagmcabs}{40}{tagmcid}{1}}
\newlabeldata{l3pdf34}{{abspage}{4}}
\newlabeldata{mcid-41}{{tagabspage}{4}{tagmcabs}{41}{tagmcid}{2}}
\newlabeldata{l3pdf35}{{abspage}{4}}
\newlabeldata{mcid-43}{{tagabspage}{4}{tagmcabs}{43}{tagmcid}{4}}
\newlabeldata{l3pdf37}{{abspage}{4}}
\newlabeldata{mcid-42}{{tagabspage}{4}{tagmcabs}{42}{tagmcid}{3}}
\newlabeldata{l3pdf36}{{abspage}{4}}
\newlabeldata{mcid-44}{{tagabspage}{4}{tagmcabs}{44}{tagmcid}{5}}
\newlabeldata{l3pdf38}{{abspage}{4}}
\newlabeldata{mcid-45}{{tagabspage}{4}{tagmcabs}{45}{tagmcid}{6}}
\newlabeldata{l3pdf39}{{abspage}{4}}
\newlabeldata{mcid-46}{{tagabspage}{4}{tagmcabs}{46}{tagmcid}{7}}
\newlabeldata{l3pdf40}{{abspage}{4}}
\newlabeldata{mcid-48}{{tagabspage}{4}{tagmcabs}{48}{tagmcid}{9}}
\newlabeldata{l3pdf42}{{abspage}{4}}
\newlabeldata{mcid-47}{{tagabspage}{4}{tagmcabs}{47}{tagmcid}{8}}
\newlabeldata{l3pdf41}{{abspage}{4}}
\newlabeldata{mcid-50}{{tagabspage}{4}{tagmcabs}{50}{tagmcid}{11}}
\newlabeldata{l3pdf44}{{abspage}{4}}
\newlabeldata{mcid-49}{{tagabspage}{4}{tagmcabs}{49}{tagmcid}{10}}
\newlabeldata{l3pdf43}{{abspage}{4}}
\newlabeldata{mcid-51}{{tagabspage}{4}{tagmcabs}{51}{tagmcid}{12}}
\newlabeldata{l3pdf45}{{abspage}{4}}
\newlabeldata{mcid-52}{{tagabspage}{4}{tagmcabs}{52}{tagmcid}{13}}
\newlabeldata{l3pdf46}{{abspage}{4}}
\newlabeldata{mcid-53}{{tagabspage}{4}{tagmcabs}{53}{tagmcid}{14}}
\newlabeldata{l3pdf47}{{abspage}{4}}
\newlabeldata{mcid-54}{{tagabspage}{4}{tagmcabs}{54}{tagmcid}{15}}
\newlabeldata{l3pdf48}{{abspage}{4}}
\newlabeldata{mcid-55}{{tagabspage}{4}{tagmcabs}{55}{tagmcid}{16}}
\newlabeldata{l3pdf49}{{abspage}{4}}
\newlabeldata{mcid-56}{{tagabspage}{4}{tagmcabs}{56}{tagmcid}{17}}
\newlabeldata{l3pdf50}{{abspage}{4}}
\newlabeldata{mcid-57}{{tagabspage}{4}{tagmcabs}{57}{tagmcid}{18}}
\newlabeldata{l3pdf51}{{abspage}{4}}
\newlabeldata{mcid-58}{{tagabspage}{4}{tagmcabs}{58}{tagmcid}{19}}
\newlabeldata{l3pdf52}{{abspage}{4}}
\newlabeldata{mcid-59}{{tagabspage}{4}{tagmcabs}{59}{tagmcid}{20}}
\newlabeldata{l3pdf53}{{abspage}{4}}
\newlabeldata{mcid-60}{{tagabspage}{4}{tagmcabs}{60}{tagmcid}{21}}
\newlabeldata{l3pdf54}{{abspage}{4}}
\newlabeldata{mcid-61}{{tagabspage}{4}{tagmcabs}{61}{tagmcid}{22}}
\newlabeldata{l3pdf55}{{abspage}{4}}
\newlabeldata{mcid-62}{{tagabspage}{4}{tagmcabs}{62}{tagmcid}{23}}
\newlabeldata{l3pdf56}{{abspage}{4}}
\newlabeldata{mcid-63}{{tagabspage}{4}{tagmcabs}{63}{tagmcid}{24}}
\newlabeldata{l3pdf57}{{abspage}{4}}
\newlabeldata{mcid-64}{{tagabspage}{4}{tagmcabs}{64}{tagmcid}{25}}
\newlabeldata{l3pdf58}{{abspage}{4}}
\newlabeldata{mcid-65}{{tagabspage}{4}{tagmcabs}{65}{tagmcid}{26}}
\newlabeldata{l3pdf59}{{abspage}{4}}
\newlabeldata{mcid-66}{{tagabspage}{4}{tagmcabs}{66}{tagmcid}{27}}
\newlabeldata{l3pdf60}{{abspage}{4}}
\newlabeldata{mcid-67}{{tagabspage}{4}{tagmcabs}{67}{tagmcid}{28}}
\newlabeldata{l3pdf61}{{abspage}{4}}
\newlabeldata{mcid-68}{{tagabspage}{4}{tagmcabs}{68}{tagmcid}{29}}
\newlabeldata{l3pdf62}{{abspage}{4}}
\newlabeldata{mcid-69}{{tagabspage}{4}{tagmcabs}{69}{tagmcid}{30}}
\newlabeldata{l3pdf63}{{abspage}{4}}
\newlabeldata{mcid-71}{{tagabspage}{4}{tagmcabs}{71}{tagmcid}{32}}
\newlabeldata{l3pdf65}{{abspage}{4}}
\newlabeldata{mcid-70}{{tagabspage}{4}{tagmcabs}{70}{tagmcid}{31}}
\newlabeldata{l3pdf64}{{abspage}{4}}
\newlabeldata{mcid-72}{{tagabspage}{4}{tagmcabs}{72}{tagmcid}{33}}
\newlabeldata{l3pdf66}{{abspage}{4}}
\newlabeldata{mcid-73}{{tagabspage}{4}{tagmcabs}{73}{tagmcid}{34}}
\newlabeldata{l3pdf67}{{abspage}{4}}
\newlabeldata{mcid-74}{{tagabspage}{4}{tagmcabs}{74}{tagmcid}{35}}
\newlabeldata{l3pdf68}{{abspage}{4}}
\newlabeldata{mcid-75}{{tagabspage}{4}{tagmcabs}{75}{tagmcid}{36}}
\newlabeldata{l3pdf69}{{abspage}{4}}
\newlabeldata{mcid-76}{{tagabspage}{4}{tagmcabs}{76}{tagmcid}{37}}
\newlabeldata{l3pdf70}{{abspage}{4}}
\@writefile{nav}{\headcommand {\slideentry {2}{0}{1}{4/4}{}{0}}}
\@writefile{nav}{\headcommand {\beamer@framepages {4}{4}}}
\BKM@entry{id=3,open,dest={4F75746C696E65302E33},srcline={177}}{5C3337365C3337375C303030535C303030755C3030306D5C3030306D5C303030615C303030725C303030795C3030305C3034305C3030302D5C3030305C3034305C303030525C303030755C3030306C5C303030655C303030735C3030305C3034305C303030775C303030695C303030745C303030685C3030305C3034305C303030415C303030755C303030745C3030306F5C3030306D5C303030615C303030745C303030695C3030306F5C3030306E}
\@writefile{toc}{\beamer@sectionintoc {3}{Summary - Rules with Automation}{5}{0}{3}}
\@writefile{nav}{\headcommand {\beamer@sectionpages {4}{4}}}
\@writefile{nav}{\headcommand {\beamer@subsectionpages {4}{4}}}
\@writefile{nav}{\headcommand {\sectionentry {3}{Summary - Rules with Automation}{5}{Summary - Rules with Automation}{0}}}
\newlabeldata{mcid-111}{{tagabspage}{5}{tagmcabs}{111}{tagmcid}{31}}
\newlabeldata{l3pdf103}{{abspage}{5}}
\newlabeldata{mcid-80}{{tagabspage}{5}{tagmcabs}{80}{tagmcid}{0}}
\newlabeldata{l3pdf72}{{abspage}{5}}
\newlabeldata{mcid-81}{{tagabspage}{5}{tagmcabs}{81}{tagmcid}{1}}
\newlabeldata{l3pdf73}{{abspage}{5}}
\newlabeldata{mcid-82}{{tagabspage}{5}{tagmcabs}{82}{tagmcid}{2}}
\newlabeldata{l3pdf74}{{abspage}{5}}
\newlabeldata{mcid-83}{{tagabspage}{5}{tagmcabs}{83}{tagmcid}{3}}
\newlabeldata{l3pdf75}{{abspage}{5}}
\newlabeldata{mcid-84}{{tagabspage}{5}{tagmcabs}{84}{tagmcid}{4}}
\newlabeldata{l3pdf76}{{abspage}{5}}
\newlabeldata{mcid-85}{{tagabspage}{5}{tagmcabs}{85}{tagmcid}{5}}
\newlabeldata{l3pdf77}{{abspage}{5}}
\newlabeldata{mcid-86}{{tagabspage}{5}{tagmcabs}{86}{tagmcid}{6}}
\newlabeldata{l3pdf78}{{abspage}{5}}
\newlabeldata{mcid-87}{{tagabspage}{5}{tagmcabs}{87}{tagmcid}{7}}
\newlabeldata{l3pdf79}{{abspage}{5}}
\newlabeldata{mcid-88}{{tagabspage}{5}{tagmcabs}{88}{tagmcid}{8}}
\newlabeldata{l3pdf80}{{abspage}{5}}
\newlabeldata{mcid-89}{{tagabspage}{5}{tagmcabs}{89}{tagmcid}{9}}
\newlabeldata{l3pdf81}{{abspage}{5}}
\newlabeldata{mcid-90}{{tagabspage}{5}{tagmcabs}{90}{tagmcid}{10}}
\newlabeldata{l3pdf82}{{abspage}{5}}
\newlabeldata{mcid-91}{{tagabspage}{5}{tagmcabs}{91}{tagmcid}{11}}
\newlabeldata{l3pdf83}{{abspage}{5}}
\newlabeldata{mcid-92}{{tagabspage}{5}{tagmcabs}{92}{tagmcid}{12}}
\newlabeldata{l3pdf84}{{abspage}{5}}
\newlabeldata{mcid-93}{{tagabspage}{5}{tagmcabs}{93}{tagmcid}{13}}
\newlabeldata{l3pdf85}{{abspage}{5}}
\newlabeldata{mcid-94}{{tagabspage}{5}{tagmcabs}{94}{tagmcid}{14}}
\newlabeldata{l3pdf86}{{abspage}{5}}
\newlabeldata{mcid-95}{{tagabspage}{5}{tagmcabs}{95}{tagmcid}{15}}
\newlabeldata{l3pdf87}{{abspage}{5}}
\newlabeldata{mcid-96}{{tagabspage}{5}{tagmcabs}{96}{tagmcid}{16}}
\newlabeldata{l3pdf88}{{abspage}{5}}
\newlabeldata{mcid-97}{{tagabspage}{5}{tagmcabs}{97}{tagmcid}{17}}
\newlabeldata{l3pdf89}{{abspage}{5}}
\newlabeldata{mcid-98}{{tagabspage}{5}{tagmcabs}{98}{tagmcid}{18}}
\newlabeldata{l3pdf90}{{abspage}{5}}
\newlabeldata{mcid-99}{{tagabspage}{5}{tagmcabs}{99}{tagmcid}{19}}
\newlabeldata{l3pdf91}{{abspage}{5}}
\newlabeldata{mcid-100}{{tagabspage}{5}{tagmcabs}{100}{tagmcid}{20}}
\newlabeldata{l3pdf92}{{abspage}{5}}
\newlabeldata{mcid-101}{{tagabspage}{5}{tagmcabs}{101}{tagmcid}{21}}
\newlabeldata{l3pdf93}{{abspage}{5}}
\newlabeldata{mcid-102}{{tagabspage}{5}{tagmcabs}{102}{tagmcid}{22}}
\newlabeldata{l3pdf94}{{abspage}{5}}
\newlabeldata{mcid-103}{{tagabspage}{5}{tagmcabs}{103}{tagmcid}{23}}
\newlabeldata{l3pdf95}{{abspage}{5}}
\newlabeldata{mcid-104}{{tagabspage}{5}{tagmcabs}{104}{tagmcid}{24}}
\newlabeldata{l3pdf96}{{abspage}{5}}
\newlabeldata{mcid-105}{{tagabspage}{5}{tagmcabs}{105}{tagmcid}{25}}
\newlabeldata{l3pdf97}{{abspage}{5}}
\newlabeldata{mcid-106}{{tagabspage}{5}{tagmcabs}{106}{tagmcid}{26}}
\newlabeldata{l3pdf98}{{abspage}{5}}
\newlabeldata{mcid-107}{{tagabspage}{5}{tagmcabs}{107}{tagmcid}{27}}
\newlabeldata{l3pdf99}{{abspage}{5}}
\newlabeldata{mcid-108}{{tagabspage}{5}{tagmcabs}{108}{tagmcid}{28}}
\newlabeldata{l3pdf100}{{abspage}{5}}
\newlabeldata{mcid-109}{{tagabspage}{5}{tagmcabs}{109}{tagmcid}{29}}
\newlabeldata{l3pdf101}{{abspage}{5}}
\newlabeldata{mcid-110}{{tagabspage}{5}{tagmcabs}{110}{tagmcid}{30}}
\newlabeldata{l3pdf102}{{abspage}{5}}
\@writefile{nav}{\headcommand {\slideentry {3}{0}{1}{5/5}{}{0}}}
\@writefile{nav}{\headcommand {\beamer@framepages {5}{5}}}
\BKM@entry{id=4,open,dest={4F75746C696E65302E34},srcline={218}}{5C3337365C3337375C3030304C5C303030615C3030306E5C303030675C303030755C303030615C303030675C303030655C3030305C3034305C303030525C303030655C303030735C303030745C303030725C303030695C303030635C303030745C303030695C3030306F5C3030306E5C30303073}
\BKM@entry{id=5,open,dest={4F75746C696E65302E342E312E36},srcline={219}}{5C3337365C3337375C3030306E5C303030755C3030306C5C3030306C5C303030705C303030745C30303072}
\@writefile{toc}{\beamer@sectionintoc {4}{Language Restrictions}{6}{0}{4}}
\@writefile{nav}{\headcommand {\beamer@sectionpages {5}{5}}}
\@writefile{nav}{\headcommand {\beamer@subsectionpages {5}{5}}}
\@writefile{nav}{\headcommand {\sectionentry {4}{Language Restrictions}{6}{Language Restrictions}{0}}}
\@writefile{toc}{\beamer@subsectionintoc {4}{1}{nullptr}{6}{0}{4}}
\@writefile{nav}{\headcommand {\beamer@subsectionpages {6}{5}}}
\@writefile{nav}{\headcommand {\beamer@subsectionentry {0}{4}{1}{6}{nullptr}}}
\newlabeldata{mcid-134}{{tagabspage}{6}{tagmcabs}{134}{tagmcid}{20}}
\newlabeldata{l3pdf124}{{abspage}{6}}
\newlabeldata{mcid-114}{{tagabspage}{6}{tagmcabs}{114}{tagmcid}{0}}
\newlabeldata{l3pdf104}{{abspage}{6}}
\newlabeldata{mcid-115}{{tagabspage}{6}{tagmcabs}{115}{tagmcid}{1}}
\newlabeldata{l3pdf105}{{abspage}{6}}
\newlabeldata{mcid-116}{{tagabspage}{6}{tagmcabs}{116}{tagmcid}{2}}
\newlabeldata{l3pdf106}{{abspage}{6}}
\newlabeldata{mcid-117}{{tagabspage}{6}{tagmcabs}{117}{tagmcid}{3}}
\newlabeldata{l3pdf107}{{abspage}{6}}
\newlabeldata{mcid-118}{{tagabspage}{6}{tagmcabs}{118}{tagmcid}{4}}
\newlabeldata{l3pdf108}{{abspage}{6}}
\newlabeldata{mcid-119}{{tagabspage}{6}{tagmcabs}{119}{tagmcid}{5}}
\newlabeldata{l3pdf109}{{abspage}{6}}
\newlabeldata{mcid-120}{{tagabspage}{6}{tagmcabs}{120}{tagmcid}{6}}
\newlabeldata{l3pdf110}{{abspage}{6}}
\newlabeldata{mcid-121}{{tagabspage}{6}{tagmcabs}{121}{tagmcid}{7}}
\newlabeldata{l3pdf111}{{abspage}{6}}
\newlabeldata{mcid-122}{{tagabspage}{6}{tagmcabs}{122}{tagmcid}{8}}
\newlabeldata{l3pdf112}{{abspage}{6}}
\newlabeldata{mcid-123}{{tagabspage}{6}{tagmcabs}{123}{tagmcid}{9}}
\newlabeldata{l3pdf113}{{abspage}{6}}
\newlabeldata{mcid-124}{{tagabspage}{6}{tagmcabs}{124}{tagmcid}{10}}
\newlabeldata{l3pdf114}{{abspage}{6}}
\newlabeldata{mcid-125}{{tagabspage}{6}{tagmcabs}{125}{tagmcid}{11}}
\newlabeldata{l3pdf115}{{abspage}{6}}
\newlabeldata{mcid-126}{{tagabspage}{6}{tagmcabs}{126}{tagmcid}{12}}
\newlabeldata{l3pdf116}{{abspage}{6}}
\newlabeldata{mcid-127}{{tagabspage}{6}{tagmcabs}{127}{tagmcid}{13}}
\newlabeldata{l3pdf117}{{abspage}{6}}
\newlabeldata{mcid-128}{{tagabspage}{6}{tagmcabs}{128}{tagmcid}{14}}
\newlabeldata{l3pdf118}{{abspage}{6}}
\newlabeldata{mcid-129}{{tagabspage}{6}{tagmcabs}{129}{tagmcid}{15}}
\newlabeldata{l3pdf119}{{abspage}{6}}
\newlabeldata{mcid-130}{{tagabspage}{6}{tagmcabs}{130}{tagmcid}{16}}
\newlabeldata{l3pdf120}{{abspage}{6}}
\newlabeldata{mcid-131}{{tagabspage}{6}{tagmcabs}{131}{tagmcid}{17}}
\newlabeldata{l3pdf121}{{abspage}{6}}
\newlabeldata{mcid-132}{{tagabspage}{6}{tagmcabs}{132}{tagmcid}{18}}
\newlabeldata{l3pdf122}{{abspage}{6}}
\newlabeldata{mcid-133}{{tagabspage}{6}{tagmcabs}{133}{tagmcid}{19}}
\newlabeldata{l3pdf123}{{abspage}{6}}
\@writefile{nav}{\headcommand {\slideentry {4}{1}{1}{6/6}{nullptr}{0}}}
\@writefile{nav}{\headcommand {\beamer@framepages {6}{6}}}
\BKM@entry{id=6,open,dest={4F75746C696E65302E342E322E37},srcline={253}}{5C3337365C3337375C303030475C3030306C5C3030306F5C303030625C303030615C3030306C5C3030305C3034305C303030565C303030615C303030725C303030695C303030615C303030625C3030306C5C303030655C30303073}
\@writefile{toc}{\beamer@subsectionintoc {4}{2}{Global Variables}{7}{0}{4}}
\@writefile{nav}{\headcommand {\beamer@subsectionpages {6}{6}}}
\@writefile{nav}{\headcommand {\beamer@subsectionentry {0}{4}{2}{7}{Global Variables}}}
\newlabeldata{mcid-165}{{tagabspage}{7}{tagmcabs}{165}{tagmcid}{28}}
\newlabeldata{l3pdf153}{{abspage}{7}}
\newlabeldata{mcid-137}{{tagabspage}{7}{tagmcabs}{137}{tagmcid}{0}}
\newlabeldata{l3pdf125}{{abspage}{7}}
\newlabeldata{mcid-138}{{tagabspage}{7}{tagmcabs}{138}{tagmcid}{1}}
\newlabeldata{l3pdf126}{{abspage}{7}}
\newlabeldata{mcid-139}{{tagabspage}{7}{tagmcabs}{139}{tagmcid}{2}}
\newlabeldata{l3pdf127}{{abspage}{7}}
\newlabeldata{mcid-140}{{tagabspage}{7}{tagmcabs}{140}{tagmcid}{3}}
\newlabeldata{l3pdf128}{{abspage}{7}}
\newlabeldata{mcid-141}{{tagabspage}{7}{tagmcabs}{141}{tagmcid}{4}}
\newlabeldata{l3pdf129}{{abspage}{7}}
\newlabeldata{mcid-142}{{tagabspage}{7}{tagmcabs}{142}{tagmcid}{5}}
\newlabeldata{l3pdf130}{{abspage}{7}}
\newlabeldata{mcid-143}{{tagabspage}{7}{tagmcabs}{143}{tagmcid}{6}}
\newlabeldata{l3pdf131}{{abspage}{7}}
\newlabeldata{mcid-144}{{tagabspage}{7}{tagmcabs}{144}{tagmcid}{7}}
\newlabeldata{l3pdf132}{{abspage}{7}}
\newlabeldata{mcid-145}{{tagabspage}{7}{tagmcabs}{145}{tagmcid}{8}}
\newlabeldata{l3pdf133}{{abspage}{7}}
\newlabeldata{mcid-146}{{tagabspage}{7}{tagmcabs}{146}{tagmcid}{9}}
\newlabeldata{l3pdf134}{{abspage}{7}}
\newlabeldata{mcid-147}{{tagabspage}{7}{tagmcabs}{147}{tagmcid}{10}}
\newlabeldata{l3pdf135}{{abspage}{7}}
\newlabeldata{mcid-148}{{tagabspage}{7}{tagmcabs}{148}{tagmcid}{11}}
\newlabeldata{l3pdf136}{{abspage}{7}}
\newlabeldata{mcid-149}{{tagabspage}{7}{tagmcabs}{149}{tagmcid}{12}}
\newlabeldata{l3pdf137}{{abspage}{7}}
\newlabeldata{mcid-150}{{tagabspage}{7}{tagmcabs}{150}{tagmcid}{13}}
\newlabeldata{l3pdf138}{{abspage}{7}}
\newlabeldata{mcid-151}{{tagabspage}{7}{tagmcabs}{151}{tagmcid}{14}}
\newlabeldata{l3pdf139}{{abspage}{7}}
\newlabeldata{mcid-152}{{tagabspage}{7}{tagmcabs}{152}{tagmcid}{15}}
\newlabeldata{l3pdf140}{{abspage}{7}}
\newlabeldata{mcid-153}{{tagabspage}{7}{tagmcabs}{153}{tagmcid}{16}}
\newlabeldata{l3pdf141}{{abspage}{7}}
\newlabeldata{mcid-154}{{tagabspage}{7}{tagmcabs}{154}{tagmcid}{17}}
\newlabeldata{l3pdf142}{{abspage}{7}}
\newlabeldata{mcid-155}{{tagabspage}{7}{tagmcabs}{155}{tagmcid}{18}}
\newlabeldata{l3pdf143}{{abspage}{7}}
\newlabeldata{mcid-156}{{tagabspage}{7}{tagmcabs}{156}{tagmcid}{19}}
\newlabeldata{l3pdf144}{{abspage}{7}}
\newlabeldata{mcid-157}{{tagabspage}{7}{tagmcabs}{157}{tagmcid}{20}}
\newlabeldata{l3pdf145}{{abspage}{7}}
\newlabeldata{mcid-158}{{tagabspage}{7}{tagmcabs}{158}{tagmcid}{21}}
\newlabeldata{l3pdf146}{{abspage}{7}}
\newlabeldata{mcid-159}{{tagabspage}{7}{tagmcabs}{159}{tagmcid}{22}}
\newlabeldata{l3pdf147}{{abspage}{7}}
\newlabeldata{mcid-160}{{tagabspage}{7}{tagmcabs}{160}{tagmcid}{23}}
\newlabeldata{l3pdf148}{{abspage}{7}}
\newlabeldata{mcid-161}{{tagabspage}{7}{tagmcabs}{161}{tagmcid}{24}}
\newlabeldata{l3pdf149}{{abspage}{7}}
\newlabeldata{mcid-162}{{tagabspage}{7}{tagmcabs}{162}{tagmcid}{25}}
\newlabeldata{l3pdf150}{{abspage}{7}}
\newlabeldata{mcid-163}{{tagabspage}{7}{tagmcabs}{163}{tagmcid}{26}}
\newlabeldata{l3pdf151}{{abspage}{7}}
\newlabeldata{mcid-164}{{tagabspage}{7}{tagmcabs}{164}{tagmcid}{27}}
\newlabeldata{l3pdf152}{{abspage}{7}}
\@writefile{nav}{\headcommand {\slideentry {4}{2}{1}{7/7}{Global Variables}{0}}}
\@writefile{nav}{\headcommand {\beamer@framepages {7}{7}}}
\BKM@entry{id=7,open,dest={4F75746C696E65302E342E332E38},srcline={296}}{5C3337365C3337375C303030615C303030755C303030745C3030306F}
\@writefile{toc}{\beamer@subsectionintoc {4}{3}{auto}{8}{0}{4}}
\@writefile{nav}{\headcommand {\beamer@subsectionpages {7}{7}}}
\@writefile{nav}{\headcommand {\beamer@subsectionentry {0}{4}{3}{8}{auto}}}
\newlabeldata{mcid-184}{{tagabspage}{8}{tagmcabs}{184}{tagmcid}{16}}
\newlabeldata{l3pdf170}{{abspage}{8}}
\newlabeldata{mcid-168}{{tagabspage}{8}{tagmcabs}{168}{tagmcid}{0}}
\newlabeldata{l3pdf154}{{abspage}{8}}
\newlabeldata{mcid-169}{{tagabspage}{8}{tagmcabs}{169}{tagmcid}{1}}
\newlabeldata{l3pdf155}{{abspage}{8}}
\newlabeldata{mcid-170}{{tagabspage}{8}{tagmcabs}{170}{tagmcid}{2}}
\newlabeldata{l3pdf156}{{abspage}{8}}
\newlabeldata{mcid-171}{{tagabspage}{8}{tagmcabs}{171}{tagmcid}{3}}
\newlabeldata{l3pdf157}{{abspage}{8}}
\newlabeldata{mcid-172}{{tagabspage}{8}{tagmcabs}{172}{tagmcid}{4}}
\newlabeldata{l3pdf158}{{abspage}{8}}
\newlabeldata{mcid-173}{{tagabspage}{8}{tagmcabs}{173}{tagmcid}{5}}
\newlabeldata{l3pdf159}{{abspage}{8}}
\newlabeldata{mcid-174}{{tagabspage}{8}{tagmcabs}{174}{tagmcid}{6}}
\newlabeldata{l3pdf160}{{abspage}{8}}
\newlabeldata{mcid-175}{{tagabspage}{8}{tagmcabs}{175}{tagmcid}{7}}
\newlabeldata{l3pdf161}{{abspage}{8}}
\newlabeldata{mcid-176}{{tagabspage}{8}{tagmcabs}{176}{tagmcid}{8}}
\newlabeldata{l3pdf162}{{abspage}{8}}
\newlabeldata{mcid-177}{{tagabspage}{8}{tagmcabs}{177}{tagmcid}{9}}
\newlabeldata{l3pdf163}{{abspage}{8}}
\newlabeldata{mcid-178}{{tagabspage}{8}{tagmcabs}{178}{tagmcid}{10}}
\newlabeldata{l3pdf164}{{abspage}{8}}
\newlabeldata{mcid-179}{{tagabspage}{8}{tagmcabs}{179}{tagmcid}{11}}
\newlabeldata{l3pdf165}{{abspage}{8}}
\newlabeldata{mcid-180}{{tagabspage}{8}{tagmcabs}{180}{tagmcid}{12}}
\newlabeldata{l3pdf166}{{abspage}{8}}
\newlabeldata{mcid-181}{{tagabspage}{8}{tagmcabs}{181}{tagmcid}{13}}
\newlabeldata{l3pdf167}{{abspage}{8}}
\newlabeldata{mcid-182}{{tagabspage}{8}{tagmcabs}{182}{tagmcid}{14}}
\newlabeldata{l3pdf168}{{abspage}{8}}
\newlabeldata{mcid-183}{{tagabspage}{8}{tagmcabs}{183}{tagmcid}{15}}
\newlabeldata{l3pdf169}{{abspage}{8}}
\@writefile{nav}{\headcommand {\slideentry {4}{3}{1}{8/8}{auto}{0}}}
\@writefile{nav}{\headcommand {\beamer@framepages {8}{8}}}
\BKM@entry{id=8,open,dest={4F75746C696E65302E342E342E39},srcline={327}}{5C3337365C3337375C303030675C3030306F5C303030745C3030306F}
\@writefile{toc}{\beamer@subsectionintoc {4}{4}{goto}{9}{0}{4}}
\@writefile{nav}{\headcommand {\beamer@subsectionpages {8}{8}}}
\@writefile{nav}{\headcommand {\beamer@subsectionentry {0}{4}{4}{9}{goto}}}
\newlabeldata{mcid-189}{{tagabspage}{9}{tagmcabs}{189}{tagmcid}{2}}
\newlabeldata{l3pdf173}{{abspage}{9}}
\newlabeldata{mcid-187}{{tagabspage}{9}{tagmcabs}{187}{tagmcid}{0}}
\newlabeldata{l3pdf171}{{abspage}{9}}
\newlabeldata{mcid-188}{{tagabspage}{9}{tagmcabs}{188}{tagmcid}{1}}
\newlabeldata{l3pdf172}{{abspage}{9}}
\@writefile{nav}{\headcommand {\slideentry {4}{4}{1}{9/9}{goto}{0}}}
\@writefile{nav}{\headcommand {\beamer@framepages {9}{9}}}
\BKM@entry{id=9,open,dest={4F75746C696E65302E35},srcline={339}}{5C3337365C3337375C3030304C5C303030695C303030625C303030725C303030615C303030725C303030795C3030305C3034305C303030525C303030655C303030735C303030745C303030725C303030695C303030635C303030745C303030695C3030306F5C3030306E5C30303073}
\@writefile{toc}{\beamer@sectionintoc {5}{Library Restrictions}{10}{0}{5}}
\@writefile{nav}{\headcommand {\beamer@sectionpages {6}{9}}}
\@writefile{nav}{\headcommand {\beamer@subsectionpages {9}{9}}}
\@writefile{nav}{\headcommand {\sectionentry {5}{Library Restrictions}{10}{Library Restrictions}{0}}}
\newlabeldata{mcid-216}{{tagabspage}{10}{tagmcabs}{216}{tagmcid}{24}}
\newlabeldata{l3pdf198}{{abspage}{10}}
\newlabeldata{mcid-192}{{tagabspage}{10}{tagmcabs}{192}{tagmcid}{0}}
\newlabeldata{l3pdf174}{{abspage}{10}}
\newlabeldata{mcid-193}{{tagabspage}{10}{tagmcabs}{193}{tagmcid}{1}}
\newlabeldata{l3pdf175}{{abspage}{10}}
\newlabeldata{mcid-194}{{tagabspage}{10}{tagmcabs}{194}{tagmcid}{2}}
\newlabeldata{l3pdf176}{{abspage}{10}}
\newlabeldata{mcid-195}{{tagabspage}{10}{tagmcabs}{195}{tagmcid}{3}}
\newlabeldata{l3pdf177}{{abspage}{10}}
\newlabeldata{mcid-196}{{tagabspage}{10}{tagmcabs}{196}{tagmcid}{4}}
\newlabeldata{l3pdf178}{{abspage}{10}}
\newlabeldata{mcid-197}{{tagabspage}{10}{tagmcabs}{197}{tagmcid}{5}}
\newlabeldata{l3pdf179}{{abspage}{10}}
\newlabeldata{mcid-198}{{tagabspage}{10}{tagmcabs}{198}{tagmcid}{6}}
\newlabeldata{l3pdf180}{{abspage}{10}}
\newlabeldata{mcid-199}{{tagabspage}{10}{tagmcabs}{199}{tagmcid}{7}}
\newlabeldata{l3pdf181}{{abspage}{10}}
\newlabeldata{mcid-200}{{tagabspage}{10}{tagmcabs}{200}{tagmcid}{8}}
\newlabeldata{l3pdf182}{{abspage}{10}}
\newlabeldata{mcid-201}{{tagabspage}{10}{tagmcabs}{201}{tagmcid}{9}}
\newlabeldata{l3pdf183}{{abspage}{10}}
\newlabeldata{mcid-202}{{tagabspage}{10}{tagmcabs}{202}{tagmcid}{10}}
\newlabeldata{l3pdf184}{{abspage}{10}}
\newlabeldata{mcid-203}{{tagabspage}{10}{tagmcabs}{203}{tagmcid}{11}}
\newlabeldata{l3pdf185}{{abspage}{10}}
\newlabeldata{mcid-204}{{tagabspage}{10}{tagmcabs}{204}{tagmcid}{12}}
\newlabeldata{l3pdf186}{{abspage}{10}}
\newlabeldata{mcid-205}{{tagabspage}{10}{tagmcabs}{205}{tagmcid}{13}}
\newlabeldata{l3pdf187}{{abspage}{10}}
\newlabeldata{mcid-206}{{tagabspage}{10}{tagmcabs}{206}{tagmcid}{14}}
\newlabeldata{l3pdf188}{{abspage}{10}}
\newlabeldata{mcid-207}{{tagabspage}{10}{tagmcabs}{207}{tagmcid}{15}}
\newlabeldata{l3pdf189}{{abspage}{10}}
\newlabeldata{mcid-208}{{tagabspage}{10}{tagmcabs}{208}{tagmcid}{16}}
\newlabeldata{l3pdf190}{{abspage}{10}}
\newlabeldata{mcid-209}{{tagabspage}{10}{tagmcabs}{209}{tagmcid}{17}}
\newlabeldata{l3pdf191}{{abspage}{10}}
\newlabeldata{mcid-210}{{tagabspage}{10}{tagmcabs}{210}{tagmcid}{18}}
\newlabeldata{l3pdf192}{{abspage}{10}}
\newlabeldata{mcid-211}{{tagabspage}{10}{tagmcabs}{211}{tagmcid}{19}}
\newlabeldata{l3pdf193}{{abspage}{10}}
\newlabeldata{mcid-212}{{tagabspage}{10}{tagmcabs}{212}{tagmcid}{20}}
\newlabeldata{l3pdf194}{{abspage}{10}}
\newlabeldata{mcid-213}{{tagabspage}{10}{tagmcabs}{213}{tagmcid}{21}}
\newlabeldata{l3pdf195}{{abspage}{10}}
\newlabeldata{mcid-214}{{tagabspage}{10}{tagmcabs}{214}{tagmcid}{22}}
\newlabeldata{l3pdf196}{{abspage}{10}}
\newlabeldata{mcid-215}{{tagabspage}{10}{tagmcabs}{215}{tagmcid}{23}}
\newlabeldata{l3pdf197}{{abspage}{10}}
\@writefile{nav}{\headcommand {\slideentry {5}{0}{1}{10/10}{}{0}}}
\@writefile{nav}{\headcommand {\beamer@framepages {10}{10}}}
\BKM@entry{id=10,open,dest={4F75746C696E65302E36},srcline={377}}{5C3337365C3337375C303030445C3030306F5C303030635C303030755C3030306D5C303030655C3030306E5C303030745C303030615C303030745C303030695C3030306F5C3030306E5C3030305C3034305C303030425C303030655C303030665C3030306F5C303030725C303030655C3030305C3034305C303030455C303030615C303030635C303030685C3030305C3034305C303030465C303030755C3030306E5C303030635C303030745C303030695C3030306F5C3030306E}
\@writefile{toc}{\beamer@sectionintoc {6}{Documentation Before Each Function}{11}{0}{6}}
\@writefile{nav}{\headcommand {\beamer@sectionpages {10}{10}}}
\@writefile{nav}{\headcommand {\beamer@subsectionpages {10}{10}}}
\@writefile{nav}{\headcommand {\sectionentry {6}{Documentation Before Each Function}{11}{Documentation Before Each Function}{0}}}
\newlabeldata{mcid-251}{{tagabspage}{11}{tagmcabs}{251}{tagmcid}{32}}
\newlabeldata{l3pdf231}{{abspage}{11}}
\newlabeldata{mcid-219}{{tagabspage}{11}{tagmcabs}{219}{tagmcid}{0}}
\newlabeldata{l3pdf199}{{abspage}{11}}
\newlabeldata{mcid-220}{{tagabspage}{11}{tagmcabs}{220}{tagmcid}{1}}
\newlabeldata{l3pdf200}{{abspage}{11}}
\newlabeldata{mcid-221}{{tagabspage}{11}{tagmcabs}{221}{tagmcid}{2}}
\newlabeldata{l3pdf201}{{abspage}{11}}
\newlabeldata{mcid-222}{{tagabspage}{11}{tagmcabs}{222}{tagmcid}{3}}
\newlabeldata{l3pdf202}{{abspage}{11}}
\newlabeldata{mcid-223}{{tagabspage}{11}{tagmcabs}{223}{tagmcid}{4}}
\newlabeldata{l3pdf203}{{abspage}{11}}
\newlabeldata{mcid-224}{{tagabspage}{11}{tagmcabs}{224}{tagmcid}{5}}
\newlabeldata{l3pdf204}{{abspage}{11}}
\newlabeldata{mcid-225}{{tagabspage}{11}{tagmcabs}{225}{tagmcid}{6}}
\newlabeldata{l3pdf205}{{abspage}{11}}
\newlabeldata{mcid-226}{{tagabspage}{11}{tagmcabs}{226}{tagmcid}{7}}
\newlabeldata{l3pdf206}{{abspage}{11}}
\newlabeldata{mcid-227}{{tagabspage}{11}{tagmcabs}{227}{tagmcid}{8}}
\newlabeldata{l3pdf207}{{abspage}{11}}
\newlabeldata{mcid-228}{{tagabspage}{11}{tagmcabs}{228}{tagmcid}{9}}
\newlabeldata{l3pdf208}{{abspage}{11}}
\newlabeldata{mcid-229}{{tagabspage}{11}{tagmcabs}{229}{tagmcid}{10}}
\newlabeldata{l3pdf209}{{abspage}{11}}
\newlabeldata{mcid-230}{{tagabspage}{11}{tagmcabs}{230}{tagmcid}{11}}
\newlabeldata{l3pdf210}{{abspage}{11}}
\newlabeldata{mcid-231}{{tagabspage}{11}{tagmcabs}{231}{tagmcid}{12}}
\newlabeldata{l3pdf211}{{abspage}{11}}
\newlabeldata{mcid-232}{{tagabspage}{11}{tagmcabs}{232}{tagmcid}{13}}
\newlabeldata{l3pdf212}{{abspage}{11}}
\newlabeldata{mcid-233}{{tagabspage}{11}{tagmcabs}{233}{tagmcid}{14}}
\newlabeldata{l3pdf213}{{abspage}{11}}
\newlabeldata{mcid-234}{{tagabspage}{11}{tagmcabs}{234}{tagmcid}{15}}
\newlabeldata{l3pdf214}{{abspage}{11}}
\newlabeldata{mcid-235}{{tagabspage}{11}{tagmcabs}{235}{tagmcid}{16}}
\newlabeldata{l3pdf215}{{abspage}{11}}
\newlabeldata{mcid-236}{{tagabspage}{11}{tagmcabs}{236}{tagmcid}{17}}
\newlabeldata{l3pdf216}{{abspage}{11}}
\newlabeldata{mcid-237}{{tagabspage}{11}{tagmcabs}{237}{tagmcid}{18}}
\newlabeldata{l3pdf217}{{abspage}{11}}
\newlabeldata{mcid-238}{{tagabspage}{11}{tagmcabs}{238}{tagmcid}{19}}
\newlabeldata{l3pdf218}{{abspage}{11}}
\newlabeldata{mcid-239}{{tagabspage}{11}{tagmcabs}{239}{tagmcid}{20}}
\newlabeldata{l3pdf219}{{abspage}{11}}
\newlabeldata{mcid-240}{{tagabspage}{11}{tagmcabs}{240}{tagmcid}{21}}
\newlabeldata{l3pdf220}{{abspage}{11}}
\newlabeldata{mcid-241}{{tagabspage}{11}{tagmcabs}{241}{tagmcid}{22}}
\newlabeldata{l3pdf221}{{abspage}{11}}
\newlabeldata{mcid-242}{{tagabspage}{11}{tagmcabs}{242}{tagmcid}{23}}
\newlabeldata{l3pdf222}{{abspage}{11}}
\newlabeldata{mcid-243}{{tagabspage}{11}{tagmcabs}{243}{tagmcid}{24}}
\newlabeldata{l3pdf223}{{abspage}{11}}
\newlabeldata{mcid-244}{{tagabspage}{11}{tagmcabs}{244}{tagmcid}{25}}
\newlabeldata{l3pdf224}{{abspage}{11}}
\newlabeldata{mcid-245}{{tagabspage}{11}{tagmcabs}{245}{tagmcid}{26}}
\newlabeldata{l3pdf225}{{abspage}{11}}
\newlabeldata{mcid-246}{{tagabspage}{11}{tagmcabs}{246}{tagmcid}{27}}
\newlabeldata{l3pdf226}{{abspage}{11}}
\newlabeldata{mcid-247}{{tagabspage}{11}{tagmcabs}{247}{tagmcid}{28}}
\newlabeldata{l3pdf227}{{abspage}{11}}
\newlabeldata{mcid-248}{{tagabspage}{11}{tagmcabs}{248}{tagmcid}{29}}
\newlabeldata{l3pdf228}{{abspage}{11}}
\newlabeldata{mcid-249}{{tagabspage}{11}{tagmcabs}{249}{tagmcid}{30}}
\newlabeldata{l3pdf229}{{abspage}{11}}
\newlabeldata{mcid-250}{{tagabspage}{11}{tagmcabs}{250}{tagmcid}{31}}
\newlabeldata{l3pdf230}{{abspage}{11}}
\@writefile{nav}{\headcommand {\slideentry {6}{0}{1}{11/11}{}{0}}}
\@writefile{nav}{\headcommand {\beamer@framepages {11}{11}}}
\BKM@entry{id=11,open,dest={4F75746C696E65302E37},srcline={426}}{5C3337365C3337375C303030475C303030655C3030306E5C303030655C303030725C303030615C3030306C5C3030305C3034305C303030445C3030306F5C303030635C303030755C3030306D5C303030655C3030306E5C303030745C303030615C303030745C303030695C3030306F5C3030306E}
\BKM@entry{id=12,open,dest={4F75746C696E65302E372E312E3132},srcline={428}}{5C3337365C3337375C303030435C3030306F5C3030306D5C3030306D5C303030655C3030306E5C303030745C303030735C3030305C3034305C303030615C303030745C3030305C3034305C303030745C303030685C303030655C3030305C3034305C303030545C3030306F5C303030705C3030305C3034305C3030306F5C303030665C3030305C3034305C303030465C303030695C3030306C5C303030655C30303073}
\@writefile{toc}{\beamer@sectionintoc {7}{General Documentation}{12}{0}{7}}
\@writefile{nav}{\headcommand {\beamer@sectionpages {11}{11}}}
\@writefile{nav}{\headcommand {\beamer@subsectionpages {11}{11}}}
\@writefile{nav}{\headcommand {\sectionentry {7}{General Documentation}{12}{General Documentation}{0}}}
\@writefile{toc}{\beamer@subsectionintoc {7}{1}{Comments at the Top of Files}{12}{0}{7}}
\@writefile{nav}{\headcommand {\beamer@subsectionpages {12}{11}}}
\@writefile{nav}{\headcommand {\beamer@subsectionentry {0}{7}{1}{12}{Comments at the Top of Files}}}
\newlabeldata{mcid-290}{{tagabspage}{12}{tagmcabs}{290}{tagmcid}{36}}
\newlabeldata{l3pdf268}{{abspage}{12}}
\newlabeldata{mcid-254}{{tagabspage}{12}{tagmcabs}{254}{tagmcid}{0}}
\newlabeldata{l3pdf232}{{abspage}{12}}
\newlabeldata{mcid-255}{{tagabspage}{12}{tagmcabs}{255}{tagmcid}{1}}
\newlabeldata{l3pdf233}{{abspage}{12}}
\newlabeldata{mcid-256}{{tagabspage}{12}{tagmcabs}{256}{tagmcid}{2}}
\newlabeldata{l3pdf234}{{abspage}{12}}
\newlabeldata{mcid-257}{{tagabspage}{12}{tagmcabs}{257}{tagmcid}{3}}
\newlabeldata{l3pdf235}{{abspage}{12}}
\newlabeldata{mcid-258}{{tagabspage}{12}{tagmcabs}{258}{tagmcid}{4}}
\newlabeldata{l3pdf236}{{abspage}{12}}
\newlabeldata{mcid-259}{{tagabspage}{12}{tagmcabs}{259}{tagmcid}{5}}
\newlabeldata{l3pdf237}{{abspage}{12}}
\newlabeldata{mcid-260}{{tagabspage}{12}{tagmcabs}{260}{tagmcid}{6}}
\newlabeldata{l3pdf238}{{abspage}{12}}
\newlabeldata{mcid-261}{{tagabspage}{12}{tagmcabs}{261}{tagmcid}{7}}
\newlabeldata{l3pdf239}{{abspage}{12}}
\newlabeldata{mcid-262}{{tagabspage}{12}{tagmcabs}{262}{tagmcid}{8}}
\newlabeldata{l3pdf240}{{abspage}{12}}
\newlabeldata{mcid-263}{{tagabspage}{12}{tagmcabs}{263}{tagmcid}{9}}
\newlabeldata{l3pdf241}{{abspage}{12}}
\newlabeldata{mcid-264}{{tagabspage}{12}{tagmcabs}{264}{tagmcid}{10}}
\newlabeldata{l3pdf242}{{abspage}{12}}
\newlabeldata{mcid-265}{{tagabspage}{12}{tagmcabs}{265}{tagmcid}{11}}
\newlabeldata{l3pdf243}{{abspage}{12}}
\newlabeldata{mcid-266}{{tagabspage}{12}{tagmcabs}{266}{tagmcid}{12}}
\newlabeldata{l3pdf244}{{abspage}{12}}
\newlabeldata{mcid-267}{{tagabspage}{12}{tagmcabs}{267}{tagmcid}{13}}
\newlabeldata{l3pdf245}{{abspage}{12}}
\newlabeldata{mcid-268}{{tagabspage}{12}{tagmcabs}{268}{tagmcid}{14}}
\newlabeldata{l3pdf246}{{abspage}{12}}
\newlabeldata{mcid-269}{{tagabspage}{12}{tagmcabs}{269}{tagmcid}{15}}
\newlabeldata{l3pdf247}{{abspage}{12}}
\newlabeldata{mcid-270}{{tagabspage}{12}{tagmcabs}{270}{tagmcid}{16}}
\newlabeldata{l3pdf248}{{abspage}{12}}
\newlabeldata{mcid-271}{{tagabspage}{12}{tagmcabs}{271}{tagmcid}{17}}
\newlabeldata{l3pdf249}{{abspage}{12}}
\newlabeldata{mcid-272}{{tagabspage}{12}{tagmcabs}{272}{tagmcid}{18}}
\newlabeldata{l3pdf250}{{abspage}{12}}
\newlabeldata{mcid-273}{{tagabspage}{12}{tagmcabs}{273}{tagmcid}{19}}
\newlabeldata{l3pdf251}{{abspage}{12}}
\newlabeldata{mcid-274}{{tagabspage}{12}{tagmcabs}{274}{tagmcid}{20}}
\newlabeldata{l3pdf252}{{abspage}{12}}
\newlabeldata{mcid-275}{{tagabspage}{12}{tagmcabs}{275}{tagmcid}{21}}
\newlabeldata{l3pdf253}{{abspage}{12}}
\newlabeldata{mcid-276}{{tagabspage}{12}{tagmcabs}{276}{tagmcid}{22}}
\newlabeldata{l3pdf254}{{abspage}{12}}
\newlabeldata{mcid-277}{{tagabspage}{12}{tagmcabs}{277}{tagmcid}{23}}
\newlabeldata{l3pdf255}{{abspage}{12}}
\newlabeldata{mcid-278}{{tagabspage}{12}{tagmcabs}{278}{tagmcid}{24}}
\newlabeldata{l3pdf256}{{abspage}{12}}
\newlabeldata{mcid-279}{{tagabspage}{12}{tagmcabs}{279}{tagmcid}{25}}
\newlabeldata{l3pdf257}{{abspage}{12}}
\newlabeldata{mcid-280}{{tagabspage}{12}{tagmcabs}{280}{tagmcid}{26}}
\newlabeldata{l3pdf258}{{abspage}{12}}
\newlabeldata{mcid-281}{{tagabspage}{12}{tagmcabs}{281}{tagmcid}{27}}
\newlabeldata{l3pdf259}{{abspage}{12}}
\newlabeldata{mcid-282}{{tagabspage}{12}{tagmcabs}{282}{tagmcid}{28}}
\newlabeldata{l3pdf260}{{abspage}{12}}
\newlabeldata{mcid-283}{{tagabspage}{12}{tagmcabs}{283}{tagmcid}{29}}
\newlabeldata{l3pdf261}{{abspage}{12}}
\newlabeldata{mcid-284}{{tagabspage}{12}{tagmcabs}{284}{tagmcid}{30}}
\newlabeldata{l3pdf262}{{abspage}{12}}
\newlabeldata{mcid-285}{{tagabspage}{12}{tagmcabs}{285}{tagmcid}{31}}
\newlabeldata{l3pdf263}{{abspage}{12}}
\newlabeldata{mcid-286}{{tagabspage}{12}{tagmcabs}{286}{tagmcid}{32}}
\newlabeldata{l3pdf264}{{abspage}{12}}
\newlabeldata{mcid-287}{{tagabspage}{12}{tagmcabs}{287}{tagmcid}{33}}
\newlabeldata{l3pdf265}{{abspage}{12}}
\newlabeldata{mcid-288}{{tagabspage}{12}{tagmcabs}{288}{tagmcid}{34}}
\newlabeldata{l3pdf266}{{abspage}{12}}
\newlabeldata{mcid-289}{{tagabspage}{12}{tagmcabs}{289}{tagmcid}{35}}
\newlabeldata{l3pdf267}{{abspage}{12}}
\@writefile{nav}{\headcommand {\slideentry {7}{1}{1}{12/12}{Comments at the Top of Files}{0}}}
\@writefile{nav}{\headcommand {\beamer@framepages {12}{12}}}
\BKM@entry{id=13,open,dest={4F75746C696E65302E372E322E3133},srcline={480}}{5C3337365C3337375C3030304E5C303030615C3030306D5C303030695C3030306E5C303030675C3030305C3034305C303030565C303030615C303030725C303030695C303030615C303030625C3030306C5C303030655C303030735C3030302C5C3030305C3034305C303030465C303030755C3030306E5C303030635C303030745C303030695C3030306F5C3030306E5C303030735C3030305C3034305C303030615C3030306E5C303030645C3030305C3034305C303030545C303030795C303030705C303030655C30303073}
\@writefile{toc}{\beamer@subsectionintoc {7}{2}{Naming Variables, Functions and Types}{13}{0}{7}}
\@writefile{nav}{\headcommand {\beamer@subsectionpages {12}{12}}}
\@writefile{nav}{\headcommand {\beamer@subsectionentry {0}{7}{2}{13}{Naming Variables, Functions and Types}}}
\newlabeldata{mcid-326}{{tagabspage}{13}{tagmcabs}{326}{tagmcid}{33}}
\newlabeldata{l3pdf302}{{abspage}{13}}
\newlabeldata{mcid-293}{{tagabspage}{13}{tagmcabs}{293}{tagmcid}{0}}
\newlabeldata{l3pdf269}{{abspage}{13}}
\newlabeldata{mcid-294}{{tagabspage}{13}{tagmcabs}{294}{tagmcid}{1}}
\newlabeldata{l3pdf270}{{abspage}{13}}
\newlabeldata{mcid-295}{{tagabspage}{13}{tagmcabs}{295}{tagmcid}{2}}
\newlabeldata{l3pdf271}{{abspage}{13}}
\newlabeldata{mcid-296}{{tagabspage}{13}{tagmcabs}{296}{tagmcid}{3}}
\newlabeldata{l3pdf272}{{abspage}{13}}
\newlabeldata{mcid-297}{{tagabspage}{13}{tagmcabs}{297}{tagmcid}{4}}
\newlabeldata{l3pdf273}{{abspage}{13}}
\newlabeldata{mcid-298}{{tagabspage}{13}{tagmcabs}{298}{tagmcid}{5}}
\newlabeldata{l3pdf274}{{abspage}{13}}
\newlabeldata{mcid-299}{{tagabspage}{13}{tagmcabs}{299}{tagmcid}{6}}
\newlabeldata{l3pdf275}{{abspage}{13}}
\newlabeldata{mcid-300}{{tagabspage}{13}{tagmcabs}{300}{tagmcid}{7}}
\newlabeldata{l3pdf276}{{abspage}{13}}
\newlabeldata{mcid-301}{{tagabspage}{13}{tagmcabs}{301}{tagmcid}{8}}
\newlabeldata{l3pdf277}{{abspage}{13}}
\newlabeldata{mcid-302}{{tagabspage}{13}{tagmcabs}{302}{tagmcid}{9}}
\newlabeldata{l3pdf278}{{abspage}{13}}
\newlabeldata{mcid-303}{{tagabspage}{13}{tagmcabs}{303}{tagmcid}{10}}
\newlabeldata{l3pdf279}{{abspage}{13}}
\newlabeldata{mcid-304}{{tagabspage}{13}{tagmcabs}{304}{tagmcid}{11}}
\newlabeldata{l3pdf280}{{abspage}{13}}
\newlabeldata{mcid-305}{{tagabspage}{13}{tagmcabs}{305}{tagmcid}{12}}
\newlabeldata{l3pdf281}{{abspage}{13}}
\newlabeldata{mcid-306}{{tagabspage}{13}{tagmcabs}{306}{tagmcid}{13}}
\newlabeldata{l3pdf282}{{abspage}{13}}
\newlabeldata{mcid-307}{{tagabspage}{13}{tagmcabs}{307}{tagmcid}{14}}
\newlabeldata{l3pdf283}{{abspage}{13}}
\newlabeldata{mcid-308}{{tagabspage}{13}{tagmcabs}{308}{tagmcid}{15}}
\newlabeldata{l3pdf284}{{abspage}{13}}
\newlabeldata{mcid-309}{{tagabspage}{13}{tagmcabs}{309}{tagmcid}{16}}
\newlabeldata{l3pdf285}{{abspage}{13}}
\newlabeldata{mcid-310}{{tagabspage}{13}{tagmcabs}{310}{tagmcid}{17}}
\newlabeldata{l3pdf286}{{abspage}{13}}
\newlabeldata{mcid-311}{{tagabspage}{13}{tagmcabs}{311}{tagmcid}{18}}
\newlabeldata{l3pdf287}{{abspage}{13}}
\newlabeldata{mcid-312}{{tagabspage}{13}{tagmcabs}{312}{tagmcid}{19}}
\newlabeldata{l3pdf288}{{abspage}{13}}
\newlabeldata{mcid-313}{{tagabspage}{13}{tagmcabs}{313}{tagmcid}{20}}
\newlabeldata{l3pdf289}{{abspage}{13}}
\newlabeldata{mcid-314}{{tagabspage}{13}{tagmcabs}{314}{tagmcid}{21}}
\newlabeldata{l3pdf290}{{abspage}{13}}
\newlabeldata{mcid-315}{{tagabspage}{13}{tagmcabs}{315}{tagmcid}{22}}
\newlabeldata{l3pdf291}{{abspage}{13}}
\newlabeldata{mcid-316}{{tagabspage}{13}{tagmcabs}{316}{tagmcid}{23}}
\newlabeldata{l3pdf292}{{abspage}{13}}
\newlabeldata{mcid-317}{{tagabspage}{13}{tagmcabs}{317}{tagmcid}{24}}
\newlabeldata{l3pdf293}{{abspage}{13}}
\newlabeldata{mcid-318}{{tagabspage}{13}{tagmcabs}{318}{tagmcid}{25}}
\newlabeldata{l3pdf294}{{abspage}{13}}
\newlabeldata{mcid-319}{{tagabspage}{13}{tagmcabs}{319}{tagmcid}{26}}
\newlabeldata{l3pdf295}{{abspage}{13}}
\newlabeldata{mcid-320}{{tagabspage}{13}{tagmcabs}{320}{tagmcid}{27}}
\newlabeldata{l3pdf296}{{abspage}{13}}
\newlabeldata{mcid-321}{{tagabspage}{13}{tagmcabs}{321}{tagmcid}{28}}
\newlabeldata{l3pdf297}{{abspage}{13}}
\newlabeldata{mcid-322}{{tagabspage}{13}{tagmcabs}{322}{tagmcid}{29}}
\newlabeldata{l3pdf298}{{abspage}{13}}
\newlabeldata{mcid-323}{{tagabspage}{13}{tagmcabs}{323}{tagmcid}{30}}
\newlabeldata{l3pdf299}{{abspage}{13}}
\newlabeldata{mcid-324}{{tagabspage}{13}{tagmcabs}{324}{tagmcid}{31}}
\newlabeldata{l3pdf300}{{abspage}{13}}
\newlabeldata{mcid-325}{{tagabspage}{13}{tagmcabs}{325}{tagmcid}{32}}
\newlabeldata{l3pdf301}{{abspage}{13}}
\@writefile{nav}{\headcommand {\slideentry {7}{2}{1}{13/13}{Naming Variables, Functions and Types}{0}}}
\@writefile{nav}{\headcommand {\beamer@framepages {13}{13}}}
\newlabeldata{mcid-345}{{tagabspage}{14}{tagmcabs}{345}{tagmcid}{16}}
\newlabeldata{l3pdf319}{{abspage}{14}}
\newlabeldata{mcid-329}{{tagabspage}{14}{tagmcabs}{329}{tagmcid}{0}}
\newlabeldata{l3pdf303}{{abspage}{14}}
\newlabeldata{mcid-330}{{tagabspage}{14}{tagmcabs}{330}{tagmcid}{1}}
\newlabeldata{l3pdf304}{{abspage}{14}}
\newlabeldata{mcid-331}{{tagabspage}{14}{tagmcabs}{331}{tagmcid}{2}}
\newlabeldata{l3pdf305}{{abspage}{14}}
\newlabeldata{mcid-332}{{tagabspage}{14}{tagmcabs}{332}{tagmcid}{3}}
\newlabeldata{l3pdf306}{{abspage}{14}}
\newlabeldata{mcid-333}{{tagabspage}{14}{tagmcabs}{333}{tagmcid}{4}}
\newlabeldata{l3pdf307}{{abspage}{14}}
\newlabeldata{mcid-334}{{tagabspage}{14}{tagmcabs}{334}{tagmcid}{5}}
\newlabeldata{l3pdf308}{{abspage}{14}}
\newlabeldata{mcid-335}{{tagabspage}{14}{tagmcabs}{335}{tagmcid}{6}}
\newlabeldata{l3pdf309}{{abspage}{14}}
\newlabeldata{mcid-336}{{tagabspage}{14}{tagmcabs}{336}{tagmcid}{7}}
\newlabeldata{l3pdf310}{{abspage}{14}}
\newlabeldata{mcid-337}{{tagabspage}{14}{tagmcabs}{337}{tagmcid}{8}}
\newlabeldata{l3pdf311}{{abspage}{14}}
\newlabeldata{mcid-338}{{tagabspage}{14}{tagmcabs}{338}{tagmcid}{9}}
\newlabeldata{l3pdf312}{{abspage}{14}}
\newlabeldata{mcid-339}{{tagabspage}{14}{tagmcabs}{339}{tagmcid}{10}}
\newlabeldata{l3pdf313}{{abspage}{14}}
\newlabeldata{mcid-340}{{tagabspage}{14}{tagmcabs}{340}{tagmcid}{11}}
\newlabeldata{l3pdf314}{{abspage}{14}}
\newlabeldata{mcid-341}{{tagabspage}{14}{tagmcabs}{341}{tagmcid}{12}}
\newlabeldata{l3pdf315}{{abspage}{14}}
\newlabeldata{mcid-342}{{tagabspage}{14}{tagmcabs}{342}{tagmcid}{13}}
\newlabeldata{l3pdf316}{{abspage}{14}}
\newlabeldata{mcid-343}{{tagabspage}{14}{tagmcabs}{343}{tagmcid}{14}}
\newlabeldata{l3pdf317}{{abspage}{14}}
\newlabeldata{mcid-344}{{tagabspage}{14}{tagmcabs}{344}{tagmcid}{15}}
\newlabeldata{l3pdf318}{{abspage}{14}}
\@writefile{nav}{\headcommand {\slideentry {7}{2}{2}{14/14}{Naming Variables, Functions and Types}{0}}}
\@writefile{nav}{\headcommand {\beamer@framepages {14}{14}}}
\newlabeldata{mcid-362}{{tagabspage}{15}{tagmcabs}{362}{tagmcid}{14}}
\newlabeldata{l3pdf334}{{abspage}{15}}
\newlabeldata{mcid-348}{{tagabspage}{15}{tagmcabs}{348}{tagmcid}{0}}
\newlabeldata{l3pdf320}{{abspage}{15}}
\newlabeldata{mcid-349}{{tagabspage}{15}{tagmcabs}{349}{tagmcid}{1}}
\newlabeldata{l3pdf321}{{abspage}{15}}
\newlabeldata{mcid-350}{{tagabspage}{15}{tagmcabs}{350}{tagmcid}{2}}
\newlabeldata{l3pdf322}{{abspage}{15}}
\newlabeldata{mcid-351}{{tagabspage}{15}{tagmcabs}{351}{tagmcid}{3}}
\newlabeldata{l3pdf323}{{abspage}{15}}
\newlabeldata{mcid-352}{{tagabspage}{15}{tagmcabs}{352}{tagmcid}{4}}
\newlabeldata{l3pdf324}{{abspage}{15}}
\newlabeldata{mcid-353}{{tagabspage}{15}{tagmcabs}{353}{tagmcid}{5}}
\newlabeldata{l3pdf325}{{abspage}{15}}
\newlabeldata{mcid-354}{{tagabspage}{15}{tagmcabs}{354}{tagmcid}{6}}
\newlabeldata{l3pdf326}{{abspage}{15}}
\newlabeldata{mcid-355}{{tagabspage}{15}{tagmcabs}{355}{tagmcid}{7}}
\newlabeldata{l3pdf327}{{abspage}{15}}
\newlabeldata{mcid-356}{{tagabspage}{15}{tagmcabs}{356}{tagmcid}{8}}
\newlabeldata{l3pdf328}{{abspage}{15}}
\newlabeldata{mcid-357}{{tagabspage}{15}{tagmcabs}{357}{tagmcid}{9}}
\newlabeldata{l3pdf329}{{abspage}{15}}
\newlabeldata{mcid-358}{{tagabspage}{15}{tagmcabs}{358}{tagmcid}{10}}
\newlabeldata{l3pdf330}{{abspage}{15}}
\newlabeldata{mcid-359}{{tagabspage}{15}{tagmcabs}{359}{tagmcid}{11}}
\newlabeldata{l3pdf331}{{abspage}{15}}
\newlabeldata{mcid-360}{{tagabspage}{15}{tagmcabs}{360}{tagmcid}{12}}
\newlabeldata{l3pdf332}{{abspage}{15}}
\newlabeldata{mcid-361}{{tagabspage}{15}{tagmcabs}{361}{tagmcid}{13}}
\newlabeldata{l3pdf333}{{abspage}{15}}
\@writefile{nav}{\headcommand {\slideentry {7}{2}{3}{15/15}{Naming Variables, Functions and Types}{0}}}
\@writefile{nav}{\headcommand {\beamer@framepages {15}{15}}}
\BKM@entry{id=14,open,dest={4F75746C696E65302E372E332E3136},srcline={589}}{5C3337365C3337375C303030435C3030306F5C3030306D5C3030306D5C303030655C3030306E5C303030745C303030695C3030306E5C303030675C3030305C3034305C303030525C303030655C303030675C303030695C3030306F5C3030306E5C303030735C3030305C3034305C3030306F5C303030665C3030305C3034305C303030525C303030655C3030306C5C303030615C303030745C303030655C303030645C3030305C3034305C303030435C3030306F5C303030645C30303065}
\@writefile{toc}{\beamer@subsectionintoc {7}{3}{Commenting Regions of Related Code}{16}{0}{7}}
\@writefile{nav}{\headcommand {\beamer@subsectionpages {13}{15}}}
\@writefile{nav}{\headcommand {\beamer@subsectionentry {0}{7}{3}{16}{Commenting Regions of Related Code}}}
\newlabeldata{mcid-401}{{tagabspage}{16}{tagmcabs}{401}{tagmcid}{36}}
\newlabeldata{l3pdf371}{{abspage}{16}}
\newlabeldata{mcid-365}{{tagabspage}{16}{tagmcabs}{365}{tagmcid}{0}}
\newlabeldata{l3pdf335}{{abspage}{16}}
\newlabeldata{mcid-366}{{tagabspage}{16}{tagmcabs}{366}{tagmcid}{1}}
\newlabeldata{l3pdf336}{{abspage}{16}}
\newlabeldata{mcid-367}{{tagabspage}{16}{tagmcabs}{367}{tagmcid}{2}}
\newlabeldata{l3pdf337}{{abspage}{16}}
\newlabeldata{mcid-368}{{tagabspage}{16}{tagmcabs}{368}{tagmcid}{3}}
\newlabeldata{l3pdf338}{{abspage}{16}}
\newlabeldata{mcid-369}{{tagabspage}{16}{tagmcabs}{369}{tagmcid}{4}}
\newlabeldata{l3pdf339}{{abspage}{16}}
\newlabeldata{mcid-370}{{tagabspage}{16}{tagmcabs}{370}{tagmcid}{5}}
\newlabeldata{l3pdf340}{{abspage}{16}}
\newlabeldata{mcid-371}{{tagabspage}{16}{tagmcabs}{371}{tagmcid}{6}}
\newlabeldata{l3pdf341}{{abspage}{16}}
\newlabeldata{mcid-372}{{tagabspage}{16}{tagmcabs}{372}{tagmcid}{7}}
\newlabeldata{l3pdf342}{{abspage}{16}}
\newlabeldata{mcid-373}{{tagabspage}{16}{tagmcabs}{373}{tagmcid}{8}}
\newlabeldata{l3pdf343}{{abspage}{16}}
\newlabeldata{mcid-374}{{tagabspage}{16}{tagmcabs}{374}{tagmcid}{9}}
\newlabeldata{l3pdf344}{{abspage}{16}}
\newlabeldata{mcid-375}{{tagabspage}{16}{tagmcabs}{375}{tagmcid}{10}}
\newlabeldata{l3pdf345}{{abspage}{16}}
\newlabeldata{mcid-376}{{tagabspage}{16}{tagmcabs}{376}{tagmcid}{11}}
\newlabeldata{l3pdf346}{{abspage}{16}}
\newlabeldata{mcid-377}{{tagabspage}{16}{tagmcabs}{377}{tagmcid}{12}}
\newlabeldata{l3pdf347}{{abspage}{16}}
\newlabeldata{mcid-378}{{tagabspage}{16}{tagmcabs}{378}{tagmcid}{13}}
\newlabeldata{l3pdf348}{{abspage}{16}}
\newlabeldata{mcid-379}{{tagabspage}{16}{tagmcabs}{379}{tagmcid}{14}}
\newlabeldata{l3pdf349}{{abspage}{16}}
\newlabeldata{mcid-380}{{tagabspage}{16}{tagmcabs}{380}{tagmcid}{15}}
\newlabeldata{l3pdf350}{{abspage}{16}}
\newlabeldata{mcid-381}{{tagabspage}{16}{tagmcabs}{381}{tagmcid}{16}}
\newlabeldata{l3pdf351}{{abspage}{16}}
\newlabeldata{mcid-382}{{tagabspage}{16}{tagmcabs}{382}{tagmcid}{17}}
\newlabeldata{l3pdf352}{{abspage}{16}}
\newlabeldata{mcid-383}{{tagabspage}{16}{tagmcabs}{383}{tagmcid}{18}}
\newlabeldata{l3pdf353}{{abspage}{16}}
\newlabeldata{mcid-384}{{tagabspage}{16}{tagmcabs}{384}{tagmcid}{19}}
\newlabeldata{l3pdf354}{{abspage}{16}}
\newlabeldata{mcid-385}{{tagabspage}{16}{tagmcabs}{385}{tagmcid}{20}}
\newlabeldata{l3pdf355}{{abspage}{16}}
\newlabeldata{mcid-386}{{tagabspage}{16}{tagmcabs}{386}{tagmcid}{21}}
\newlabeldata{l3pdf356}{{abspage}{16}}
\newlabeldata{mcid-387}{{tagabspage}{16}{tagmcabs}{387}{tagmcid}{22}}
\newlabeldata{l3pdf357}{{abspage}{16}}
\newlabeldata{mcid-388}{{tagabspage}{16}{tagmcabs}{388}{tagmcid}{23}}
\newlabeldata{l3pdf358}{{abspage}{16}}
\newlabeldata{mcid-389}{{tagabspage}{16}{tagmcabs}{389}{tagmcid}{24}}
\newlabeldata{l3pdf359}{{abspage}{16}}
\newlabeldata{mcid-390}{{tagabspage}{16}{tagmcabs}{390}{tagmcid}{25}}
\newlabeldata{l3pdf360}{{abspage}{16}}
\newlabeldata{mcid-391}{{tagabspage}{16}{tagmcabs}{391}{tagmcid}{26}}
\newlabeldata{l3pdf361}{{abspage}{16}}
\newlabeldata{mcid-392}{{tagabspage}{16}{tagmcabs}{392}{tagmcid}{27}}
\newlabeldata{l3pdf362}{{abspage}{16}}
\newlabeldata{mcid-393}{{tagabspage}{16}{tagmcabs}{393}{tagmcid}{28}}
\newlabeldata{l3pdf363}{{abspage}{16}}
\newlabeldata{mcid-394}{{tagabspage}{16}{tagmcabs}{394}{tagmcid}{29}}
\newlabeldata{l3pdf364}{{abspage}{16}}
\newlabeldata{mcid-395}{{tagabspage}{16}{tagmcabs}{395}{tagmcid}{30}}
\newlabeldata{l3pdf365}{{abspage}{16}}
\newlabeldata{mcid-396}{{tagabspage}{16}{tagmcabs}{396}{tagmcid}{31}}
\newlabeldata{l3pdf366}{{abspage}{16}}
\newlabeldata{mcid-397}{{tagabspage}{16}{tagmcabs}{397}{tagmcid}{32}}
\newlabeldata{l3pdf367}{{abspage}{16}}
\newlabeldata{mcid-398}{{tagabspage}{16}{tagmcabs}{398}{tagmcid}{33}}
\newlabeldata{l3pdf368}{{abspage}{16}}
\newlabeldata{mcid-399}{{tagabspage}{16}{tagmcabs}{399}{tagmcid}{34}}
\newlabeldata{l3pdf369}{{abspage}{16}}
\newlabeldata{mcid-400}{{tagabspage}{16}{tagmcabs}{400}{tagmcid}{35}}
\newlabeldata{l3pdf370}{{abspage}{16}}
\@writefile{nav}{\headcommand {\slideentry {7}{3}{1}{16/16}{Commenting Regions of Related Code}{0}}}
\@writefile{nav}{\headcommand {\beamer@framepages {16}{16}}}
\BKM@entry{id=15,open,dest={4F75746C696E65302E38},srcline={646}}{5C3337365C3337375C303030465C3030306F5C303030725C3030306D5C303030615C303030745C303030745C303030695C3030306E5C30303067}
\BKM@entry{id=16,open,dest={4F75746C696E65302E382E312E3137},srcline={647}}{5C3337365C3337375C303030315C303030325C303030305C3030305C3034305C303030635C303030685C303030615C303030725C303030615C303030635C303030745C303030655C303030725C3030302D5C303030705C303030655C303030725C3030302D5C3030306C5C303030695C3030306E5C303030655C3030305C3034305C3030306C5C303030695C3030306D5C303030695C30303074}
\@writefile{toc}{\beamer@sectionintoc {8}{Formatting}{17}{0}{8}}
\@writefile{nav}{\headcommand {\beamer@sectionpages {12}{16}}}
\@writefile{nav}{\headcommand {\beamer@subsectionpages {16}{16}}}
\@writefile{nav}{\headcommand {\sectionentry {8}{Formatting}{17}{Formatting}{0}}}
\@writefile{toc}{\beamer@subsectionintoc {8}{1}{120 character-per-line limit}{17}{0}{8}}
\@writefile{nav}{\headcommand {\beamer@subsectionpages {17}{16}}}
\@writefile{nav}{\headcommand {\beamer@subsectionentry {0}{8}{1}{17}{120 character-per-line limit}}}
\newlabeldata{mcid-409}{{tagabspage}{17}{tagmcabs}{409}{tagmcid}{5}}
\newlabeldata{l3pdf377}{{abspage}{17}}
\newlabeldata{mcid-404}{{tagabspage}{17}{tagmcabs}{404}{tagmcid}{0}}
\newlabeldata{l3pdf372}{{abspage}{17}}
\newlabeldata{mcid-405}{{tagabspage}{17}{tagmcabs}{405}{tagmcid}{1}}
\newlabeldata{l3pdf373}{{abspage}{17}}
\newlabeldata{mcid-406}{{tagabspage}{17}{tagmcabs}{406}{tagmcid}{2}}
\newlabeldata{l3pdf374}{{abspage}{17}}
\newlabeldata{mcid-407}{{tagabspage}{17}{tagmcabs}{407}{tagmcid}{3}}
\newlabeldata{l3pdf375}{{abspage}{17}}
\newlabeldata{mcid-408}{{tagabspage}{17}{tagmcabs}{408}{tagmcid}{4}}
\newlabeldata{l3pdf376}{{abspage}{17}}
\@writefile{nav}{\headcommand {\slideentry {8}{1}{1}{17/17}{120 character-per-line limit}{0}}}
\@writefile{nav}{\headcommand {\beamer@framepages {17}{17}}}
\newlabeldata{mcid-419}{{tagabspage}{18}{tagmcabs}{419}{tagmcid}{7}}
\newlabeldata{l3pdf385}{{abspage}{18}}
\newlabeldata{mcid-412}{{tagabspage}{18}{tagmcabs}{412}{tagmcid}{0}}
\newlabeldata{l3pdf378}{{abspage}{18}}
\newlabeldata{mcid-413}{{tagabspage}{18}{tagmcabs}{413}{tagmcid}{1}}
\newlabeldata{l3pdf379}{{abspage}{18}}
\newlabeldata{mcid-414}{{tagabspage}{18}{tagmcabs}{414}{tagmcid}{2}}
\newlabeldata{l3pdf380}{{abspage}{18}}
\newlabeldata{mcid-415}{{tagabspage}{18}{tagmcabs}{415}{tagmcid}{3}}
\newlabeldata{l3pdf381}{{abspage}{18}}
\newlabeldata{mcid-416}{{tagabspage}{18}{tagmcabs}{416}{tagmcid}{4}}
\newlabeldata{l3pdf382}{{abspage}{18}}
\newlabeldata{mcid-417}{{tagabspage}{18}{tagmcabs}{417}{tagmcid}{5}}
\newlabeldata{l3pdf383}{{abspage}{18}}
\newlabeldata{mcid-418}{{tagabspage}{18}{tagmcabs}{418}{tagmcid}{6}}
\newlabeldata{l3pdf384}{{abspage}{18}}
\@writefile{nav}{\headcommand {\slideentry {8}{1}{2}{18/18}{120 character-per-line limit}{0}}}
\@writefile{nav}{\headcommand {\beamer@framepages {18}{18}}}
\BKM@entry{id=17,open,dest={4F75746C696E65302E382E322E3139},srcline={683}}{5C3337365C3337375C303030425C303030725C303030615C303030635C303030655C3030305C3034305C303030505C3030306C5C303030615C303030635C303030655C3030306D5C303030655C3030306E5C303030745C3030305C3034305C303030665C3030306F5C303030725C3030305C3034305C3030304E5C3030306F5C3030306E5C3030302D5C303030435C3030306F5C3030306E5C303030745C303030725C3030306F5C3030306C5C3030305C3034305C303030535C303030745C303030725C303030755C303030635C303030745C303030755C303030725C303030655C30303073}
\@writefile{toc}{\beamer@subsectionintoc {8}{2}{Brace Placement for Non-Control Structures}{19}{0}{8}}
\@writefile{nav}{\headcommand {\beamer@subsectionpages {17}{18}}}
\@writefile{nav}{\headcommand {\beamer@subsectionentry {0}{8}{2}{19}{Brace Placement for Non-Control Structures}}}
\newlabeldata{mcid-465}{{tagabspage}{19}{tagmcabs}{465}{tagmcid}{43}}
\newlabeldata{l3pdf429}{{abspage}{19}}
\newlabeldata{mcid-422}{{tagabspage}{19}{tagmcabs}{422}{tagmcid}{0}}
\newlabeldata{l3pdf386}{{abspage}{19}}
\newlabeldata{mcid-423}{{tagabspage}{19}{tagmcabs}{423}{tagmcid}{1}}
\newlabeldata{l3pdf387}{{abspage}{19}}
\newlabeldata{mcid-424}{{tagabspage}{19}{tagmcabs}{424}{tagmcid}{2}}
\newlabeldata{l3pdf388}{{abspage}{19}}
\newlabeldata{mcid-425}{{tagabspage}{19}{tagmcabs}{425}{tagmcid}{3}}
\newlabeldata{l3pdf389}{{abspage}{19}}
\newlabeldata{mcid-426}{{tagabspage}{19}{tagmcabs}{426}{tagmcid}{4}}
\newlabeldata{l3pdf390}{{abspage}{19}}
\newlabeldata{mcid-427}{{tagabspage}{19}{tagmcabs}{427}{tagmcid}{5}}
\newlabeldata{l3pdf391}{{abspage}{19}}
\newlabeldata{mcid-428}{{tagabspage}{19}{tagmcabs}{428}{tagmcid}{6}}
\newlabeldata{l3pdf392}{{abspage}{19}}
\newlabeldata{mcid-429}{{tagabspage}{19}{tagmcabs}{429}{tagmcid}{7}}
\newlabeldata{l3pdf393}{{abspage}{19}}
\newlabeldata{mcid-430}{{tagabspage}{19}{tagmcabs}{430}{tagmcid}{8}}
\newlabeldata{l3pdf394}{{abspage}{19}}
\newlabeldata{mcid-431}{{tagabspage}{19}{tagmcabs}{431}{tagmcid}{9}}
\newlabeldata{l3pdf395}{{abspage}{19}}
\newlabeldata{mcid-432}{{tagabspage}{19}{tagmcabs}{432}{tagmcid}{10}}
\newlabeldata{l3pdf396}{{abspage}{19}}
\newlabeldata{mcid-433}{{tagabspage}{19}{tagmcabs}{433}{tagmcid}{11}}
\newlabeldata{l3pdf397}{{abspage}{19}}
\newlabeldata{mcid-434}{{tagabspage}{19}{tagmcabs}{434}{tagmcid}{12}}
\newlabeldata{l3pdf398}{{abspage}{19}}
\newlabeldata{mcid-435}{{tagabspage}{19}{tagmcabs}{435}{tagmcid}{13}}
\newlabeldata{l3pdf399}{{abspage}{19}}
\newlabeldata{mcid-436}{{tagabspage}{19}{tagmcabs}{436}{tagmcid}{14}}
\newlabeldata{l3pdf400}{{abspage}{19}}
\newlabeldata{mcid-437}{{tagabspage}{19}{tagmcabs}{437}{tagmcid}{15}}
\newlabeldata{l3pdf401}{{abspage}{19}}
\newlabeldata{mcid-438}{{tagabspage}{19}{tagmcabs}{438}{tagmcid}{16}}
\newlabeldata{l3pdf402}{{abspage}{19}}
\newlabeldata{mcid-439}{{tagabspage}{19}{tagmcabs}{439}{tagmcid}{17}}
\newlabeldata{l3pdf403}{{abspage}{19}}
\newlabeldata{mcid-440}{{tagabspage}{19}{tagmcabs}{440}{tagmcid}{18}}
\newlabeldata{l3pdf404}{{abspage}{19}}
\newlabeldata{mcid-441}{{tagabspage}{19}{tagmcabs}{441}{tagmcid}{19}}
\newlabeldata{l3pdf405}{{abspage}{19}}
\newlabeldata{mcid-442}{{tagabspage}{19}{tagmcabs}{442}{tagmcid}{20}}
\newlabeldata{l3pdf406}{{abspage}{19}}
\newlabeldata{mcid-443}{{tagabspage}{19}{tagmcabs}{443}{tagmcid}{21}}
\newlabeldata{l3pdf407}{{abspage}{19}}
\newlabeldata{mcid-444}{{tagabspage}{19}{tagmcabs}{444}{tagmcid}{22}}
\newlabeldata{l3pdf408}{{abspage}{19}}
\newlabeldata{mcid-445}{{tagabspage}{19}{tagmcabs}{445}{tagmcid}{23}}
\newlabeldata{l3pdf409}{{abspage}{19}}
\newlabeldata{mcid-446}{{tagabspage}{19}{tagmcabs}{446}{tagmcid}{24}}
\newlabeldata{l3pdf410}{{abspage}{19}}
\newlabeldata{mcid-447}{{tagabspage}{19}{tagmcabs}{447}{tagmcid}{25}}
\newlabeldata{l3pdf411}{{abspage}{19}}
\newlabeldata{mcid-448}{{tagabspage}{19}{tagmcabs}{448}{tagmcid}{26}}
\newlabeldata{l3pdf412}{{abspage}{19}}
\newlabeldata{mcid-449}{{tagabspage}{19}{tagmcabs}{449}{tagmcid}{27}}
\newlabeldata{l3pdf413}{{abspage}{19}}
\newlabeldata{mcid-450}{{tagabspage}{19}{tagmcabs}{450}{tagmcid}{28}}
\newlabeldata{l3pdf414}{{abspage}{19}}
\newlabeldata{mcid-451}{{tagabspage}{19}{tagmcabs}{451}{tagmcid}{29}}
\newlabeldata{l3pdf415}{{abspage}{19}}
\newlabeldata{mcid-452}{{tagabspage}{19}{tagmcabs}{452}{tagmcid}{30}}
\newlabeldata{l3pdf416}{{abspage}{19}}
\newlabeldata{mcid-453}{{tagabspage}{19}{tagmcabs}{453}{tagmcid}{31}}
\newlabeldata{l3pdf417}{{abspage}{19}}
\newlabeldata{mcid-454}{{tagabspage}{19}{tagmcabs}{454}{tagmcid}{32}}
\newlabeldata{l3pdf418}{{abspage}{19}}
\newlabeldata{mcid-455}{{tagabspage}{19}{tagmcabs}{455}{tagmcid}{33}}
\newlabeldata{l3pdf419}{{abspage}{19}}
\newlabeldata{mcid-456}{{tagabspage}{19}{tagmcabs}{456}{tagmcid}{34}}
\newlabeldata{l3pdf420}{{abspage}{19}}
\newlabeldata{mcid-457}{{tagabspage}{19}{tagmcabs}{457}{tagmcid}{35}}
\newlabeldata{l3pdf421}{{abspage}{19}}
\newlabeldata{mcid-458}{{tagabspage}{19}{tagmcabs}{458}{tagmcid}{36}}
\newlabeldata{l3pdf422}{{abspage}{19}}
\newlabeldata{mcid-459}{{tagabspage}{19}{tagmcabs}{459}{tagmcid}{37}}
\newlabeldata{l3pdf423}{{abspage}{19}}
\newlabeldata{mcid-460}{{tagabspage}{19}{tagmcabs}{460}{tagmcid}{38}}
\newlabeldata{l3pdf424}{{abspage}{19}}
\newlabeldata{mcid-461}{{tagabspage}{19}{tagmcabs}{461}{tagmcid}{39}}
\newlabeldata{l3pdf425}{{abspage}{19}}
\newlabeldata{mcid-462}{{tagabspage}{19}{tagmcabs}{462}{tagmcid}{40}}
\newlabeldata{l3pdf426}{{abspage}{19}}
\newlabeldata{mcid-463}{{tagabspage}{19}{tagmcabs}{463}{tagmcid}{41}}
\newlabeldata{l3pdf427}{{abspage}{19}}
\newlabeldata{mcid-464}{{tagabspage}{19}{tagmcabs}{464}{tagmcid}{42}}
\newlabeldata{l3pdf428}{{abspage}{19}}
\@writefile{nav}{\headcommand {\slideentry {8}{2}{1}{19/19}{Brace Placement for Non-Control Structures}{0}}}
\@writefile{nav}{\headcommand {\beamer@framepages {19}{19}}}
\BKM@entry{id=18,open,dest={4F75746C696E65302E382E332E3230},srcline={740}}{5C3337365C3337375C303030425C303030725C303030615C303030635C303030655C3030305C3034305C303030505C3030306C5C303030615C303030635C303030655C3030306D5C303030655C3030306E5C303030745C3030305C3034305C303030665C3030306F5C303030725C3030305C3034305C303030435C3030306F5C3030306E5C303030745C303030725C3030306F5C3030306C5C3030305C3034305C303030535C303030745C303030725C303030755C303030635C303030745C303030755C303030725C303030655C30303073}
\@writefile{toc}{\beamer@subsectionintoc {8}{3}{Brace Placement for Control Structures}{20}{0}{8}}
\@writefile{nav}{\headcommand {\beamer@subsectionpages {19}{19}}}
\@writefile{nav}{\headcommand {\beamer@subsectionentry {0}{8}{3}{20}{Brace Placement for Control Structures}}}
\newlabeldata{mcid-505}{{tagabspage}{20}{tagmcabs}{505}{tagmcid}{37}}
\newlabeldata{l3pdf467}{{abspage}{20}}
\newlabeldata{mcid-468}{{tagabspage}{20}{tagmcabs}{468}{tagmcid}{0}}
\newlabeldata{l3pdf430}{{abspage}{20}}
\newlabeldata{mcid-469}{{tagabspage}{20}{tagmcabs}{469}{tagmcid}{1}}
\newlabeldata{l3pdf431}{{abspage}{20}}
\newlabeldata{mcid-470}{{tagabspage}{20}{tagmcabs}{470}{tagmcid}{2}}
\newlabeldata{l3pdf432}{{abspage}{20}}
\newlabeldata{mcid-471}{{tagabspage}{20}{tagmcabs}{471}{tagmcid}{3}}
\newlabeldata{l3pdf433}{{abspage}{20}}
\newlabeldata{mcid-472}{{tagabspage}{20}{tagmcabs}{472}{tagmcid}{4}}
\newlabeldata{l3pdf434}{{abspage}{20}}
\newlabeldata{mcid-473}{{tagabspage}{20}{tagmcabs}{473}{tagmcid}{5}}
\newlabeldata{l3pdf435}{{abspage}{20}}
\newlabeldata{mcid-474}{{tagabspage}{20}{tagmcabs}{474}{tagmcid}{6}}
\newlabeldata{l3pdf436}{{abspage}{20}}
\newlabeldata{mcid-475}{{tagabspage}{20}{tagmcabs}{475}{tagmcid}{7}}
\newlabeldata{l3pdf437}{{abspage}{20}}
\newlabeldata{mcid-476}{{tagabspage}{20}{tagmcabs}{476}{tagmcid}{8}}
\newlabeldata{l3pdf438}{{abspage}{20}}
\newlabeldata{mcid-477}{{tagabspage}{20}{tagmcabs}{477}{tagmcid}{9}}
\newlabeldata{l3pdf439}{{abspage}{20}}
\newlabeldata{mcid-478}{{tagabspage}{20}{tagmcabs}{478}{tagmcid}{10}}
\newlabeldata{l3pdf440}{{abspage}{20}}
\newlabeldata{mcid-479}{{tagabspage}{20}{tagmcabs}{479}{tagmcid}{11}}
\newlabeldata{l3pdf441}{{abspage}{20}}
\newlabeldata{mcid-480}{{tagabspage}{20}{tagmcabs}{480}{tagmcid}{12}}
\newlabeldata{l3pdf442}{{abspage}{20}}
\newlabeldata{mcid-481}{{tagabspage}{20}{tagmcabs}{481}{tagmcid}{13}}
\newlabeldata{l3pdf443}{{abspage}{20}}
\newlabeldata{mcid-482}{{tagabspage}{20}{tagmcabs}{482}{tagmcid}{14}}
\newlabeldata{l3pdf444}{{abspage}{20}}
\newlabeldata{mcid-483}{{tagabspage}{20}{tagmcabs}{483}{tagmcid}{15}}
\newlabeldata{l3pdf445}{{abspage}{20}}
\newlabeldata{mcid-484}{{tagabspage}{20}{tagmcabs}{484}{tagmcid}{16}}
\newlabeldata{l3pdf446}{{abspage}{20}}
\newlabeldata{mcid-485}{{tagabspage}{20}{tagmcabs}{485}{tagmcid}{17}}
\newlabeldata{l3pdf447}{{abspage}{20}}
\newlabeldata{mcid-486}{{tagabspage}{20}{tagmcabs}{486}{tagmcid}{18}}
\newlabeldata{l3pdf448}{{abspage}{20}}
\newlabeldata{mcid-487}{{tagabspage}{20}{tagmcabs}{487}{tagmcid}{19}}
\newlabeldata{l3pdf449}{{abspage}{20}}
\newlabeldata{mcid-488}{{tagabspage}{20}{tagmcabs}{488}{tagmcid}{20}}
\newlabeldata{l3pdf450}{{abspage}{20}}
\newlabeldata{mcid-489}{{tagabspage}{20}{tagmcabs}{489}{tagmcid}{21}}
\newlabeldata{l3pdf451}{{abspage}{20}}
\newlabeldata{mcid-490}{{tagabspage}{20}{tagmcabs}{490}{tagmcid}{22}}
\newlabeldata{l3pdf452}{{abspage}{20}}
\newlabeldata{mcid-491}{{tagabspage}{20}{tagmcabs}{491}{tagmcid}{23}}
\newlabeldata{l3pdf453}{{abspage}{20}}
\newlabeldata{mcid-492}{{tagabspage}{20}{tagmcabs}{492}{tagmcid}{24}}
\newlabeldata{l3pdf454}{{abspage}{20}}
\newlabeldata{mcid-493}{{tagabspage}{20}{tagmcabs}{493}{tagmcid}{25}}
\newlabeldata{l3pdf455}{{abspage}{20}}
\newlabeldata{mcid-494}{{tagabspage}{20}{tagmcabs}{494}{tagmcid}{26}}
\newlabeldata{l3pdf456}{{abspage}{20}}
\newlabeldata{mcid-495}{{tagabspage}{20}{tagmcabs}{495}{tagmcid}{27}}
\newlabeldata{l3pdf457}{{abspage}{20}}
\newlabeldata{mcid-496}{{tagabspage}{20}{tagmcabs}{496}{tagmcid}{28}}
\newlabeldata{l3pdf458}{{abspage}{20}}
\newlabeldata{mcid-497}{{tagabspage}{20}{tagmcabs}{497}{tagmcid}{29}}
\newlabeldata{l3pdf459}{{abspage}{20}}
\newlabeldata{mcid-498}{{tagabspage}{20}{tagmcabs}{498}{tagmcid}{30}}
\newlabeldata{l3pdf460}{{abspage}{20}}
\newlabeldata{mcid-499}{{tagabspage}{20}{tagmcabs}{499}{tagmcid}{31}}
\newlabeldata{l3pdf461}{{abspage}{20}}
\newlabeldata{mcid-500}{{tagabspage}{20}{tagmcabs}{500}{tagmcid}{32}}
\newlabeldata{l3pdf462}{{abspage}{20}}
\newlabeldata{mcid-501}{{tagabspage}{20}{tagmcabs}{501}{tagmcid}{33}}
\newlabeldata{l3pdf463}{{abspage}{20}}
\newlabeldata{mcid-502}{{tagabspage}{20}{tagmcabs}{502}{tagmcid}{34}}
\newlabeldata{l3pdf464}{{abspage}{20}}
\newlabeldata{mcid-503}{{tagabspage}{20}{tagmcabs}{503}{tagmcid}{35}}
\newlabeldata{l3pdf465}{{abspage}{20}}
\newlabeldata{mcid-504}{{tagabspage}{20}{tagmcabs}{504}{tagmcid}{36}}
\newlabeldata{l3pdf466}{{abspage}{20}}
\@writefile{nav}{\headcommand {\slideentry {8}{3}{1}{20/20}{Brace Placement for Control Structures}{0}}}
\@writefile{nav}{\headcommand {\beamer@framepages {20}{20}}}
\BKM@entry{id=19,open,dest={4F75746C696E65302E382E342E3231},srcline={791}}{5C3337365C3337375C303030495C3030306E5C303030645C303030655C3030306E5C303030745C303030615C303030745C303030695C3030306F5C3030306E}
\@writefile{toc}{\beamer@subsectionintoc {8}{4}{Indentation}{21}{0}{8}}
\@writefile{nav}{\headcommand {\beamer@subsectionpages {20}{20}}}
\@writefile{nav}{\headcommand {\beamer@subsectionentry {0}{8}{4}{21}{Indentation}}}
\newlabeldata{mcid-545}{{tagabspage}{21}{tagmcabs}{545}{tagmcid}{37}}
\newlabeldata{l3pdf505}{{abspage}{21}}
\newlabeldata{mcid-508}{{tagabspage}{21}{tagmcabs}{508}{tagmcid}{0}}
\newlabeldata{l3pdf468}{{abspage}{21}}
\newlabeldata{mcid-509}{{tagabspage}{21}{tagmcabs}{509}{tagmcid}{1}}
\newlabeldata{l3pdf469}{{abspage}{21}}
\newlabeldata{mcid-510}{{tagabspage}{21}{tagmcabs}{510}{tagmcid}{2}}
\newlabeldata{l3pdf470}{{abspage}{21}}
\newlabeldata{mcid-511}{{tagabspage}{21}{tagmcabs}{511}{tagmcid}{3}}
\newlabeldata{l3pdf471}{{abspage}{21}}
\newlabeldata{mcid-512}{{tagabspage}{21}{tagmcabs}{512}{tagmcid}{4}}
\newlabeldata{l3pdf472}{{abspage}{21}}
\newlabeldata{mcid-513}{{tagabspage}{21}{tagmcabs}{513}{tagmcid}{5}}
\newlabeldata{l3pdf473}{{abspage}{21}}
\newlabeldata{mcid-514}{{tagabspage}{21}{tagmcabs}{514}{tagmcid}{6}}
\newlabeldata{l3pdf474}{{abspage}{21}}
\newlabeldata{mcid-515}{{tagabspage}{21}{tagmcabs}{515}{tagmcid}{7}}
\newlabeldata{l3pdf475}{{abspage}{21}}
\newlabeldata{mcid-516}{{tagabspage}{21}{tagmcabs}{516}{tagmcid}{8}}
\newlabeldata{l3pdf476}{{abspage}{21}}
\newlabeldata{mcid-517}{{tagabspage}{21}{tagmcabs}{517}{tagmcid}{9}}
\newlabeldata{l3pdf477}{{abspage}{21}}
\newlabeldata{mcid-518}{{tagabspage}{21}{tagmcabs}{518}{tagmcid}{10}}
\newlabeldata{l3pdf478}{{abspage}{21}}
\newlabeldata{mcid-519}{{tagabspage}{21}{tagmcabs}{519}{tagmcid}{11}}
\newlabeldata{l3pdf479}{{abspage}{21}}
\newlabeldata{mcid-520}{{tagabspage}{21}{tagmcabs}{520}{tagmcid}{12}}
\newlabeldata{l3pdf480}{{abspage}{21}}
\newlabeldata{mcid-521}{{tagabspage}{21}{tagmcabs}{521}{tagmcid}{13}}
\newlabeldata{l3pdf481}{{abspage}{21}}
\newlabeldata{mcid-522}{{tagabspage}{21}{tagmcabs}{522}{tagmcid}{14}}
\newlabeldata{l3pdf482}{{abspage}{21}}
\newlabeldata{mcid-523}{{tagabspage}{21}{tagmcabs}{523}{tagmcid}{15}}
\newlabeldata{l3pdf483}{{abspage}{21}}
\newlabeldata{mcid-524}{{tagabspage}{21}{tagmcabs}{524}{tagmcid}{16}}
\newlabeldata{l3pdf484}{{abspage}{21}}
\newlabeldata{mcid-525}{{tagabspage}{21}{tagmcabs}{525}{tagmcid}{17}}
\newlabeldata{l3pdf485}{{abspage}{21}}
\newlabeldata{mcid-526}{{tagabspage}{21}{tagmcabs}{526}{tagmcid}{18}}
\newlabeldata{l3pdf486}{{abspage}{21}}
\newlabeldata{mcid-527}{{tagabspage}{21}{tagmcabs}{527}{tagmcid}{19}}
\newlabeldata{l3pdf487}{{abspage}{21}}
\newlabeldata{mcid-528}{{tagabspage}{21}{tagmcabs}{528}{tagmcid}{20}}
\newlabeldata{l3pdf488}{{abspage}{21}}
\newlabeldata{mcid-529}{{tagabspage}{21}{tagmcabs}{529}{tagmcid}{21}}
\newlabeldata{l3pdf489}{{abspage}{21}}
\newlabeldata{mcid-530}{{tagabspage}{21}{tagmcabs}{530}{tagmcid}{22}}
\newlabeldata{l3pdf490}{{abspage}{21}}
\newlabeldata{mcid-531}{{tagabspage}{21}{tagmcabs}{531}{tagmcid}{23}}
\newlabeldata{l3pdf491}{{abspage}{21}}
\newlabeldata{mcid-532}{{tagabspage}{21}{tagmcabs}{532}{tagmcid}{24}}
\newlabeldata{l3pdf492}{{abspage}{21}}
\newlabeldata{mcid-533}{{tagabspage}{21}{tagmcabs}{533}{tagmcid}{25}}
\newlabeldata{l3pdf493}{{abspage}{21}}
\newlabeldata{mcid-534}{{tagabspage}{21}{tagmcabs}{534}{tagmcid}{26}}
\newlabeldata{l3pdf494}{{abspage}{21}}
\newlabeldata{mcid-535}{{tagabspage}{21}{tagmcabs}{535}{tagmcid}{27}}
\newlabeldata{l3pdf495}{{abspage}{21}}
\newlabeldata{mcid-536}{{tagabspage}{21}{tagmcabs}{536}{tagmcid}{28}}
\newlabeldata{l3pdf496}{{abspage}{21}}
\newlabeldata{mcid-537}{{tagabspage}{21}{tagmcabs}{537}{tagmcid}{29}}
\newlabeldata{l3pdf497}{{abspage}{21}}
\newlabeldata{mcid-538}{{tagabspage}{21}{tagmcabs}{538}{tagmcid}{30}}
\newlabeldata{l3pdf498}{{abspage}{21}}
\newlabeldata{mcid-539}{{tagabspage}{21}{tagmcabs}{539}{tagmcid}{31}}
\newlabeldata{l3pdf499}{{abspage}{21}}
\newlabeldata{mcid-540}{{tagabspage}{21}{tagmcabs}{540}{tagmcid}{32}}
\newlabeldata{l3pdf500}{{abspage}{21}}
\newlabeldata{mcid-541}{{tagabspage}{21}{tagmcabs}{541}{tagmcid}{33}}
\newlabeldata{l3pdf501}{{abspage}{21}}
\newlabeldata{mcid-542}{{tagabspage}{21}{tagmcabs}{542}{tagmcid}{34}}
\newlabeldata{l3pdf502}{{abspage}{21}}
\newlabeldata{mcid-543}{{tagabspage}{21}{tagmcabs}{543}{tagmcid}{35}}
\newlabeldata{l3pdf503}{{abspage}{21}}
\newlabeldata{mcid-544}{{tagabspage}{21}{tagmcabs}{544}{tagmcid}{36}}
\newlabeldata{l3pdf504}{{abspage}{21}}
\@writefile{nav}{\headcommand {\slideentry {8}{4}{1}{21/21}{Indentation}{0}}}
\@writefile{nav}{\headcommand {\beamer@framepages {21}{21}}}
\BKM@entry{id=20,open,dest={4F75746C696E65302E382E352E3232},srcline={841}}{5C3337365C3337375C303030495C303030645C303030655C3030306E5C303030745C303030695C303030665C303030695C303030655C303030725C30303073}
\@writefile{toc}{\beamer@subsectionintoc {8}{5}{Identifiers}{22}{0}{8}}
\@writefile{nav}{\headcommand {\beamer@subsectionpages {21}{21}}}
\@writefile{nav}{\headcommand {\beamer@subsectionentry {0}{8}{5}{22}{Identifiers}}}
\newlabeldata{mcid-585}{{tagabspage}{22}{tagmcabs}{585}{tagmcid}{37}}
\newlabeldata{l3pdf543}{{abspage}{22}}
\newlabeldata{mcid-548}{{tagabspage}{22}{tagmcabs}{548}{tagmcid}{0}}
\newlabeldata{l3pdf506}{{abspage}{22}}
\newlabeldata{mcid-549}{{tagabspage}{22}{tagmcabs}{549}{tagmcid}{1}}
\newlabeldata{l3pdf507}{{abspage}{22}}
\newlabeldata{mcid-550}{{tagabspage}{22}{tagmcabs}{550}{tagmcid}{2}}
\newlabeldata{l3pdf508}{{abspage}{22}}
\newlabeldata{mcid-551}{{tagabspage}{22}{tagmcabs}{551}{tagmcid}{3}}
\newlabeldata{l3pdf509}{{abspage}{22}}
\newlabeldata{mcid-552}{{tagabspage}{22}{tagmcabs}{552}{tagmcid}{4}}
\newlabeldata{l3pdf510}{{abspage}{22}}
\newlabeldata{mcid-553}{{tagabspage}{22}{tagmcabs}{553}{tagmcid}{5}}
\newlabeldata{l3pdf511}{{abspage}{22}}
\newlabeldata{mcid-554}{{tagabspage}{22}{tagmcabs}{554}{tagmcid}{6}}
\newlabeldata{l3pdf512}{{abspage}{22}}
\newlabeldata{mcid-555}{{tagabspage}{22}{tagmcabs}{555}{tagmcid}{7}}
\newlabeldata{l3pdf513}{{abspage}{22}}
\newlabeldata{mcid-556}{{tagabspage}{22}{tagmcabs}{556}{tagmcid}{8}}
\newlabeldata{l3pdf514}{{abspage}{22}}
\newlabeldata{mcid-557}{{tagabspage}{22}{tagmcabs}{557}{tagmcid}{9}}
\newlabeldata{l3pdf515}{{abspage}{22}}
\newlabeldata{mcid-558}{{tagabspage}{22}{tagmcabs}{558}{tagmcid}{10}}
\newlabeldata{l3pdf516}{{abspage}{22}}
\newlabeldata{mcid-559}{{tagabspage}{22}{tagmcabs}{559}{tagmcid}{11}}
\newlabeldata{l3pdf517}{{abspage}{22}}
\newlabeldata{mcid-560}{{tagabspage}{22}{tagmcabs}{560}{tagmcid}{12}}
\newlabeldata{l3pdf518}{{abspage}{22}}
\newlabeldata{mcid-561}{{tagabspage}{22}{tagmcabs}{561}{tagmcid}{13}}
\newlabeldata{l3pdf519}{{abspage}{22}}
\newlabeldata{mcid-562}{{tagabspage}{22}{tagmcabs}{562}{tagmcid}{14}}
\newlabeldata{l3pdf520}{{abspage}{22}}
\newlabeldata{mcid-563}{{tagabspage}{22}{tagmcabs}{563}{tagmcid}{15}}
\newlabeldata{l3pdf521}{{abspage}{22}}
\newlabeldata{mcid-564}{{tagabspage}{22}{tagmcabs}{564}{tagmcid}{16}}
\newlabeldata{l3pdf522}{{abspage}{22}}
\newlabeldata{mcid-565}{{tagabspage}{22}{tagmcabs}{565}{tagmcid}{17}}
\newlabeldata{l3pdf523}{{abspage}{22}}
\newlabeldata{mcid-566}{{tagabspage}{22}{tagmcabs}{566}{tagmcid}{18}}
\newlabeldata{l3pdf524}{{abspage}{22}}
\newlabeldata{mcid-567}{{tagabspage}{22}{tagmcabs}{567}{tagmcid}{19}}
\newlabeldata{l3pdf525}{{abspage}{22}}
\newlabeldata{mcid-568}{{tagabspage}{22}{tagmcabs}{568}{tagmcid}{20}}
\newlabeldata{l3pdf526}{{abspage}{22}}
\newlabeldata{mcid-569}{{tagabspage}{22}{tagmcabs}{569}{tagmcid}{21}}
\newlabeldata{l3pdf527}{{abspage}{22}}
\newlabeldata{mcid-570}{{tagabspage}{22}{tagmcabs}{570}{tagmcid}{22}}
\newlabeldata{l3pdf528}{{abspage}{22}}
\newlabeldata{mcid-571}{{tagabspage}{22}{tagmcabs}{571}{tagmcid}{23}}
\newlabeldata{l3pdf529}{{abspage}{22}}
\newlabeldata{mcid-572}{{tagabspage}{22}{tagmcabs}{572}{tagmcid}{24}}
\newlabeldata{l3pdf530}{{abspage}{22}}
\newlabeldata{mcid-573}{{tagabspage}{22}{tagmcabs}{573}{tagmcid}{25}}
\newlabeldata{l3pdf531}{{abspage}{22}}
\newlabeldata{mcid-574}{{tagabspage}{22}{tagmcabs}{574}{tagmcid}{26}}
\newlabeldata{l3pdf532}{{abspage}{22}}
\newlabeldata{mcid-575}{{tagabspage}{22}{tagmcabs}{575}{tagmcid}{27}}
\newlabeldata{l3pdf533}{{abspage}{22}}
\newlabeldata{mcid-576}{{tagabspage}{22}{tagmcabs}{576}{tagmcid}{28}}
\newlabeldata{l3pdf534}{{abspage}{22}}
\newlabeldata{mcid-577}{{tagabspage}{22}{tagmcabs}{577}{tagmcid}{29}}
\newlabeldata{l3pdf535}{{abspage}{22}}
\newlabeldata{mcid-578}{{tagabspage}{22}{tagmcabs}{578}{tagmcid}{30}}
\newlabeldata{l3pdf536}{{abspage}{22}}
\newlabeldata{mcid-579}{{tagabspage}{22}{tagmcabs}{579}{tagmcid}{31}}
\newlabeldata{l3pdf537}{{abspage}{22}}
\newlabeldata{mcid-580}{{tagabspage}{22}{tagmcabs}{580}{tagmcid}{32}}
\newlabeldata{l3pdf538}{{abspage}{22}}
\newlabeldata{mcid-581}{{tagabspage}{22}{tagmcabs}{581}{tagmcid}{33}}
\newlabeldata{l3pdf539}{{abspage}{22}}
\newlabeldata{mcid-582}{{tagabspage}{22}{tagmcabs}{582}{tagmcid}{34}}
\newlabeldata{l3pdf540}{{abspage}{22}}
\newlabeldata{mcid-583}{{tagabspage}{22}{tagmcabs}{583}{tagmcid}{35}}
\newlabeldata{l3pdf541}{{abspage}{22}}
\newlabeldata{mcid-584}{{tagabspage}{22}{tagmcabs}{584}{tagmcid}{36}}
\newlabeldata{l3pdf542}{{abspage}{22}}
\@writefile{nav}{\headcommand {\slideentry {8}{5}{1}{22/22}{Identifiers}{0}}}
\@writefile{nav}{\headcommand {\beamer@framepages {22}{22}}}
\BKM@entry{id=21,open,dest={4F75746C696E65302E39},srcline={892}}{5C3337365C3337375C303030505C3030306C5C303030615C303030635C303030655C3030306D5C303030655C3030306E5C30303074}
\BKM@entry{id=22,open,dest={4F75746C696E65302E392E312E3233},srcline={894}}{5C3337365C3337375C303030535C303030745C303030615C303030745C303030655C3030306D5C303030655C3030306E5C303030745C303030735C3030305C3034305C303030615C3030306E5C303030645C3030305C3034305C303030435C3030306F5C3030306E5C303030645C303030695C303030745C303030695C3030306F5C3030306E5C30303073}
\@writefile{toc}{\beamer@sectionintoc {9}{Placement}{23}{0}{9}}
\@writefile{nav}{\headcommand {\beamer@sectionpages {17}{22}}}
\@writefile{nav}{\headcommand {\beamer@subsectionpages {22}{22}}}
\@writefile{nav}{\headcommand {\sectionentry {9}{Placement}{23}{Placement}{0}}}
\@writefile{toc}{\beamer@subsectionintoc {9}{1}{Statements and Conditions}{23}{0}{9}}
\@writefile{nav}{\headcommand {\beamer@subsectionpages {23}{22}}}
\@writefile{nav}{\headcommand {\beamer@subsectionentry {0}{9}{1}{23}{Statements and Conditions}}}
\newlabeldata{mcid-612}{{tagabspage}{23}{tagmcabs}{612}{tagmcid}{24}}
\newlabeldata{l3pdf568}{{abspage}{23}}
\newlabeldata{mcid-588}{{tagabspage}{23}{tagmcabs}{588}{tagmcid}{0}}
\newlabeldata{l3pdf544}{{abspage}{23}}
\newlabeldata{mcid-589}{{tagabspage}{23}{tagmcabs}{589}{tagmcid}{1}}
\newlabeldata{l3pdf545}{{abspage}{23}}
\newlabeldata{mcid-590}{{tagabspage}{23}{tagmcabs}{590}{tagmcid}{2}}
\newlabeldata{l3pdf546}{{abspage}{23}}
\newlabeldata{mcid-591}{{tagabspage}{23}{tagmcabs}{591}{tagmcid}{3}}
\newlabeldata{l3pdf547}{{abspage}{23}}
\newlabeldata{mcid-592}{{tagabspage}{23}{tagmcabs}{592}{tagmcid}{4}}
\newlabeldata{l3pdf548}{{abspage}{23}}
\newlabeldata{mcid-593}{{tagabspage}{23}{tagmcabs}{593}{tagmcid}{5}}
\newlabeldata{l3pdf549}{{abspage}{23}}
\newlabeldata{mcid-594}{{tagabspage}{23}{tagmcabs}{594}{tagmcid}{6}}
\newlabeldata{l3pdf550}{{abspage}{23}}
\newlabeldata{mcid-595}{{tagabspage}{23}{tagmcabs}{595}{tagmcid}{7}}
\newlabeldata{l3pdf551}{{abspage}{23}}
\newlabeldata{mcid-596}{{tagabspage}{23}{tagmcabs}{596}{tagmcid}{8}}
\newlabeldata{l3pdf552}{{abspage}{23}}
\newlabeldata{mcid-597}{{tagabspage}{23}{tagmcabs}{597}{tagmcid}{9}}
\newlabeldata{l3pdf553}{{abspage}{23}}
\newlabeldata{mcid-598}{{tagabspage}{23}{tagmcabs}{598}{tagmcid}{10}}
\newlabeldata{l3pdf554}{{abspage}{23}}
\newlabeldata{mcid-599}{{tagabspage}{23}{tagmcabs}{599}{tagmcid}{11}}
\newlabeldata{l3pdf555}{{abspage}{23}}
\newlabeldata{mcid-600}{{tagabspage}{23}{tagmcabs}{600}{tagmcid}{12}}
\newlabeldata{l3pdf556}{{abspage}{23}}
\newlabeldata{mcid-601}{{tagabspage}{23}{tagmcabs}{601}{tagmcid}{13}}
\newlabeldata{l3pdf557}{{abspage}{23}}
\newlabeldata{mcid-602}{{tagabspage}{23}{tagmcabs}{602}{tagmcid}{14}}
\newlabeldata{l3pdf558}{{abspage}{23}}
\newlabeldata{mcid-603}{{tagabspage}{23}{tagmcabs}{603}{tagmcid}{15}}
\newlabeldata{l3pdf559}{{abspage}{23}}
\newlabeldata{mcid-604}{{tagabspage}{23}{tagmcabs}{604}{tagmcid}{16}}
\newlabeldata{l3pdf560}{{abspage}{23}}
\newlabeldata{mcid-605}{{tagabspage}{23}{tagmcabs}{605}{tagmcid}{17}}
\newlabeldata{l3pdf561}{{abspage}{23}}
\newlabeldata{mcid-606}{{tagabspage}{23}{tagmcabs}{606}{tagmcid}{18}}
\newlabeldata{l3pdf562}{{abspage}{23}}
\newlabeldata{mcid-607}{{tagabspage}{23}{tagmcabs}{607}{tagmcid}{19}}
\newlabeldata{l3pdf563}{{abspage}{23}}
\newlabeldata{mcid-608}{{tagabspage}{23}{tagmcabs}{608}{tagmcid}{20}}
\newlabeldata{l3pdf564}{{abspage}{23}}
\newlabeldata{mcid-609}{{tagabspage}{23}{tagmcabs}{609}{tagmcid}{21}}
\newlabeldata{l3pdf565}{{abspage}{23}}
\newlabeldata{mcid-610}{{tagabspage}{23}{tagmcabs}{610}{tagmcid}{22}}
\newlabeldata{l3pdf566}{{abspage}{23}}
\newlabeldata{mcid-611}{{tagabspage}{23}{tagmcabs}{611}{tagmcid}{23}}
\newlabeldata{l3pdf567}{{abspage}{23}}
\@writefile{nav}{\headcommand {\slideentry {9}{1}{1}{23/23}{Statements and Conditions}{0}}}
\@writefile{nav}{\headcommand {\beamer@framepages {23}{23}}}
\BKM@entry{id=23,open,dest={4F75746C696E65302E392E322E3234},srcline={933}}{5C3337365C3337375C303030505C303030725C3030306F5C303030745C3030306F5C303030745C303030795C303030705C303030655C3030305C3034305C303030475C303030725C3030306F5C303030755C303030705C303030695C3030306E5C30303067}
\@writefile{toc}{\beamer@subsectionintoc {9}{2}{Prototype Grouping}{24}{0}{9}}
\@writefile{nav}{\headcommand {\beamer@subsectionpages {23}{23}}}
\@writefile{nav}{\headcommand {\beamer@subsectionentry {0}{9}{2}{24}{Prototype Grouping}}}
\newlabeldata{mcid-647}{{tagabspage}{24}{tagmcabs}{647}{tagmcid}{32}}
\newlabeldata{l3pdf601}{{abspage}{24}}
\newlabeldata{mcid-615}{{tagabspage}{24}{tagmcabs}{615}{tagmcid}{0}}
\newlabeldata{l3pdf569}{{abspage}{24}}
\newlabeldata{mcid-616}{{tagabspage}{24}{tagmcabs}{616}{tagmcid}{1}}
\newlabeldata{l3pdf570}{{abspage}{24}}
\newlabeldata{mcid-617}{{tagabspage}{24}{tagmcabs}{617}{tagmcid}{2}}
\newlabeldata{l3pdf571}{{abspage}{24}}
\newlabeldata{mcid-618}{{tagabspage}{24}{tagmcabs}{618}{tagmcid}{3}}
\newlabeldata{l3pdf572}{{abspage}{24}}
\newlabeldata{mcid-619}{{tagabspage}{24}{tagmcabs}{619}{tagmcid}{4}}
\newlabeldata{l3pdf573}{{abspage}{24}}
\newlabeldata{mcid-620}{{tagabspage}{24}{tagmcabs}{620}{tagmcid}{5}}
\newlabeldata{l3pdf574}{{abspage}{24}}
\newlabeldata{mcid-621}{{tagabspage}{24}{tagmcabs}{621}{tagmcid}{6}}
\newlabeldata{l3pdf575}{{abspage}{24}}
\newlabeldata{mcid-622}{{tagabspage}{24}{tagmcabs}{622}{tagmcid}{7}}
\newlabeldata{l3pdf576}{{abspage}{24}}
\newlabeldata{mcid-623}{{tagabspage}{24}{tagmcabs}{623}{tagmcid}{8}}
\newlabeldata{l3pdf577}{{abspage}{24}}
\newlabeldata{mcid-624}{{tagabspage}{24}{tagmcabs}{624}{tagmcid}{9}}
\newlabeldata{l3pdf578}{{abspage}{24}}
\newlabeldata{mcid-625}{{tagabspage}{24}{tagmcabs}{625}{tagmcid}{10}}
\newlabeldata{l3pdf579}{{abspage}{24}}
\newlabeldata{mcid-626}{{tagabspage}{24}{tagmcabs}{626}{tagmcid}{11}}
\newlabeldata{l3pdf580}{{abspage}{24}}
\newlabeldata{mcid-627}{{tagabspage}{24}{tagmcabs}{627}{tagmcid}{12}}
\newlabeldata{l3pdf581}{{abspage}{24}}
\newlabeldata{mcid-628}{{tagabspage}{24}{tagmcabs}{628}{tagmcid}{13}}
\newlabeldata{l3pdf582}{{abspage}{24}}
\newlabeldata{mcid-629}{{tagabspage}{24}{tagmcabs}{629}{tagmcid}{14}}
\newlabeldata{l3pdf583}{{abspage}{24}}
\newlabeldata{mcid-630}{{tagabspage}{24}{tagmcabs}{630}{tagmcid}{15}}
\newlabeldata{l3pdf584}{{abspage}{24}}
\newlabeldata{mcid-631}{{tagabspage}{24}{tagmcabs}{631}{tagmcid}{16}}
\newlabeldata{l3pdf585}{{abspage}{24}}
\newlabeldata{mcid-632}{{tagabspage}{24}{tagmcabs}{632}{tagmcid}{17}}
\newlabeldata{l3pdf586}{{abspage}{24}}
\newlabeldata{mcid-633}{{tagabspage}{24}{tagmcabs}{633}{tagmcid}{18}}
\newlabeldata{l3pdf587}{{abspage}{24}}
\newlabeldata{mcid-634}{{tagabspage}{24}{tagmcabs}{634}{tagmcid}{19}}
\newlabeldata{l3pdf588}{{abspage}{24}}
\newlabeldata{mcid-635}{{tagabspage}{24}{tagmcabs}{635}{tagmcid}{20}}
\newlabeldata{l3pdf589}{{abspage}{24}}
\newlabeldata{mcid-636}{{tagabspage}{24}{tagmcabs}{636}{tagmcid}{21}}
\newlabeldata{l3pdf590}{{abspage}{24}}
\newlabeldata{mcid-637}{{tagabspage}{24}{tagmcabs}{637}{tagmcid}{22}}
\newlabeldata{l3pdf591}{{abspage}{24}}
\newlabeldata{mcid-638}{{tagabspage}{24}{tagmcabs}{638}{tagmcid}{23}}
\newlabeldata{l3pdf592}{{abspage}{24}}
\newlabeldata{mcid-639}{{tagabspage}{24}{tagmcabs}{639}{tagmcid}{24}}
\newlabeldata{l3pdf593}{{abspage}{24}}
\newlabeldata{mcid-640}{{tagabspage}{24}{tagmcabs}{640}{tagmcid}{25}}
\newlabeldata{l3pdf594}{{abspage}{24}}
\newlabeldata{mcid-641}{{tagabspage}{24}{tagmcabs}{641}{tagmcid}{26}}
\newlabeldata{l3pdf595}{{abspage}{24}}
\newlabeldata{mcid-642}{{tagabspage}{24}{tagmcabs}{642}{tagmcid}{27}}
\newlabeldata{l3pdf596}{{abspage}{24}}
\newlabeldata{mcid-643}{{tagabspage}{24}{tagmcabs}{643}{tagmcid}{28}}
\newlabeldata{l3pdf597}{{abspage}{24}}
\newlabeldata{mcid-644}{{tagabspage}{24}{tagmcabs}{644}{tagmcid}{29}}
\newlabeldata{l3pdf598}{{abspage}{24}}
\newlabeldata{mcid-645}{{tagabspage}{24}{tagmcabs}{645}{tagmcid}{30}}
\newlabeldata{l3pdf599}{{abspage}{24}}
\newlabeldata{mcid-646}{{tagabspage}{24}{tagmcabs}{646}{tagmcid}{31}}
\newlabeldata{l3pdf600}{{abspage}{24}}
\@writefile{nav}{\headcommand {\slideentry {9}{2}{1}{24/24}{Prototype Grouping}{0}}}
\@writefile{nav}{\headcommand {\beamer@framepages {24}{24}}}
\BKM@entry{id=24,open,dest={4F75746C696E65302E392E332E3235},srcline={979}}{5C3337365C3337375C303030475C303030725C3030306F5C303030755C303030705C303030695C3030306E5C303030675C3030305C3034305C303030525C303030655C3030306C5C303030615C303030745C303030655C303030645C3030305C3034305C303030435C3030306F5C303030645C30303065}
\@writefile{toc}{\beamer@subsectionintoc {9}{3}{Grouping Related Code}{25}{0}{9}}
\@writefile{nav}{\headcommand {\beamer@subsectionpages {24}{24}}}
\@writefile{nav}{\headcommand {\beamer@subsectionentry {0}{9}{3}{25}{Grouping Related Code}}}
\newlabeldata{mcid-682}{{tagabspage}{25}{tagmcabs}{682}{tagmcid}{32}}
\newlabeldata{l3pdf634}{{abspage}{25}}
\newlabeldata{mcid-650}{{tagabspage}{25}{tagmcabs}{650}{tagmcid}{0}}
\newlabeldata{l3pdf602}{{abspage}{25}}
\newlabeldata{mcid-651}{{tagabspage}{25}{tagmcabs}{651}{tagmcid}{1}}
\newlabeldata{l3pdf603}{{abspage}{25}}
\newlabeldata{mcid-652}{{tagabspage}{25}{tagmcabs}{652}{tagmcid}{2}}
\newlabeldata{l3pdf604}{{abspage}{25}}
\newlabeldata{mcid-653}{{tagabspage}{25}{tagmcabs}{653}{tagmcid}{3}}
\newlabeldata{l3pdf605}{{abspage}{25}}
\newlabeldata{mcid-654}{{tagabspage}{25}{tagmcabs}{654}{tagmcid}{4}}
\newlabeldata{l3pdf606}{{abspage}{25}}
\newlabeldata{mcid-655}{{tagabspage}{25}{tagmcabs}{655}{tagmcid}{5}}
\newlabeldata{l3pdf607}{{abspage}{25}}
\newlabeldata{mcid-656}{{tagabspage}{25}{tagmcabs}{656}{tagmcid}{6}}
\newlabeldata{l3pdf608}{{abspage}{25}}
\newlabeldata{mcid-657}{{tagabspage}{25}{tagmcabs}{657}{tagmcid}{7}}
\newlabeldata{l3pdf609}{{abspage}{25}}
\newlabeldata{mcid-658}{{tagabspage}{25}{tagmcabs}{658}{tagmcid}{8}}
\newlabeldata{l3pdf610}{{abspage}{25}}
\newlabeldata{mcid-659}{{tagabspage}{25}{tagmcabs}{659}{tagmcid}{9}}
\newlabeldata{l3pdf611}{{abspage}{25}}
\newlabeldata{mcid-660}{{tagabspage}{25}{tagmcabs}{660}{tagmcid}{10}}
\newlabeldata{l3pdf612}{{abspage}{25}}
\newlabeldata{mcid-661}{{tagabspage}{25}{tagmcabs}{661}{tagmcid}{11}}
\newlabeldata{l3pdf613}{{abspage}{25}}
\newlabeldata{mcid-662}{{tagabspage}{25}{tagmcabs}{662}{tagmcid}{12}}
\newlabeldata{l3pdf614}{{abspage}{25}}
\newlabeldata{mcid-663}{{tagabspage}{25}{tagmcabs}{663}{tagmcid}{13}}
\newlabeldata{l3pdf615}{{abspage}{25}}
\newlabeldata{mcid-664}{{tagabspage}{25}{tagmcabs}{664}{tagmcid}{14}}
\newlabeldata{l3pdf616}{{abspage}{25}}
\newlabeldata{mcid-665}{{tagabspage}{25}{tagmcabs}{665}{tagmcid}{15}}
\newlabeldata{l3pdf617}{{abspage}{25}}
\newlabeldata{mcid-666}{{tagabspage}{25}{tagmcabs}{666}{tagmcid}{16}}
\newlabeldata{l3pdf618}{{abspage}{25}}
\newlabeldata{mcid-667}{{tagabspage}{25}{tagmcabs}{667}{tagmcid}{17}}
\newlabeldata{l3pdf619}{{abspage}{25}}
\newlabeldata{mcid-668}{{tagabspage}{25}{tagmcabs}{668}{tagmcid}{18}}
\newlabeldata{l3pdf620}{{abspage}{25}}
\newlabeldata{mcid-669}{{tagabspage}{25}{tagmcabs}{669}{tagmcid}{19}}
\newlabeldata{l3pdf621}{{abspage}{25}}
\newlabeldata{mcid-670}{{tagabspage}{25}{tagmcabs}{670}{tagmcid}{20}}
\newlabeldata{l3pdf622}{{abspage}{25}}
\newlabeldata{mcid-671}{{tagabspage}{25}{tagmcabs}{671}{tagmcid}{21}}
\newlabeldata{l3pdf623}{{abspage}{25}}
\newlabeldata{mcid-672}{{tagabspage}{25}{tagmcabs}{672}{tagmcid}{22}}
\newlabeldata{l3pdf624}{{abspage}{25}}
\newlabeldata{mcid-673}{{tagabspage}{25}{tagmcabs}{673}{tagmcid}{23}}
\newlabeldata{l3pdf625}{{abspage}{25}}
\newlabeldata{mcid-674}{{tagabspage}{25}{tagmcabs}{674}{tagmcid}{24}}
\newlabeldata{l3pdf626}{{abspage}{25}}
\newlabeldata{mcid-675}{{tagabspage}{25}{tagmcabs}{675}{tagmcid}{25}}
\newlabeldata{l3pdf627}{{abspage}{25}}
\newlabeldata{mcid-676}{{tagabspage}{25}{tagmcabs}{676}{tagmcid}{26}}
\newlabeldata{l3pdf628}{{abspage}{25}}
\newlabeldata{mcid-677}{{tagabspage}{25}{tagmcabs}{677}{tagmcid}{27}}
\newlabeldata{l3pdf629}{{abspage}{25}}
\newlabeldata{mcid-678}{{tagabspage}{25}{tagmcabs}{678}{tagmcid}{28}}
\newlabeldata{l3pdf630}{{abspage}{25}}
\newlabeldata{mcid-679}{{tagabspage}{25}{tagmcabs}{679}{tagmcid}{29}}
\newlabeldata{l3pdf631}{{abspage}{25}}
\newlabeldata{mcid-680}{{tagabspage}{25}{tagmcabs}{680}{tagmcid}{30}}
\newlabeldata{l3pdf632}{{abspage}{25}}
\newlabeldata{mcid-681}{{tagabspage}{25}{tagmcabs}{681}{tagmcid}{31}}
\newlabeldata{l3pdf633}{{abspage}{25}}
\@writefile{nav}{\headcommand {\slideentry {9}{3}{1}{25/25}{Grouping Related Code}{0}}}
\@writefile{nav}{\headcommand {\beamer@framepages {25}{25}}}
\BKM@entry{id=25,open,dest={4F75746C696E65302E3130},srcline={1027}}{5C3337365C3337375C303030435C3030306F5C303030645C303030655C3030305C3034305C303030535C303030745C303030725C303030755C303030635C303030745C303030755C303030725C30303065}
\BKM@entry{id=26,open,dest={4F75746C696E65302E31302E312E3236},srcline={1029}}{5C3337365C3337375C303030465C303030755C3030306E5C303030635C303030745C303030695C3030306F5C3030306E5C303030615C3030306C5C3030305C3034305C303030445C303030655C303030635C3030306F5C3030306D5C303030705C3030306F5C303030735C303030695C303030745C303030695C3030306F5C3030306E}
\@writefile{toc}{\beamer@sectionintoc {10}{Code Structure}{26}{0}{10}}
\@writefile{nav}{\headcommand {\beamer@sectionpages {23}{25}}}
\@writefile{nav}{\headcommand {\beamer@subsectionpages {25}{25}}}
\@writefile{nav}{\headcommand {\sectionentry {10}{Code Structure}{26}{Code Structure}{0}}}
\@writefile{toc}{\beamer@subsectionintoc {10}{1}{Functional Decomposition}{26}{0}{10}}
\@writefile{nav}{\headcommand {\beamer@subsectionpages {26}{25}}}
\@writefile{nav}{\headcommand {\beamer@subsectionentry {0}{10}{1}{26}{Functional Decomposition}}}
\newlabeldata{mcid-723}{{tagabspage}{26}{tagmcabs}{723}{tagmcid}{38}}
\newlabeldata{l3pdf673}{{abspage}{26}}
\newlabeldata{mcid-685}{{tagabspage}{26}{tagmcabs}{685}{tagmcid}{0}}
\newlabeldata{l3pdf635}{{abspage}{26}}
\newlabeldata{mcid-686}{{tagabspage}{26}{tagmcabs}{686}{tagmcid}{1}}
\newlabeldata{l3pdf636}{{abspage}{26}}
\newlabeldata{mcid-687}{{tagabspage}{26}{tagmcabs}{687}{tagmcid}{2}}
\newlabeldata{l3pdf637}{{abspage}{26}}
\newlabeldata{mcid-688}{{tagabspage}{26}{tagmcabs}{688}{tagmcid}{3}}
\newlabeldata{l3pdf638}{{abspage}{26}}
\newlabeldata{mcid-689}{{tagabspage}{26}{tagmcabs}{689}{tagmcid}{4}}
\newlabeldata{l3pdf639}{{abspage}{26}}
\newlabeldata{mcid-690}{{tagabspage}{26}{tagmcabs}{690}{tagmcid}{5}}
\newlabeldata{l3pdf640}{{abspage}{26}}
\newlabeldata{mcid-691}{{tagabspage}{26}{tagmcabs}{691}{tagmcid}{6}}
\newlabeldata{l3pdf641}{{abspage}{26}}
\newlabeldata{mcid-692}{{tagabspage}{26}{tagmcabs}{692}{tagmcid}{7}}
\newlabeldata{l3pdf642}{{abspage}{26}}
\newlabeldata{mcid-693}{{tagabspage}{26}{tagmcabs}{693}{tagmcid}{8}}
\newlabeldata{l3pdf643}{{abspage}{26}}
\newlabeldata{mcid-694}{{tagabspage}{26}{tagmcabs}{694}{tagmcid}{9}}
\newlabeldata{l3pdf644}{{abspage}{26}}
\newlabeldata{mcid-695}{{tagabspage}{26}{tagmcabs}{695}{tagmcid}{10}}
\newlabeldata{l3pdf645}{{abspage}{26}}
\newlabeldata{mcid-696}{{tagabspage}{26}{tagmcabs}{696}{tagmcid}{11}}
\newlabeldata{l3pdf646}{{abspage}{26}}
\newlabeldata{mcid-697}{{tagabspage}{26}{tagmcabs}{697}{tagmcid}{12}}
\newlabeldata{l3pdf647}{{abspage}{26}}
\newlabeldata{mcid-698}{{tagabspage}{26}{tagmcabs}{698}{tagmcid}{13}}
\newlabeldata{l3pdf648}{{abspage}{26}}
\newlabeldata{mcid-699}{{tagabspage}{26}{tagmcabs}{699}{tagmcid}{14}}
\newlabeldata{l3pdf649}{{abspage}{26}}
\newlabeldata{mcid-700}{{tagabspage}{26}{tagmcabs}{700}{tagmcid}{15}}
\newlabeldata{l3pdf650}{{abspage}{26}}
\newlabeldata{mcid-701}{{tagabspage}{26}{tagmcabs}{701}{tagmcid}{16}}
\newlabeldata{l3pdf651}{{abspage}{26}}
\newlabeldata{mcid-702}{{tagabspage}{26}{tagmcabs}{702}{tagmcid}{17}}
\newlabeldata{l3pdf652}{{abspage}{26}}
\newlabeldata{mcid-703}{{tagabspage}{26}{tagmcabs}{703}{tagmcid}{18}}
\newlabeldata{l3pdf653}{{abspage}{26}}
\newlabeldata{mcid-704}{{tagabspage}{26}{tagmcabs}{704}{tagmcid}{19}}
\newlabeldata{l3pdf654}{{abspage}{26}}
\newlabeldata{mcid-705}{{tagabspage}{26}{tagmcabs}{705}{tagmcid}{20}}
\newlabeldata{l3pdf655}{{abspage}{26}}
\newlabeldata{mcid-706}{{tagabspage}{26}{tagmcabs}{706}{tagmcid}{21}}
\newlabeldata{l3pdf656}{{abspage}{26}}
\newlabeldata{mcid-707}{{tagabspage}{26}{tagmcabs}{707}{tagmcid}{22}}
\newlabeldata{l3pdf657}{{abspage}{26}}
\newlabeldata{mcid-708}{{tagabspage}{26}{tagmcabs}{708}{tagmcid}{23}}
\newlabeldata{l3pdf658}{{abspage}{26}}
\newlabeldata{mcid-709}{{tagabspage}{26}{tagmcabs}{709}{tagmcid}{24}}
\newlabeldata{l3pdf659}{{abspage}{26}}
\newlabeldata{mcid-710}{{tagabspage}{26}{tagmcabs}{710}{tagmcid}{25}}
\newlabeldata{l3pdf660}{{abspage}{26}}
\newlabeldata{mcid-711}{{tagabspage}{26}{tagmcabs}{711}{tagmcid}{26}}
\newlabeldata{l3pdf661}{{abspage}{26}}
\newlabeldata{mcid-712}{{tagabspage}{26}{tagmcabs}{712}{tagmcid}{27}}
\newlabeldata{l3pdf662}{{abspage}{26}}
\newlabeldata{mcid-713}{{tagabspage}{26}{tagmcabs}{713}{tagmcid}{28}}
\newlabeldata{l3pdf663}{{abspage}{26}}
\newlabeldata{mcid-714}{{tagabspage}{26}{tagmcabs}{714}{tagmcid}{29}}
\newlabeldata{l3pdf664}{{abspage}{26}}
\newlabeldata{mcid-715}{{tagabspage}{26}{tagmcabs}{715}{tagmcid}{30}}
\newlabeldata{l3pdf665}{{abspage}{26}}
\newlabeldata{mcid-716}{{tagabspage}{26}{tagmcabs}{716}{tagmcid}{31}}
\newlabeldata{l3pdf666}{{abspage}{26}}
\newlabeldata{mcid-717}{{tagabspage}{26}{tagmcabs}{717}{tagmcid}{32}}
\newlabeldata{l3pdf667}{{abspage}{26}}
\newlabeldata{mcid-718}{{tagabspage}{26}{tagmcabs}{718}{tagmcid}{33}}
\newlabeldata{l3pdf668}{{abspage}{26}}
\newlabeldata{mcid-719}{{tagabspage}{26}{tagmcabs}{719}{tagmcid}{34}}
\newlabeldata{l3pdf669}{{abspage}{26}}
\newlabeldata{mcid-720}{{tagabspage}{26}{tagmcabs}{720}{tagmcid}{35}}
\newlabeldata{l3pdf670}{{abspage}{26}}
\newlabeldata{mcid-721}{{tagabspage}{26}{tagmcabs}{721}{tagmcid}{36}}
\newlabeldata{l3pdf671}{{abspage}{26}}
\newlabeldata{mcid-722}{{tagabspage}{26}{tagmcabs}{722}{tagmcid}{37}}
\newlabeldata{l3pdf672}{{abspage}{26}}
\@writefile{nav}{\headcommand {\slideentry {10}{1}{1}{26/26}{Functional Decomposition}{0}}}
\@writefile{nav}{\headcommand {\beamer@framepages {26}{26}}}
\BKM@entry{id=27,open,dest={4F75746C696E65302E31302E322E3237},srcline={1082}}{5C3337365C3337375C303030435C3030306F5C303030645C303030655C3030305C3034305C303030435C3030306C5C303030615C303030725C303030695C303030745C30303079}
\@writefile{toc}{\beamer@subsectionintoc {10}{2}{Code Clarity}{27}{0}{10}}
\@writefile{nav}{\headcommand {\beamer@subsectionpages {26}{26}}}
\@writefile{nav}{\headcommand {\beamer@subsectionentry {0}{10}{2}{27}{Code Clarity}}}
\newlabeldata{mcid-759}{{tagabspage}{27}{tagmcabs}{759}{tagmcid}{33}}
\newlabeldata{l3pdf707}{{abspage}{27}}
\newlabeldata{mcid-726}{{tagabspage}{27}{tagmcabs}{726}{tagmcid}{0}}
\newlabeldata{l3pdf674}{{abspage}{27}}
\newlabeldata{mcid-727}{{tagabspage}{27}{tagmcabs}{727}{tagmcid}{1}}
\newlabeldata{l3pdf675}{{abspage}{27}}
\newlabeldata{mcid-728}{{tagabspage}{27}{tagmcabs}{728}{tagmcid}{2}}
\newlabeldata{l3pdf676}{{abspage}{27}}
\newlabeldata{mcid-729}{{tagabspage}{27}{tagmcabs}{729}{tagmcid}{3}}
\newlabeldata{l3pdf677}{{abspage}{27}}
\newlabeldata{mcid-730}{{tagabspage}{27}{tagmcabs}{730}{tagmcid}{4}}
\newlabeldata{l3pdf678}{{abspage}{27}}
\newlabeldata{mcid-731}{{tagabspage}{27}{tagmcabs}{731}{tagmcid}{5}}
\newlabeldata{l3pdf679}{{abspage}{27}}
\newlabeldata{mcid-732}{{tagabspage}{27}{tagmcabs}{732}{tagmcid}{6}}
\newlabeldata{l3pdf680}{{abspage}{27}}
\newlabeldata{mcid-733}{{tagabspage}{27}{tagmcabs}{733}{tagmcid}{7}}
\newlabeldata{l3pdf681}{{abspage}{27}}
\newlabeldata{mcid-734}{{tagabspage}{27}{tagmcabs}{734}{tagmcid}{8}}
\newlabeldata{l3pdf682}{{abspage}{27}}
\newlabeldata{mcid-735}{{tagabspage}{27}{tagmcabs}{735}{tagmcid}{9}}
\newlabeldata{l3pdf683}{{abspage}{27}}
\newlabeldata{mcid-736}{{tagabspage}{27}{tagmcabs}{736}{tagmcid}{10}}
\newlabeldata{l3pdf684}{{abspage}{27}}
\newlabeldata{mcid-737}{{tagabspage}{27}{tagmcabs}{737}{tagmcid}{11}}
\newlabeldata{l3pdf685}{{abspage}{27}}
\newlabeldata{mcid-738}{{tagabspage}{27}{tagmcabs}{738}{tagmcid}{12}}
\newlabeldata{l3pdf686}{{abspage}{27}}
\newlabeldata{mcid-739}{{tagabspage}{27}{tagmcabs}{739}{tagmcid}{13}}
\newlabeldata{l3pdf687}{{abspage}{27}}
\newlabeldata{mcid-740}{{tagabspage}{27}{tagmcabs}{740}{tagmcid}{14}}
\newlabeldata{l3pdf688}{{abspage}{27}}
\newlabeldata{mcid-741}{{tagabspage}{27}{tagmcabs}{741}{tagmcid}{15}}
\newlabeldata{l3pdf689}{{abspage}{27}}
\newlabeldata{mcid-742}{{tagabspage}{27}{tagmcabs}{742}{tagmcid}{16}}
\newlabeldata{l3pdf690}{{abspage}{27}}
\newlabeldata{mcid-743}{{tagabspage}{27}{tagmcabs}{743}{tagmcid}{17}}
\newlabeldata{l3pdf691}{{abspage}{27}}
\newlabeldata{mcid-744}{{tagabspage}{27}{tagmcabs}{744}{tagmcid}{18}}
\newlabeldata{l3pdf692}{{abspage}{27}}
\newlabeldata{mcid-745}{{tagabspage}{27}{tagmcabs}{745}{tagmcid}{19}}
\newlabeldata{l3pdf693}{{abspage}{27}}
\newlabeldata{mcid-746}{{tagabspage}{27}{tagmcabs}{746}{tagmcid}{20}}
\newlabeldata{l3pdf694}{{abspage}{27}}
\newlabeldata{mcid-747}{{tagabspage}{27}{tagmcabs}{747}{tagmcid}{21}}
\newlabeldata{l3pdf695}{{abspage}{27}}
\newlabeldata{mcid-748}{{tagabspage}{27}{tagmcabs}{748}{tagmcid}{22}}
\newlabeldata{l3pdf696}{{abspage}{27}}
\newlabeldata{mcid-749}{{tagabspage}{27}{tagmcabs}{749}{tagmcid}{23}}
\newlabeldata{l3pdf697}{{abspage}{27}}
\newlabeldata{mcid-750}{{tagabspage}{27}{tagmcabs}{750}{tagmcid}{24}}
\newlabeldata{l3pdf698}{{abspage}{27}}
\newlabeldata{mcid-751}{{tagabspage}{27}{tagmcabs}{751}{tagmcid}{25}}
\newlabeldata{l3pdf699}{{abspage}{27}}
\newlabeldata{mcid-752}{{tagabspage}{27}{tagmcabs}{752}{tagmcid}{26}}
\newlabeldata{l3pdf700}{{abspage}{27}}
\newlabeldata{mcid-753}{{tagabspage}{27}{tagmcabs}{753}{tagmcid}{27}}
\newlabeldata{l3pdf701}{{abspage}{27}}
\newlabeldata{mcid-754}{{tagabspage}{27}{tagmcabs}{754}{tagmcid}{28}}
\newlabeldata{l3pdf702}{{abspage}{27}}
\newlabeldata{mcid-755}{{tagabspage}{27}{tagmcabs}{755}{tagmcid}{29}}
\newlabeldata{l3pdf703}{{abspage}{27}}
\newlabeldata{mcid-756}{{tagabspage}{27}{tagmcabs}{756}{tagmcid}{30}}
\newlabeldata{l3pdf704}{{abspage}{27}}
\newlabeldata{mcid-757}{{tagabspage}{27}{tagmcabs}{757}{tagmcid}{31}}
\newlabeldata{l3pdf705}{{abspage}{27}}
\newlabeldata{mcid-758}{{tagabspage}{27}{tagmcabs}{758}{tagmcid}{32}}
\newlabeldata{l3pdf706}{{abspage}{27}}
\@writefile{nav}{\headcommand {\slideentry {10}{2}{1}{27/27}{Code Clarity}{0}}}
\@writefile{nav}{\headcommand {\beamer@framepages {27}{27}}}
\@writefile{nav}{\headcommand {\beamer@partpages {1}{27}}}
\@writefile{nav}{\headcommand {\beamer@subsectionpages {27}{27}}}
\@writefile{nav}{\headcommand {\beamer@sectionpages {26}{27}}}
\@writefile{nav}{\headcommand {\beamer@documentpages {27}}}
\@writefile{nav}{\headcommand {\gdef \inserttotalframenumber {27}}}
\gdef\minted@oldcachelist{,
  default.pygstyle,
  6028336948AE472373C5BEEB26E958FBDF1C689091257202D3308E4BEA7FED78.pygtex,
  265456CF6057C03384BCD95D47192EB9DF1C689091257202D3308E4BEA7FED78.pygtex,
  6F27D86108EC9856FA81E6398713DC02DF1C689091257202D3308E4BEA7FED78.pygtex,
  F177E073B887D0DAF79A0ADC405B0D36DF1C689091257202D3308E4BEA7FED78.pygtex,
  023C7BFB6045867B24671EA04B89A525DF1C689091257202D3308E4BEA7FED78.pygtex,
  2B3937EAC2278269A67B1601F837FDE9DF1C689091257202D3308E4BEA7FED78.pygtex,
  C4EF1365F08842917CBED3B0A12274C4DF1C689091257202D3308E4BEA7FED78.pygtex,
  86C910D6A32AE1D1C9641A0E086A3A2ADF1C689091257202D3308E4BEA7FED78.pygtex,
  F26BA618E47D49438442D4855AFF077BDF1C689091257202D3308E4BEA7FED78.pygtex,
  C77F1CBF9484FF27A6226D6B7CCF35E7DF1C689091257202D3308E4BEA7FED78.pygtex,
  FF741BA5CD98AEBE485836E0D8D20A7BDF1C689091257202D3308E4BEA7FED78.pygtex,
  7FB92FB756A687B0C2593D4C325E4BFEDF1C689091257202D3308E4BEA7FED78.pygtex,
  881CC55F6A75B0764FA28E4BA83223B5DF1C689091257202D3308E4BEA7FED78.pygtex,
  B3CD5DC45587807DDBD8184B231738A6DF1C689091257202D3308E4BEA7FED78.pygtex,
  81F433E9A1981A60DC31F1BBEF8509D1DF1C689091257202D3308E4BEA7FED78.pygtex,
  57BC7AF0E1A23A7575691BD420B07AECDF1C689091257202D3308E4BEA7FED78.pygtex,
  3090F11EA98AE4B5AA77E52D5EF3D3CADF1C689091257202D3308E4BEA7FED78.pygtex,
  D2169290A3E4DABCB577D3D20139F845DF1C689091257202D3308E4BEA7FED78.pygtex,
  A7A93F105CFCDF0FBAA33687E7CD3E71DF1C689091257202D3308E4BEA7FED78.pygtex,
  C826AE53E142F3AD2B9B93AC5650030ADF1C689091257202D3308E4BEA7FED78.pygtex,
  A469B57293638BD557BB2791828E4C46DF1C689091257202D3308E4BEA7FED78.pygtex,
  BDC4C2CFA6BF570C8F61E96D819214EBDF1C689091257202D3308E4BEA7FED78.pygtex,
  E9BE3AB960A6FC508E8580E20202C9F9DF1C689091257202D3308E4BEA7FED78.pygtex,
  4F543DDE8F5E4077C4CA787C1C1E6F98DF1C689091257202D3308E4BEA7FED78.pygtex,
  C61631387149CE955D8E805DE5B8B8FCDF1C689091257202D3308E4BEA7FED78.pygtex,
  577B55B9C769C6325FB0C53B9157A906DF1C689091257202D3308E4BEA7FED78.pygtex,
  74833C29840DCE36A419C5C70BFB9444DF1C689091257202D3308E4BEA7FED78.pygtex,
  16D611BD4DB7B71B4C5FD4A76299746ADF1C689091257202D3308E4BEA7FED78.pygtex,
  88C976498D38BC162248DA7A8DFBCCB4DF1C689091257202D3308E4BEA7FED78.pygtex,
  9C11EC10F466D35DCB5C11149825A0AADF1C689091257202D3308E4BEA7FED78.pygtex,
  8BE4210967DDBE85C417D5245BDCFD79DF1C689091257202D3308E4BEA7FED78.pygtex,
  F42EC30DAF3618CF7B6549AFA0A9A517DF1C689091257202D3308E4BEA7FED78.pygtex,
  80FF2FD79116A554D634FDBCA046D381DF1C689091257202D3308E4BEA7FED78.pygtex,
  C361419DC77AC092FB68F104BAC708D7DF1C689091257202D3308E4BEA7FED78.pygtex,
  FE178D0222F081A1C681AAFED9644529DF1C689091257202D3308E4BEA7FED78.pygtex,
  10AB803AB02C9237430257905C6BA70FDF1C689091257202D3308E4BEA7FED78.pygtex,
  0C8B3DBD09C2F007B6F70625B9158603DF1C689091257202D3308E4BEA7FED78.pygtex,
  94E206AFE55E4EAE10DD00A4A0B19BFBDF1C689091257202D3308E4BEA7FED78.pygtex}
\newlabeldata{__tag_LastPage}{{abspage}{27}{tagmcabs}{761}}
\gdef\svg@ink@ver@settings{{\m@ne }{inkscape}{1}}
\gdef \@abspage@last{27}
