<svg viewBox="-152.5 0 416.5 195" xmlns="http://www.w3.org/2000/svg">
<g>
<g transform="translate(0,0)">
<path d="M0,0 L0,35 L118,35 L118,0 z" fill="black" stroke="none"/>
<path d="M3,3 L3,32 L115,32 L115,3 z" fill="white" stroke="none"/>
<text dominant-baseline="middle" fill="black" font-family="monospace" font-size="16" text-anchor="middle" x="59" y="17.5">
...
</text>
</g>
<g>
<g transform="translate(0,32)">
<path d="M0,0 L0,35 L118,35 L118,0 z" fill="black" stroke="none"/>
<path d="M3,3 L3,32 L115,32 L115,3 z" fill="white" stroke="none"/>
<text dominant-baseline="middle" fill="black" font-family="monospace" font-size="16" text-anchor="middle" x="59" y="17.5">
00000001
</text>
</g>
<g transform="translate(-135,0)">
<g transform="translate(0,32)">
<path d="M0,0 a4,17.5,0,0,0,0,35 l138,0 l0,-3 l12,-16 l-12,-16 z" fill="black" stroke="none"/>
<path d="M3,3 a4,14.5,0,0,0,0,29 l132,0 l0,-1.5 l10.5,-14.5 l-9,-13 z" fill="#EEE" stroke="none"/>
<text dominant-baseline="middle" fill="black" font-family="Noto Serif" font-size="16" text-anchor="middle" x="69" y="17.5">
1
</text>
</g>
</g>
<g transform="translate(112,32)">
<g transform="translate(0,0)">
<path d="M0,0 l-12,16 l12,16 l152,0 l-0,-16 l0,-16 z" fill="black" stroke="none"/>
<text dominant-baseline="middle" fill="white" font-family="monospace" font-size="16" text-anchor="middle" x="39" y="16">
uint8_t
</text>
<g transform="translate(94,5.5)">
<path d="M0,0 a4,4,0,0,0,0,24 l20,0 a4,4,0,0,0,0,-24 z" fill="white" stroke="none"/>
<text dominant-baseline="middle" fill="black" font-family="monospace" font-size="16" text-anchor="middle" x="10" y="12">
Mx
</text>
</g>
</g>
</g>
<g transform="translate(0,64)">
<path d="M0,0 L0,35 L118,35 L118,0 z" fill="black" stroke="none"/>
<path d="M3,3 L3,32 L115,32 L115,3 z" fill="white" stroke="none"/>
<text dominant-baseline="middle" fill="black" font-family="monospace" font-size="16" text-anchor="middle" x="59" y="17.5">
00000001
</text>
</g>
<g transform="translate(-135,0)">
<g transform="translate(0,64)">
<path d="M0,0 a4,17.5,0,0,0,0,35 l138,0 l0,-3 l12,-16 l-12,-16 z" fill="black" stroke="none"/>
<path d="M3,3 a4,14.5,0,0,0,0,29 l132,0 l0,-1.5 l10.5,-14.5 l-9,-13 z" fill="#EEE" stroke="none"/>
<text dominant-baseline="middle" fill="black" font-family="Noto Serif" font-size="16" text-anchor="middle" x="69" y="17.5">
1
</text>
</g>
</g>
<g transform="translate(112,64)">
<g transform="translate(0,0)">
<path d="M0,0 l-12,16 l12,16 l152,0 l-0,-16 l0,-16 z" fill="black" stroke="none"/>
<text dominant-baseline="middle" fill="white" font-family="monospace" font-size="16" text-anchor="middle" x="39" y="16">
uint8_t
</text>
<g transform="translate(94,5.5)">
<path d="M0,0 a4,4,0,0,0,0,24 l20,0 a4,4,0,0,0,0,-24 z" fill="white" stroke="none"/>
<text dominant-baseline="middle" fill="black" font-family="monospace" font-size="16" text-anchor="middle" x="10" y="12">
D1
</text>
</g>
</g>
</g>
<g transform="translate(0,96)">
<path d="M0,0 L0,35 L118,35 L118,0 z" fill="black" stroke="none"/>
<path d="M3,3 L3,32 L115,32 L115,3 z" fill="white" stroke="none"/>
<text dominant-baseline="middle" fill="black" font-family="monospace" font-size="16" text-anchor="middle" x="59" y="17.5">
00000010
</text>
</g>
<g transform="translate(-135,0)">
<g transform="translate(0,96)">
<path d="M0,0 a4,17.5,0,0,0,0,35 l138,0 l0,-3 l12,-16 l-12,-16 z" fill="black" stroke="none"/>
<path d="M3,3 a4,14.5,0,0,0,0,29 l132,0 l0,-1.5 l10.5,-14.5 l-9,-13 z" fill="#EEE" stroke="none"/>
<text dominant-baseline="middle" fill="black" font-family="Noto Serif" font-size="16" text-anchor="middle" x="69" y="17.5">
2
</text>
</g>
</g>
<g transform="translate(112,96)">
<g transform="translate(0,0)">
<path d="M0,0 l-12,16 l12,16 l152,0 l-0,-16 l0,-16 z" fill="black" stroke="none"/>
<text dominant-baseline="middle" fill="white" font-family="monospace" font-size="16" text-anchor="middle" x="39" y="16">
uint8_t
</text>
<g transform="translate(94,5.5)">
<path d="M0,0 a4,4,0,0,0,0,24 l20,0 a4,4,0,0,0,0,-24 z" fill="white" stroke="none"/>
<text dominant-baseline="middle" fill="black" font-family="monospace" font-size="16" text-anchor="middle" x="10" y="12">
Dx
</text>
</g>
</g>
</g>
<g transform="translate(0,128)">
<path d="M0,0 L0,35 L118,35 L118,0 z" fill="black" stroke="none"/>
<path d="M3,3 L3,32 L115,32 L115,3 z" fill="white" stroke="none"/>
<text dominant-baseline="middle" fill="black" font-family="monospace" font-size="16" text-anchor="middle" x="59" y="17.5">
----
</text>
</g>
<g transform="translate(-135,0)">
<g transform="translate(0,128)">
<path d="M0,0 a4,17.5,0,0,0,0,35 l138,0 l0,-3 l12,-16 l-12,-16 z" fill="black" stroke="none"/>
<path d="M3,3 a4,14.5,0,0,0,0,29 l132,0 l0,-1.5 l10.5,-14.5 l-9,-13 z" fill="#EEE" stroke="none"/>
<text dominant-baseline="middle" fill="black" font-family="Noto Serif" font-size="16" text-anchor="middle" x="69" y="17.5">
________
</text>
</g>
</g>
<g transform="translate(112,128)">
<g transform="translate(0,0)">
<path d="M0,0 l-12,16 l12,16 l152,0 l-0,-16 l0,-16 z" fill="black" stroke="none"/>
<text dominant-baseline="middle" fill="white" font-family="monospace" font-size="16" text-anchor="middle" x="39" y="16">
uint8_t
</text>
<g transform="translate(94,5.5)">
<path d="M0,0 a4,4,0,0,0,0,24 l20,0 a4,4,0,0,0,0,-24 z" fill="white" stroke="none"/>
<text dominant-baseline="middle" fill="black" font-family="monospace" font-size="16" text-anchor="middle" x="10" y="12">
Dy
</text>
</g>
</g>
</g>
</g>
<g transform="translate(0,160)">
<path d="M0,0 L0,35 L118,35 L118,0 z" fill="black" stroke="none"/>
<path d="M3,3 L3,32 L115,32 L115,3 z" fill="white" stroke="none"/>
<text dominant-baseline="middle" fill="black" font-family="monospace" font-size="16" text-anchor="middle" x="59" y="17.5">
...
</text>
</g>
</g>
</svg>