\relax 
\providecommand\hyper@newdestlabel[2]{}
\providecommand\HyperFirstAtBeginDocument{\AtBeginDocument}
\HyperFirstAtBeginDocument{\ifx\hyper@anchor\@undefined
\global\let\oldcontentsline\contentsline
\gdef\contentsline#1#2#3#4{\oldcontentsline{#1}{#2}{#3}}
\global\let\oldnewlabel\newlabel
\gdef\newlabel#1#2{\newlabelxx{#1}#2}
\gdef\newlabelxx#1#2#3#4#5#6{\oldnewlabel{#1}{{#2}{#3}}}
\AtEndDocument{\ifx\hyper@anchor\@undefined
\let\contentsline\oldcontentsline
\let\newlabel\oldnewlabel
\fi}
\fi}
\global\let\hyper@last\relax 
\gdef\HyperFirstAtBeginDocument#1{#1}
\providecommand\HyField@AuxAddToFields[1]{}
\providecommand\HyField@AuxAddToCoFields[2]{}
\providecommand\BKM@entry[2]{}
\newlabeldata{mcid-1}{{tagabspage}{1}{tagmcabs}{1}{tagmcid}{0}}
\newlabeldata{l3pdf1}{{abspage}{1}}
\@writefile{nav}{\headcommand {\slideentry {0}{0}{1}{1/1}{}{0}}}
\@writefile{nav}{\headcommand {\beamer@framepages {1}{1}}}
\newlabeldata{mcid-4}{{tagabspage}{2}{tagmcabs}{4}{tagmcid}{1}}
\newlabeldata{l3pdf2}{{abspage}{2}}
\@writefile{nav}{\headcommand {\slideentry {0}{0}{2}{2/2}{}{0}}}
\@writefile{nav}{\headcommand {\beamer@framepages {2}{2}}}
\BKM@entry{id=1,open,dest={4F75746C696E65302E31},srcline={71}}{5C3337365C3337375C303030535C303030655C303030635C3030305C3034305C30303031}
\@writefile{toc}{\beamer@sectionintoc {1}{Sec 1}{3}{0}{1}}
\@writefile{nav}{\headcommand {\beamer@sectionpages {1}{2}}}
\@writefile{nav}{\headcommand {\beamer@subsectionpages {1}{2}}}
\@writefile{nav}{\headcommand {\sectionentry {1}{Sec 1}{3}{Sec 1}{0}}}
\newlabeldata{mcid-14}{{tagabspage}{3}{tagmcabs}{14}{tagmcid}{5}}
\newlabeldata{l3pdf6}{{abspage}{3}}
\newlabeldata{mcid-7}{{tagabspage}{3}{tagmcabs}{7}{tagmcid}{2}}
\newlabeldata{l3pdf3}{{abspage}{3}}
\newlabeldata{mcid-9}{{tagabspage}{3}{tagmcabs}{9}{tagmcid}{3}}
\newlabeldata{l3pdf4}{{abspage}{3}}
\newlabeldata{mcid-12}{{tagabspage}{3}{tagmcabs}{12}{tagmcid}{4}}
\newlabeldata{l3pdf5}{{abspage}{3}}
\@writefile{nav}{\headcommand {\slideentry {1}{0}{1}{3/3}{}{0}}}
\@writefile{nav}{\headcommand {\beamer@framepages {3}{3}}}
\newlabeldata{mcid-31}{{tagabspage}{4}{tagmcabs}{31}{tagmcid}{12}}
\newlabeldata{l3pdf13}{{abspage}{4}}
\newlabeldata{mcid-17}{{tagabspage}{4}{tagmcabs}{17}{tagmcid}{6}}
\newlabeldata{l3pdf7}{{abspage}{4}}
\newlabeldata{mcid-19}{{tagabspage}{4}{tagmcabs}{19}{tagmcid}{7}}
\newlabeldata{l3pdf8}{{abspage}{4}}
\newlabeldata{mcid-22}{{tagabspage}{4}{tagmcabs}{22}{tagmcid}{8}}
\newlabeldata{l3pdf9}{{abspage}{4}}
\newlabeldata{mcid-24}{{tagabspage}{4}{tagmcabs}{24}{tagmcid}{9}}
\newlabeldata{l3pdf10}{{abspage}{4}}
\newlabeldata{mcid-26}{{tagabspage}{4}{tagmcabs}{26}{tagmcid}{10}}
\newlabeldata{l3pdf11}{{abspage}{4}}
\newlabeldata{mcid-29}{{tagabspage}{4}{tagmcabs}{29}{tagmcid}{11}}
\newlabeldata{l3pdf12}{{abspage}{4}}
\@writefile{nav}{\headcommand {\slideentry {1}{0}{2}{4/4}{}{0}}}
\@writefile{nav}{\headcommand {\beamer@framepages {4}{4}}}
\BKM@entry{id=2,open,dest={4F75746C696E65302E32},srcline={101}}{5C3337365C3337375C303030635C303030685C303030615C303030705C303030745C303030655C303030725C3030305C3034305C30303032}
\@writefile{toc}{\beamer@sectionintoc {2}{chapter 2}{5}{0}{2}}
\@writefile{nav}{\headcommand {\beamer@sectionpages {3}{4}}}
\@writefile{nav}{\headcommand {\beamer@subsectionpages {3}{4}}}
\@writefile{nav}{\headcommand {\sectionentry {2}{chapter 2}{5}{chapter 2}{0}}}
\newlabeldata{mcid-88}{{tagabspage}{5}{tagmcabs}{88}{tagmcid}{35}}
\newlabeldata{l3pdf36}{{abspage}{5}}
\newlabeldata{mcid-35}{{tagabspage}{5}{tagmcabs}{35}{tagmcid}{13}}
\newlabeldata{l3pdf14}{{abspage}{5}}
\newlabeldata{mcid-37}{{tagabspage}{5}{tagmcabs}{37}{tagmcid}{14}}
\newlabeldata{l3pdf15}{{abspage}{5}}
\newlabeldata{mcid-39}{{tagabspage}{5}{tagmcabs}{39}{tagmcid}{15}}
\newlabeldata{l3pdf16}{{abspage}{5}}
\newlabeldata{mcid-42}{{tagabspage}{5}{tagmcabs}{42}{tagmcid}{16}}
\newlabeldata{l3pdf17}{{abspage}{5}}
\newlabeldata{mcid-45}{{tagabspage}{5}{tagmcabs}{45}{tagmcid}{17}}
\newlabeldata{l3pdf18}{{abspage}{5}}
\newlabeldata{mcid-48}{{tagabspage}{5}{tagmcabs}{48}{tagmcid}{18}}
\newlabeldata{l3pdf19}{{abspage}{5}}
\newlabeldata{mcid-51}{{tagabspage}{5}{tagmcabs}{51}{tagmcid}{19}}
\newlabeldata{l3pdf20}{{abspage}{5}}
\newlabeldata{mcid-54}{{tagabspage}{5}{tagmcabs}{54}{tagmcid}{20}}
\newlabeldata{l3pdf21}{{abspage}{5}}
\newlabeldata{mcid-57}{{tagabspage}{5}{tagmcabs}{57}{tagmcid}{21}}
\newlabeldata{l3pdf22}{{abspage}{5}}
\newlabeldata{mcid-60}{{tagabspage}{5}{tagmcabs}{60}{tagmcid}{22}}
\newlabeldata{l3pdf23}{{abspage}{5}}
\newlabeldata{mcid-62}{{tagabspage}{5}{tagmcabs}{62}{tagmcid}{23}}
\newlabeldata{l3pdf24}{{abspage}{5}}
\newlabeldata{mcid-64}{{tagabspage}{5}{tagmcabs}{64}{tagmcid}{24}}
\newlabeldata{l3pdf25}{{abspage}{5}}
\newlabeldata{mcid-66}{{tagabspage}{5}{tagmcabs}{66}{tagmcid}{25}}
\newlabeldata{l3pdf26}{{abspage}{5}}
\newlabeldata{mcid-68}{{tagabspage}{5}{tagmcabs}{68}{tagmcid}{26}}
\newlabeldata{l3pdf27}{{abspage}{5}}
\newlabeldata{mcid-71}{{tagabspage}{5}{tagmcabs}{71}{tagmcid}{27}}
\newlabeldata{l3pdf28}{{abspage}{5}}
\newlabeldata{mcid-74}{{tagabspage}{5}{tagmcabs}{74}{tagmcid}{28}}
\newlabeldata{l3pdf29}{{abspage}{5}}
\newlabeldata{mcid-76}{{tagabspage}{5}{tagmcabs}{76}{tagmcid}{29}}
\newlabeldata{l3pdf30}{{abspage}{5}}
\newlabeldata{mcid-78}{{tagabspage}{5}{tagmcabs}{78}{tagmcid}{30}}
\newlabeldata{l3pdf31}{{abspage}{5}}
\newlabeldata{mcid-80}{{tagabspage}{5}{tagmcabs}{80}{tagmcid}{31}}
\newlabeldata{l3pdf32}{{abspage}{5}}
\newlabeldata{mcid-82}{{tagabspage}{5}{tagmcabs}{82}{tagmcid}{32}}
\newlabeldata{l3pdf33}{{abspage}{5}}
\newlabeldata{mcid-84}{{tagabspage}{5}{tagmcabs}{84}{tagmcid}{33}}
\newlabeldata{l3pdf34}{{abspage}{5}}
\newlabeldata{mcid-86}{{tagabspage}{5}{tagmcabs}{86}{tagmcid}{34}}
\newlabeldata{l3pdf35}{{abspage}{5}}
\@writefile{nav}{\headcommand {\slideentry {2}{0}{1}{5/5}{}{0}}}
\@writefile{nav}{\headcommand {\beamer@framepages {5}{5}}}
\newlabeldata{mcid-101}{{tagabspage}{6}{tagmcabs}{101}{tagmcid}{42}}
\newlabeldata{l3pdf43}{{abspage}{6}}
\newlabeldata{mcid-91}{{tagabspage}{6}{tagmcabs}{91}{tagmcid}{36}}
\newlabeldata{l3pdf37}{{abspage}{6}}
\newlabeldata{mcid-92}{{tagabspage}{6}{tagmcabs}{92}{tagmcid}{37}}
\newlabeldata{l3pdf38}{{abspage}{6}}
\newlabeldata{mcid-94}{{tagabspage}{6}{tagmcabs}{94}{tagmcid}{38}}
\newlabeldata{l3pdf39}{{abspage}{6}}
\newlabeldata{mcid-96}{{tagabspage}{6}{tagmcabs}{96}{tagmcid}{39}}
\newlabeldata{l3pdf40}{{abspage}{6}}
\newlabeldata{mcid-97}{{tagabspage}{6}{tagmcabs}{97}{tagmcid}{40}}
\newlabeldata{l3pdf41}{{abspage}{6}}
\newlabeldata{mcid-99}{{tagabspage}{6}{tagmcabs}{99}{tagmcid}{41}}
\newlabeldata{l3pdf42}{{abspage}{6}}
\@writefile{nav}{\headcommand {\slideentry {2}{0}{2}{6/6}{}{0}}}
\@writefile{nav}{\headcommand {\beamer@framepages {6}{6}}}
\BKM@entry{id=3,open,dest={4F75746C696E65302E33},srcline={149}}{5C3337365C3337375C303030705C303030615C303030725C303030745C3030305C3034305C30303033}
\@writefile{toc}{\beamer@sectionintoc {3}{part 3}{7}{0}{3}}
\@writefile{nav}{\headcommand {\beamer@sectionpages {5}{6}}}
\@writefile{nav}{\headcommand {\beamer@subsectionpages {5}{6}}}
\@writefile{nav}{\headcommand {\sectionentry {3}{part 3}{7}{part 3}{0}}}
\newlabeldata{mcid-106}{{tagabspage}{7}{tagmcabs}{106}{tagmcid}{45}}
\newlabeldata{l3pdf46}{{abspage}{7}}
\newlabeldata{mcid-104}{{tagabspage}{7}{tagmcabs}{104}{tagmcid}{43}}
\newlabeldata{l3pdf44}{{abspage}{7}}
\newlabeldata{mcid-105}{{tagabspage}{7}{tagmcabs}{105}{tagmcid}{44}}
\newlabeldata{l3pdf45}{{abspage}{7}}
\@writefile{nav}{\headcommand {\slideentry {3}{0}{1}{7/7}{}{0}}}
\@writefile{nav}{\headcommand {\beamer@framepages {7}{7}}}
\@writefile{nav}{\headcommand {\beamer@partpages {1}{8}}}
\@writefile{nav}{\headcommand {\beamer@subsectionpages {7}{8}}}
\@writefile{nav}{\headcommand {\beamer@sectionpages {7}{8}}}
\@writefile{nav}{\headcommand {\beamer@documentpages {8}}}
\@writefile{nav}{\headcommand {\gdef \inserttotalframenumber {7}}}
\gdef\minted@oldcachelist{,
  default.pygstyle,
  B425F568A61B33847F907F59C673E38941B771FCD21AC2C4AF1FF0883FED485A.pygtex}
\newlabeldata{__tag_LastPage}{{abspage}{8}{tagmcabs}{110}}
\gdef\svg@ink@ver@settings{{\m@ne }{inkscape}{1}}
\gdef \@abspage@last{8}
