\relax 
\providecommand\hyper@newdestlabel[2]{}
\providecommand{\transparent@use}[1]{}
\providecommand\HyperFirstAtBeginDocument{\AtBeginDocument}
\HyperFirstAtBeginDocument{\ifx\hyper@anchor\@undefined
\global\let\oldcontentsline\contentsline
\gdef\contentsline#1#2#3#4{\oldcontentsline{#1}{#2}{#3}}
\global\let\oldnewlabel\newlabel
\gdef\newlabel#1#2{\newlabelxx{#1}#2}
\gdef\newlabelxx#1#2#3#4#5#6{\oldnewlabel{#1}{{#2}{#3}}}
\AtEndDocument{\ifx\hyper@anchor\@undefined
\let\contentsline\oldcontentsline
\let\newlabel\oldnewlabel
\fi}
\fi}
\global\let\hyper@last\relax 
\gdef\HyperFirstAtBeginDocument#1{#1}
\providecommand\HyField@AuxAddToFields[1]{}
\providecommand\HyField@AuxAddToCoFields[2]{}
\newlabeldata{mcid-1}{{tagabspage}{1}{tagmcabs}{1}{tagmcid}{0}}
\newlabeldata{mcid-2}{{tagabspage}{1}{tagmcabs}{2}{tagmcid}{1}}
\@writefile{nav}{\headcommand {\slideentry {0}{0}{1}{1/1}{}{0}}}
\@writefile{nav}{\headcommand {\beamer@framepages {1}{1}}}
\@writefile{nav}{\headcommand {\slideentry {0}{0}{2}{2/2}{}{0}}}
\@writefile{nav}{\headcommand {\beamer@framepages {2}{2}}}
\@writefile{toc}{\beamer@sectionintoc {1}{Survey Results}{4}{0}{1}}
\@writefile{nav}{\headcommand {\beamer@sectionpages {1}{3}}}
\@writefile{nav}{\headcommand {\beamer@subsectionpages {1}{3}}}
\@writefile{nav}{\headcommand {\sectionentry {1}{Survey Results}{4}{Survey Results}{0}}}
\@writefile{toc}{\beamer@subsectionintoc {1}{1}{Some Stats}{4}{0}{1}}
\@writefile{nav}{\headcommand {\beamer@subsectionpages {4}{3}}}
\@writefile{nav}{\headcommand {\beamer@subsectionentry {0}{1}{1}{4}{Some Stats}}}
\@writefile{nav}{\headcommand {\slideentry {1}{1}{1}{4/4}{Some Stats}{0}}}
\@writefile{nav}{\headcommand {\beamer@framepages {4}{4}}}
\@writefile{toc}{\beamer@subsectionintoc {1}{2}{Concerns about Learning C++}{6}{0}{1}}
\@writefile{nav}{\headcommand {\beamer@subsectionpages {4}{5}}}
\@writefile{nav}{\headcommand {\beamer@subsectionentry {0}{1}{2}{6}{Concerns about Learning C++}}}
\@writefile{nav}{\headcommand {\slideentry {1}{2}{1}{6/6}{Concerns about Learning C++}{0}}}
\@writefile{nav}{\headcommand {\beamer@framepages {6}{6}}}
\@writefile{toc}{\beamer@subsectionintoc {1}{3}{Desired Course Material}{8}{0}{1}}
\@writefile{nav}{\headcommand {\beamer@subsectionpages {6}{7}}}
\@writefile{nav}{\headcommand {\beamer@subsectionentry {0}{1}{3}{8}{Desired Course Material}}}
\@writefile{nav}{\headcommand {\slideentry {1}{3}{1}{8/8}{Desired Course Material}{0}}}
\@writefile{nav}{\headcommand {\beamer@framepages {8}{8}}}
\@writefile{toc}{\beamer@sectionintoc {2}{Course Plan}{10}{0}{2}}
\@writefile{nav}{\headcommand {\beamer@sectionpages {4}{9}}}
\@writefile{nav}{\headcommand {\beamer@subsectionpages {8}{9}}}
\@writefile{nav}{\headcommand {\sectionentry {2}{Course Plan}{10}{Course Plan}{0}}}
\@writefile{nav}{\headcommand {\slideentry {2}{0}{1}{10/10}{}{0}}}
\@writefile{nav}{\headcommand {\beamer@framepages {10}{10}}}
\@writefile{nav}{\headcommand {\slideentry {2}{0}{2}{12/12}{}{0}}}
\@writefile{nav}{\headcommand {\beamer@framepages {12}{12}}}
\@writefile{nav}{\headcommand {\slideentry {2}{0}{3}{14/14}{}{0}}}
\@writefile{nav}{\headcommand {\beamer@framepages {14}{14}}}
\@writefile{toc}{\beamer@sectionintoc {3}{Getting Oriented with C++}{16}{0}{3}}
\@writefile{nav}{\headcommand {\beamer@sectionpages {10}{15}}}
\@writefile{nav}{\headcommand {\beamer@subsectionpages {10}{15}}}
\@writefile{nav}{\headcommand {\sectionentry {3}{Getting Oriented with C++}{16}{Getting Oriented with C++}{0}}}
\@writefile{toc}{\beamer@subsectionintoc {3}{1}{Static vs Dynamic Typing}{16}{0}{3}}
\@writefile{nav}{\headcommand {\beamer@subsectionpages {16}{15}}}
\@writefile{nav}{\headcommand {\beamer@subsectionentry {0}{3}{1}{16}{Static vs Dynamic Typing}}}
\newlabeldata{mcid-3}{{tagabspage}{16}{tagmcabs}{3}{tagmcid}{2}}
\newlabeldata{mcid-4}{{tagabspage}{16}{tagmcabs}{4}{tagmcid}{3}}
\@writefile{nav}{\headcommand {\slideentry {3}{1}{1}{16/16}{Static vs Dynamic Typing}{0}}}
\@writefile{nav}{\headcommand {\beamer@framepages {16}{16}}}
\@writefile{nav}{\headcommand {\slideentry {3}{1}{2}{18/18}{Static vs Dynamic Typing}{0}}}
\@writefile{nav}{\headcommand {\beamer@framepages {18}{18}}}
\newlabeldata{mcid-5}{{tagabspage}{20}{tagmcabs}{5}{tagmcid}{4}}
\@writefile{nav}{\headcommand {\slideentry {3}{1}{3}{20/20}{Static vs Dynamic Typing}{0}}}
\@writefile{nav}{\headcommand {\beamer@framepages {20}{20}}}
\newlabeldata{mcid-6}{{tagabspage}{22}{tagmcabs}{6}{tagmcid}{5}}
\@writefile{nav}{\headcommand {\slideentry {3}{1}{4}{22/22}{Static vs Dynamic Typing}{0}}}
\@writefile{nav}{\headcommand {\beamer@framepages {22}{22}}}
\newlabeldata{mcid-7}{{tagabspage}{24}{tagmcabs}{7}{tagmcid}{6}}
\newlabeldata{mcid-8}{{tagabspage}{24}{tagmcabs}{8}{tagmcid}{7}}
\@writefile{nav}{\headcommand {\slideentry {3}{1}{5}{24/24}{Static vs Dynamic Typing}{0}}}
\@writefile{nav}{\headcommand {\beamer@framepages {24}{24}}}
\newlabeldata{mcid-9}{{tagabspage}{26}{tagmcabs}{9}{tagmcid}{8}}
\newlabeldata{mcid-10}{{tagabspage}{26}{tagmcabs}{10}{tagmcid}{9}}
\@writefile{nav}{\headcommand {\slideentry {3}{1}{6}{26/26}{Static vs Dynamic Typing}{0}}}
\@writefile{nav}{\headcommand {\beamer@framepages {26}{26}}}
\newlabeldata{mcid-11}{{tagabspage}{28}{tagmcabs}{11}{tagmcid}{10}}
\newlabeldata{mcid-12}{{tagabspage}{28}{tagmcabs}{12}{tagmcid}{11}}
\@writefile{nav}{\headcommand {\slideentry {3}{1}{7}{28/28}{Static vs Dynamic Typing}{0}}}
\@writefile{nav}{\headcommand {\beamer@framepages {28}{28}}}
\newlabeldata{mcid-13}{{tagabspage}{30}{tagmcabs}{13}{tagmcid}{12}}
\newlabeldata{mcid-14}{{tagabspage}{30}{tagmcabs}{14}{tagmcid}{13}}
\@writefile{nav}{\headcommand {\slideentry {3}{1}{8}{30/30}{Static vs Dynamic Typing}{0}}}
\@writefile{nav}{\headcommand {\beamer@framepages {30}{30}}}
\@writefile{toc}{\beamer@subsectionintoc {3}{2}{Procedural vs Object Oriented}{32}{0}{3}}
\@writefile{nav}{\headcommand {\beamer@subsectionpages {16}{31}}}
\@writefile{nav}{\headcommand {\beamer@subsectionentry {0}{3}{2}{32}{Procedural vs Object Oriented}}}
\@writefile{nav}{\headcommand {\slideentry {3}{2}{1}{32/32}{Procedural vs Object Oriented}{0}}}
\@writefile{nav}{\headcommand {\beamer@framepages {32}{32}}}
\newlabeldata{mcid-15}{{tagabspage}{34}{tagmcabs}{15}{tagmcid}{14}}
\newlabeldata{mcid-16}{{tagabspage}{34}{tagmcabs}{16}{tagmcid}{15}}
\@writefile{nav}{\headcommand {\slideentry {3}{2}{2}{34/34}{Procedural vs Object Oriented}{0}}}
\@writefile{nav}{\headcommand {\beamer@framepages {34}{34}}}
\@writefile{toc}{\beamer@subsectionintoc {3}{3}{Type Coercion}{36}{0}{3}}
\@writefile{nav}{\headcommand {\beamer@subsectionpages {32}{35}}}
\@writefile{nav}{\headcommand {\beamer@subsectionentry {0}{3}{3}{36}{Type Coercion}}}
\@writefile{nav}{\headcommand {\slideentry {3}{3}{1}{36/36}{Type Coercion}{0}}}
\@writefile{nav}{\headcommand {\beamer@framepages {36}{36}}}
\@writefile{nav}{\headcommand {\slideentry {3}{3}{2}{38/38}{Type Coercion}{0}}}
\@writefile{nav}{\headcommand {\beamer@framepages {38}{38}}}
\@writefile{toc}{\beamer@subsectionintoc {3}{4}{Arguments Copy by Default}{40}{0}{3}}
\@writefile{nav}{\headcommand {\beamer@subsectionpages {36}{39}}}
\@writefile{nav}{\headcommand {\beamer@subsectionentry {0}{3}{4}{40}{Arguments Copy by Default}}}
\newlabeldata{mcid-17}{{tagabspage}{40}{tagmcabs}{17}{tagmcid}{16}}
\@writefile{nav}{\headcommand {\slideentry {3}{4}{1}{40/40}{Arguments Copy by Default}{0}}}
\@writefile{nav}{\headcommand {\beamer@framepages {40}{40}}}
\@writefile{toc}{\beamer@subsectionintoc {3}{5}{References}{42}{0}{3}}
\@writefile{nav}{\headcommand {\beamer@subsectionpages {40}{41}}}
\@writefile{nav}{\headcommand {\beamer@subsectionentry {0}{3}{5}{42}{References}}}
\@writefile{nav}{\headcommand {\slideentry {3}{5}{1}{42/42}{References}{0}}}
\@writefile{nav}{\headcommand {\beamer@framepages {42}{42}}}
\newlabeldata{mcid-18}{{tagabspage}{44}{tagmcabs}{18}{tagmcid}{17}}
\@writefile{nav}{\headcommand {\slideentry {3}{5}{2}{44/44}{References}{0}}}
\@writefile{nav}{\headcommand {\beamer@framepages {44}{44}}}
\newlabeldata{mcid-19}{{tagabspage}{46}{tagmcabs}{19}{tagmcid}{18}}
\@writefile{nav}{\headcommand {\slideentry {3}{5}{3}{46/46}{References}{0}}}
\@writefile{nav}{\headcommand {\beamer@framepages {46}{46}}}
\@writefile{toc}{\beamer@sectionintoc {4}{Common C++/Java/Python Features}{48}{0}{4}}
\@writefile{nav}{\headcommand {\beamer@sectionpages {16}{47}}}
\@writefile{nav}{\headcommand {\beamer@subsectionpages {42}{47}}}
\@writefile{nav}{\headcommand {\sectionentry {4}{Common C++/Java/Python Features}{48}{Common C++/Java/Python Features}{0}}}
\@writefile{toc}{\beamer@subsectionintoc {4}{1}{Arithmetic Operators}{48}{0}{4}}
\@writefile{nav}{\headcommand {\beamer@subsectionpages {48}{47}}}
\@writefile{nav}{\headcommand {\beamer@subsectionentry {0}{4}{1}{48}{Arithmetic Operators}}}
\@writefile{nav}{\headcommand {\slideentry {4}{1}{1}{48/48}{Arithmetic Operators}{0}}}
\@writefile{nav}{\headcommand {\beamer@framepages {48}{48}}}
\@writefile{toc}{\beamer@subsectionintoc {4}{2}{Assignment Operators}{50}{0}{4}}
\@writefile{nav}{\headcommand {\beamer@subsectionpages {48}{49}}}
\@writefile{nav}{\headcommand {\beamer@subsectionentry {0}{4}{2}{50}{Assignment Operators}}}
\@writefile{nav}{\headcommand {\slideentry {4}{2}{1}{50/50}{Assignment Operators}{0}}}
\@writefile{nav}{\headcommand {\beamer@framepages {50}{50}}}
\@writefile{toc}{\beamer@subsectionintoc {4}{3}{Scopes}{52}{0}{4}}
\@writefile{nav}{\headcommand {\beamer@subsectionpages {50}{51}}}
\@writefile{nav}{\headcommand {\beamer@subsectionentry {0}{4}{3}{52}{Scopes}}}
\@writefile{nav}{\headcommand {\slideentry {4}{3}{1}{52/52}{Scopes}{0}}}
\@writefile{nav}{\headcommand {\beamer@framepages {52}{52}}}
\newlabeldata{mcid-20}{{tagabspage}{54}{tagmcabs}{20}{tagmcid}{19}}
\@writefile{nav}{\headcommand {\slideentry {4}{3}{2}{54/54}{Scopes}{0}}}
\@writefile{nav}{\headcommand {\beamer@framepages {54}{54}}}
\@writefile{toc}{\beamer@sectionintoc {5}{Checking our C++ Literacy}{56}{0}{5}}
\@writefile{nav}{\headcommand {\beamer@sectionpages {48}{55}}}
\@writefile{nav}{\headcommand {\beamer@subsectionpages {52}{55}}}
\@writefile{nav}{\headcommand {\sectionentry {5}{Checking our C++ Literacy}{56}{Checking our C++ Literacy}{0}}}
\@writefile{toc}{\beamer@subsectionintoc {5}{1}{Equivalent Expressions}{56}{0}{5}}
\@writefile{nav}{\headcommand {\beamer@subsectionpages {56}{55}}}
\@writefile{nav}{\headcommand {\beamer@subsectionentry {0}{5}{1}{56}{Equivalent Expressions}}}
\newlabeldata{mcid-21}{{tagabspage}{56}{tagmcabs}{21}{tagmcid}{20}}
\@writefile{nav}{\headcommand {\slideentry {5}{1}{1}{56/56}{Equivalent Expressions}{0}}}
\@writefile{nav}{\headcommand {\beamer@framepages {56}{56}}}
\newlabeldata{mcid-22}{{tagabspage}{58}{tagmcabs}{22}{tagmcid}{21}}
\newlabeldata{mcid-23}{{tagabspage}{58}{tagmcabs}{23}{tagmcid}{22}}
\@writefile{nav}{\headcommand {\slideentry {5}{1}{2}{58/58}{Equivalent Expressions}{0}}}
\@writefile{nav}{\headcommand {\beamer@framepages {58}{58}}}
\@writefile{nav}{\headcommand {\beamer@partpages {1}{60}}}
\@writefile{nav}{\headcommand {\beamer@subsectionpages {56}{60}}}
\@writefile{nav}{\headcommand {\beamer@sectionpages {56}{60}}}
\@writefile{nav}{\headcommand {\beamer@documentpages {60}}}
\@writefile{nav}{\headcommand {\gdef \inserttotalframenumber {30}}}
\gdef\minted@oldcachelist{,
  default.pygstyle,
  41B4DCFF14BBE1117056C9BA4BBD07A54D44116E12FBFDB1E147AC01016867AE.pygtex,
  318C7CBEE0A1422DB00C4C924C23A226D53321BF9E5791F746C5D0888D282388.pygtex,
  A96184E0980BAE5D3F24B5A27EDFD9F54D44116E12FBFDB1E147AC01016867AE.pygtex,
  B116B7DC08FA8323EEB999B30CBC37DD4D44116E12FBFDB1E147AC01016867AE.pygtex,
  D3E2DCB97AA57EAA05726C9321DD664E4D44116E12FBFDB1E147AC01016867AE.pygtex,
  C3CF78F9E37F27628C8261E805ED4300D53321BF9E5791F746C5D0888D282388.pygtex,
  8A05167EBB80C83C2A03009B0F17C2C14D44116E12FBFDB1E147AC01016867AE.pygtex,
  6C04C603D0DA0DBC7DB9ABEB12183633D53321BF9E5791F746C5D0888D282388.pygtex,
  A11E3CD3619CBF5FBE4F12647A5F2BF94D44116E12FBFDB1E147AC01016867AE.pygtex,
  450812297948A45D81DB2238F88F86BAD53321BF9E5791F746C5D0888D282388.pygtex,
  F165258D8BFE89FDDDD4925619E1A3074D44116E12FBFDB1E147AC01016867AE.pygtex,
  290370A8152507514885FC0E2E54AFBED53321BF9E5791F746C5D0888D282388.pygtex,
  2BFCF0DE280AD0D04DFD731FE998011E4D44116E12FBFDB1E147AC01016867AE.pygtex,
  28AC000AFC1430E85B8EBDA281F98F4C48F45CB16A39691532EE06D8A3CC80FB.pygtex,
  14DBE40E89382EF66E4F1596E4CDD34A4D44116E12FBFDB1E147AC01016867AE.pygtex,
  74AF0D41AC41FB6EF8EC3D82669104744D44116E12FBFDB1E147AC01016867AE.pygtex,
  B95AAC3BBCB75EBA61E8F14CD877C1764D44116E12FBFDB1E147AC01016867AE.pygtex,
  595AC33F7D9A07C57A91E17478F4B2DB4D44116E12FBFDB1E147AC01016867AE.pygtex,
  445423F0F25FCBC8716031B972BA513D4D44116E12FBFDB1E147AC01016867AE.pygtex,
  445423F0F25FCBC8716031B972BA513D4D44116E12FBFDB1E147AC01016867AE.pygtex,
  602BCF3E8F1222E3DCA97459D9E1E6D34D44116E12FBFDB1E147AC01016867AE.pygtex}
\newlabeldata{__tag_LastPage}{{abspage}{62}{tagmcabs}{23}}
\gdef\svg@ink@ver@settings{{\m@ne }{inkscape}{1}}
\gdef \@abspage@last{62}
