\relax 
\providecommand\hyper@newdestlabel[2]{}
\providecommand\HyperFirstAtBeginDocument{\AtBeginDocument}
\HyperFirstAtBeginDocument{\ifx\hyper@anchor\@undefined
\global\let\oldcontentsline\contentsline
\gdef\contentsline#1#2#3#4{\oldcontentsline{#1}{#2}{#3}}
\global\let\oldnewlabel\newlabel
\gdef\newlabel#1#2{\newlabelxx{#1}#2}
\gdef\newlabelxx#1#2#3#4#5#6{\oldnewlabel{#1}{{#2}{#3}}}
\AtEndDocument{\ifx\hyper@anchor\@undefined
\let\contentsline\oldcontentsline
\let\newlabel\oldnewlabel
\fi}
\fi}
\global\let\hyper@last\relax 
\gdef\HyperFirstAtBeginDocument#1{#1}
\providecommand\HyField@AuxAddToFields[1]{}
\providecommand\HyField@AuxAddToCoFields[2]{}
\providecommand\BKM@entry[2]{}
\newlabeldata{mcid-1}{{tagabspage}{1}{tagmcabs}{1}{tagmcid}{0}}
\newlabeldata{l3pdf1}{{abspage}{1}}
\newlabeldata{mcid-2}{{tagabspage}{1}{tagmcabs}{2}{tagmcid}{1}}
\newlabeldata{l3pdf2}{{abspage}{1}}
\newlabeldata{mcid-3}{{tagabspage}{1}{tagmcabs}{3}{tagmcid}{2}}
\newlabeldata{l3pdf3}{{abspage}{1}}
\newlabeldata{mcid-4}{{tagabspage}{1}{tagmcabs}{4}{tagmcid}{3}}
\newlabeldata{l3pdf4}{{abspage}{1}}
\@writefile{nav}{\headcommand {\slideentry {0}{0}{1}{1/1}{}{0}}}
\@writefile{nav}{\headcommand {\beamer@framepages {1}{1}}}
\newlabeldata{mcid-36}{{tagabspage}{2}{tagmcabs}{36}{tagmcid}{29}}
\newlabeldata{l3pdf34}{{abspage}{2}}
\newlabeldata{mcid-37}{{tagabspage}{2}{tagmcabs}{37}{tagmcid}{30}}
\newlabeldata{l3pdf35}{{abspage}{2}}
\newlabeldata{mcid-38}{{tagabspage}{2}{tagmcabs}{38}{tagmcid}{31}}
\newlabeldata{l3pdf36}{{abspage}{2}}
\newlabeldata{mcid-7}{{tagabspage}{2}{tagmcabs}{7}{tagmcid}{0}}
\newlabeldata{l3pdf5}{{abspage}{2}}
\newlabeldata{mcid-8}{{tagabspage}{2}{tagmcabs}{8}{tagmcid}{1}}
\newlabeldata{l3pdf6}{{abspage}{2}}
\newlabeldata{mcid-9}{{tagabspage}{2}{tagmcabs}{9}{tagmcid}{2}}
\newlabeldata{l3pdf7}{{abspage}{2}}
\newlabeldata{mcid-10}{{tagabspage}{2}{tagmcabs}{10}{tagmcid}{3}}
\newlabeldata{l3pdf8}{{abspage}{2}}
\newlabeldata{mcid-11}{{tagabspage}{2}{tagmcabs}{11}{tagmcid}{4}}
\newlabeldata{l3pdf9}{{abspage}{2}}
\newlabeldata{mcid-12}{{tagabspage}{2}{tagmcabs}{12}{tagmcid}{5}}
\newlabeldata{l3pdf10}{{abspage}{2}}
\newlabeldata{mcid-13}{{tagabspage}{2}{tagmcabs}{13}{tagmcid}{6}}
\newlabeldata{l3pdf11}{{abspage}{2}}
\newlabeldata{mcid-14}{{tagabspage}{2}{tagmcabs}{14}{tagmcid}{7}}
\newlabeldata{l3pdf12}{{abspage}{2}}
\newlabeldata{mcid-15}{{tagabspage}{2}{tagmcabs}{15}{tagmcid}{8}}
\newlabeldata{l3pdf13}{{abspage}{2}}
\newlabeldata{mcid-16}{{tagabspage}{2}{tagmcabs}{16}{tagmcid}{9}}
\newlabeldata{l3pdf14}{{abspage}{2}}
\newlabeldata{mcid-17}{{tagabspage}{2}{tagmcabs}{17}{tagmcid}{10}}
\newlabeldata{l3pdf15}{{abspage}{2}}
\newlabeldata{mcid-18}{{tagabspage}{2}{tagmcabs}{18}{tagmcid}{11}}
\newlabeldata{l3pdf16}{{abspage}{2}}
\newlabeldata{mcid-19}{{tagabspage}{2}{tagmcabs}{19}{tagmcid}{12}}
\newlabeldata{l3pdf17}{{abspage}{2}}
\newlabeldata{mcid-20}{{tagabspage}{2}{tagmcabs}{20}{tagmcid}{13}}
\newlabeldata{l3pdf18}{{abspage}{2}}
\newlabeldata{mcid-21}{{tagabspage}{2}{tagmcabs}{21}{tagmcid}{14}}
\newlabeldata{l3pdf19}{{abspage}{2}}
\newlabeldata{mcid-22}{{tagabspage}{2}{tagmcabs}{22}{tagmcid}{15}}
\newlabeldata{l3pdf20}{{abspage}{2}}
\newlabeldata{mcid-23}{{tagabspage}{2}{tagmcabs}{23}{tagmcid}{16}}
\newlabeldata{l3pdf21}{{abspage}{2}}
\newlabeldata{mcid-24}{{tagabspage}{2}{tagmcabs}{24}{tagmcid}{17}}
\newlabeldata{l3pdf22}{{abspage}{2}}
\newlabeldata{mcid-25}{{tagabspage}{2}{tagmcabs}{25}{tagmcid}{18}}
\newlabeldata{l3pdf23}{{abspage}{2}}
\newlabeldata{mcid-26}{{tagabspage}{2}{tagmcabs}{26}{tagmcid}{19}}
\newlabeldata{l3pdf24}{{abspage}{2}}
\newlabeldata{mcid-27}{{tagabspage}{2}{tagmcabs}{27}{tagmcid}{20}}
\newlabeldata{l3pdf25}{{abspage}{2}}
\newlabeldata{mcid-28}{{tagabspage}{2}{tagmcabs}{28}{tagmcid}{21}}
\newlabeldata{l3pdf26}{{abspage}{2}}
\newlabeldata{mcid-29}{{tagabspage}{2}{tagmcabs}{29}{tagmcid}{22}}
\newlabeldata{l3pdf27}{{abspage}{2}}
\newlabeldata{mcid-30}{{tagabspage}{2}{tagmcabs}{30}{tagmcid}{23}}
\newlabeldata{l3pdf28}{{abspage}{2}}
\newlabeldata{mcid-31}{{tagabspage}{2}{tagmcabs}{31}{tagmcid}{24}}
\newlabeldata{l3pdf29}{{abspage}{2}}
\newlabeldata{mcid-32}{{tagabspage}{2}{tagmcabs}{32}{tagmcid}{25}}
\newlabeldata{l3pdf30}{{abspage}{2}}
\newlabeldata{mcid-33}{{tagabspage}{2}{tagmcabs}{33}{tagmcid}{26}}
\newlabeldata{l3pdf31}{{abspage}{2}}
\newlabeldata{mcid-34}{{tagabspage}{2}{tagmcabs}{34}{tagmcid}{27}}
\newlabeldata{l3pdf32}{{abspage}{2}}
\newlabeldata{mcid-35}{{tagabspage}{2}{tagmcabs}{35}{tagmcid}{28}}
\newlabeldata{l3pdf33}{{abspage}{2}}
\@writefile{nav}{\headcommand {\slideentry {0}{0}{2}{2/2}{}{0}}}
\@writefile{nav}{\headcommand {\beamer@framepages {2}{2}}}
\BKM@entry{id=1,open,dest={4F75746C696E65302E31},srcline={66}}{5C3337365C3337375C303030435C3030306F5C303030755C303030725C303030735C303030655C3030305C3034305C3030304C5C303030655C303030615C303030725C3030306E5C303030695C3030306E5C303030675C3030305C3034305C3030304F5C303030755C303030745C303030635C3030306F5C3030306D5C303030655C30303073}
\@writefile{toc}{\beamer@sectionintoc {1}{Course Learning Outcomes}{3}{0}{1}}
\@writefile{nav}{\headcommand {\beamer@sectionpages {1}{2}}}
\@writefile{nav}{\headcommand {\beamer@subsectionpages {1}{2}}}
\@writefile{nav}{\headcommand {\sectionentry {1}{Course Learning Outcomes}{3}{Course Learning Outcomes}{0}}}
\newlabeldata{mcid-69}{{tagabspage}{3}{tagmcabs}{69}{tagmcid}{28}}
\newlabeldata{l3pdf65}{{abspage}{3}}
\newlabeldata{mcid-70}{{tagabspage}{3}{tagmcabs}{70}{tagmcid}{29}}
\newlabeldata{l3pdf66}{{abspage}{3}}
\newlabeldata{mcid-71}{{tagabspage}{3}{tagmcabs}{71}{tagmcid}{30}}
\newlabeldata{l3pdf67}{{abspage}{3}}
\newlabeldata{mcid-41}{{tagabspage}{3}{tagmcabs}{41}{tagmcid}{0}}
\newlabeldata{l3pdf37}{{abspage}{3}}
\newlabeldata{mcid-42}{{tagabspage}{3}{tagmcabs}{42}{tagmcid}{1}}
\newlabeldata{l3pdf38}{{abspage}{3}}
\newlabeldata{mcid-43}{{tagabspage}{3}{tagmcabs}{43}{tagmcid}{2}}
\newlabeldata{l3pdf39}{{abspage}{3}}
\newlabeldata{mcid-45}{{tagabspage}{3}{tagmcabs}{45}{tagmcid}{4}}
\newlabeldata{l3pdf41}{{abspage}{3}}
\newlabeldata{mcid-44}{{tagabspage}{3}{tagmcabs}{44}{tagmcid}{3}}
\newlabeldata{l3pdf40}{{abspage}{3}}
\newlabeldata{mcid-47}{{tagabspage}{3}{tagmcabs}{47}{tagmcid}{6}}
\newlabeldata{l3pdf43}{{abspage}{3}}
\newlabeldata{mcid-46}{{tagabspage}{3}{tagmcabs}{46}{tagmcid}{5}}
\newlabeldata{l3pdf42}{{abspage}{3}}
\newlabeldata{mcid-49}{{tagabspage}{3}{tagmcabs}{49}{tagmcid}{8}}
\newlabeldata{l3pdf45}{{abspage}{3}}
\newlabeldata{mcid-48}{{tagabspage}{3}{tagmcabs}{48}{tagmcid}{7}}
\newlabeldata{l3pdf44}{{abspage}{3}}
\newlabeldata{mcid-51}{{tagabspage}{3}{tagmcabs}{51}{tagmcid}{10}}
\newlabeldata{l3pdf47}{{abspage}{3}}
\newlabeldata{mcid-50}{{tagabspage}{3}{tagmcabs}{50}{tagmcid}{9}}
\newlabeldata{l3pdf46}{{abspage}{3}}
\newlabeldata{mcid-53}{{tagabspage}{3}{tagmcabs}{53}{tagmcid}{12}}
\newlabeldata{l3pdf49}{{abspage}{3}}
\newlabeldata{mcid-52}{{tagabspage}{3}{tagmcabs}{52}{tagmcid}{11}}
\newlabeldata{l3pdf48}{{abspage}{3}}
\newlabeldata{mcid-54}{{tagabspage}{3}{tagmcabs}{54}{tagmcid}{13}}
\newlabeldata{l3pdf50}{{abspage}{3}}
\newlabeldata{mcid-55}{{tagabspage}{3}{tagmcabs}{55}{tagmcid}{14}}
\newlabeldata{l3pdf51}{{abspage}{3}}
\newlabeldata{mcid-57}{{tagabspage}{3}{tagmcabs}{57}{tagmcid}{16}}
\newlabeldata{l3pdf53}{{abspage}{3}}
\newlabeldata{mcid-56}{{tagabspage}{3}{tagmcabs}{56}{tagmcid}{15}}
\newlabeldata{l3pdf52}{{abspage}{3}}
\newlabeldata{mcid-59}{{tagabspage}{3}{tagmcabs}{59}{tagmcid}{18}}
\newlabeldata{l3pdf55}{{abspage}{3}}
\newlabeldata{mcid-58}{{tagabspage}{3}{tagmcabs}{58}{tagmcid}{17}}
\newlabeldata{l3pdf54}{{abspage}{3}}
\newlabeldata{mcid-61}{{tagabspage}{3}{tagmcabs}{61}{tagmcid}{20}}
\newlabeldata{l3pdf57}{{abspage}{3}}
\newlabeldata{mcid-60}{{tagabspage}{3}{tagmcabs}{60}{tagmcid}{19}}
\newlabeldata{l3pdf56}{{abspage}{3}}
\newlabeldata{mcid-63}{{tagabspage}{3}{tagmcabs}{63}{tagmcid}{22}}
\newlabeldata{l3pdf59}{{abspage}{3}}
\newlabeldata{mcid-62}{{tagabspage}{3}{tagmcabs}{62}{tagmcid}{21}}
\newlabeldata{l3pdf58}{{abspage}{3}}
\newlabeldata{mcid-65}{{tagabspage}{3}{tagmcabs}{65}{tagmcid}{24}}
\newlabeldata{l3pdf61}{{abspage}{3}}
\newlabeldata{mcid-64}{{tagabspage}{3}{tagmcabs}{64}{tagmcid}{23}}
\newlabeldata{l3pdf60}{{abspage}{3}}
\newlabeldata{mcid-66}{{tagabspage}{3}{tagmcabs}{66}{tagmcid}{25}}
\newlabeldata{l3pdf62}{{abspage}{3}}
\newlabeldata{mcid-68}{{tagabspage}{3}{tagmcabs}{68}{tagmcid}{27}}
\newlabeldata{l3pdf64}{{abspage}{3}}
\newlabeldata{mcid-67}{{tagabspage}{3}{tagmcabs}{67}{tagmcid}{26}}
\newlabeldata{l3pdf63}{{abspage}{3}}
\@writefile{nav}{\headcommand {\slideentry {1}{0}{1}{3/3}{}{0}}}
\@writefile{nav}{\headcommand {\beamer@framepages {3}{3}}}
\BKM@entry{id=2,open,dest={4F75746C696E65302E32},srcline={111}}{5C3337365C3337375C303030575C303030685C303030615C303030745C3030305C3034305C303030695C303030735C3030305C3034305C303030615C3030305C3034305C303030605C303030605C303030545C303030795C303030705C303030655C303030275C303030275C3030303F}
\@writefile{toc}{\beamer@sectionintoc {2}{What is a ``Type''?}{4}{0}{2}}
\@writefile{nav}{\headcommand {\beamer@sectionpages {3}{3}}}
\@writefile{nav}{\headcommand {\beamer@subsectionpages {3}{3}}}
\@writefile{nav}{\headcommand {\sectionentry {2}{What is a ``Type''?}{4}{What is a ``Type''?}{0}}}
\newlabeldata{mcid-74}{{tagabspage}{4}{tagmcabs}{74}{tagmcid}{0}}
\newlabeldata{l3pdf68}{{abspage}{4}}
\newlabeldata{mcid-75}{{tagabspage}{4}{tagmcabs}{75}{tagmcid}{1}}
\newlabeldata{l3pdf69}{{abspage}{4}}
\newlabeldata{mcid-76}{{tagabspage}{4}{tagmcabs}{76}{tagmcid}{2}}
\newlabeldata{l3pdf70}{{abspage}{4}}
\newlabeldata{mcid-77}{{tagabspage}{4}{tagmcabs}{77}{tagmcid}{3}}
\newlabeldata{l3pdf71}{{abspage}{4}}
\newlabeldata{mcid-78}{{tagabspage}{4}{tagmcabs}{78}{tagmcid}{4}}
\newlabeldata{l3pdf72}{{abspage}{4}}
\@writefile{nav}{\headcommand {\slideentry {2}{0}{1}{4/4}{}{0}}}
\@writefile{nav}{\headcommand {\beamer@framepages {4}{4}}}
\newlabeldata{mcid-106}{{tagabspage}{5}{tagmcabs}{106}{tagmcid}{25}}
\newlabeldata{l3pdf98}{{abspage}{5}}
\newlabeldata{mcid-107}{{tagabspage}{5}{tagmcabs}{107}{tagmcid}{26}}
\newlabeldata{l3pdf99}{{abspage}{5}}
\newlabeldata{mcid-108}{{tagabspage}{5}{tagmcabs}{108}{tagmcid}{27}}
\newlabeldata{l3pdf100}{{abspage}{5}}
\newlabeldata{mcid-81}{{tagabspage}{5}{tagmcabs}{81}{tagmcid}{0}}
\newlabeldata{l3pdf73}{{abspage}{5}}
\newlabeldata{mcid-82}{{tagabspage}{5}{tagmcabs}{82}{tagmcid}{1}}
\newlabeldata{l3pdf74}{{abspage}{5}}
\newlabeldata{mcid-83}{{tagabspage}{5}{tagmcabs}{83}{tagmcid}{2}}
\newlabeldata{l3pdf75}{{abspage}{5}}
\newlabeldata{mcid-84}{{tagabspage}{5}{tagmcabs}{84}{tagmcid}{3}}
\newlabeldata{l3pdf76}{{abspage}{5}}
\newlabeldata{mcid-85}{{tagabspage}{5}{tagmcabs}{85}{tagmcid}{4}}
\newlabeldata{l3pdf77}{{abspage}{5}}
\newlabeldata{mcid-86}{{tagabspage}{5}{tagmcabs}{86}{tagmcid}{5}}
\newlabeldata{l3pdf78}{{abspage}{5}}
\newlabeldata{mcid-87}{{tagabspage}{5}{tagmcabs}{87}{tagmcid}{6}}
\newlabeldata{l3pdf79}{{abspage}{5}}
\newlabeldata{mcid-88}{{tagabspage}{5}{tagmcabs}{88}{tagmcid}{7}}
\newlabeldata{l3pdf80}{{abspage}{5}}
\newlabeldata{mcid-89}{{tagabspage}{5}{tagmcabs}{89}{tagmcid}{8}}
\newlabeldata{l3pdf81}{{abspage}{5}}
\newlabeldata{mcid-90}{{tagabspage}{5}{tagmcabs}{90}{tagmcid}{9}}
\newlabeldata{l3pdf82}{{abspage}{5}}
\newlabeldata{mcid-91}{{tagabspage}{5}{tagmcabs}{91}{tagmcid}{10}}
\newlabeldata{l3pdf83}{{abspage}{5}}
\newlabeldata{mcid-92}{{tagabspage}{5}{tagmcabs}{92}{tagmcid}{11}}
\newlabeldata{l3pdf84}{{abspage}{5}}
\newlabeldata{mcid-93}{{tagabspage}{5}{tagmcabs}{93}{tagmcid}{12}}
\newlabeldata{l3pdf85}{{abspage}{5}}
\newlabeldata{mcid-94}{{tagabspage}{5}{tagmcabs}{94}{tagmcid}{13}}
\newlabeldata{l3pdf86}{{abspage}{5}}
\newlabeldata{mcid-95}{{tagabspage}{5}{tagmcabs}{95}{tagmcid}{14}}
\newlabeldata{l3pdf87}{{abspage}{5}}
\newlabeldata{mcid-96}{{tagabspage}{5}{tagmcabs}{96}{tagmcid}{15}}
\newlabeldata{l3pdf88}{{abspage}{5}}
\newlabeldata{mcid-97}{{tagabspage}{5}{tagmcabs}{97}{tagmcid}{16}}
\newlabeldata{l3pdf89}{{abspage}{5}}
\newlabeldata{mcid-98}{{tagabspage}{5}{tagmcabs}{98}{tagmcid}{17}}
\newlabeldata{l3pdf90}{{abspage}{5}}
\newlabeldata{mcid-99}{{tagabspage}{5}{tagmcabs}{99}{tagmcid}{18}}
\newlabeldata{l3pdf91}{{abspage}{5}}
\newlabeldata{mcid-100}{{tagabspage}{5}{tagmcabs}{100}{tagmcid}{19}}
\newlabeldata{l3pdf92}{{abspage}{5}}
\newlabeldata{mcid-101}{{tagabspage}{5}{tagmcabs}{101}{tagmcid}{20}}
\newlabeldata{l3pdf93}{{abspage}{5}}
\newlabeldata{mcid-102}{{tagabspage}{5}{tagmcabs}{102}{tagmcid}{21}}
\newlabeldata{l3pdf94}{{abspage}{5}}
\newlabeldata{mcid-103}{{tagabspage}{5}{tagmcabs}{103}{tagmcid}{22}}
\newlabeldata{l3pdf95}{{abspage}{5}}
\newlabeldata{mcid-104}{{tagabspage}{5}{tagmcabs}{104}{tagmcid}{23}}
\newlabeldata{l3pdf96}{{abspage}{5}}
\newlabeldata{mcid-105}{{tagabspage}{5}{tagmcabs}{105}{tagmcid}{24}}
\newlabeldata{l3pdf97}{{abspage}{5}}
\@writefile{nav}{\headcommand {\slideentry {2}{0}{2}{5/5}{}{0}}}
\@writefile{nav}{\headcommand {\beamer@framepages {5}{5}}}
\newlabeldata{mcid-128}{{tagabspage}{6}{tagmcabs}{128}{tagmcid}{17}}
\newlabeldata{l3pdf118}{{abspage}{6}}
\newlabeldata{mcid-129}{{tagabspage}{6}{tagmcabs}{129}{tagmcid}{18}}
\newlabeldata{l3pdf119}{{abspage}{6}}
\newlabeldata{mcid-130}{{tagabspage}{6}{tagmcabs}{130}{tagmcid}{19}}
\newlabeldata{l3pdf120}{{abspage}{6}}
\newlabeldata{mcid-111}{{tagabspage}{6}{tagmcabs}{111}{tagmcid}{0}}
\newlabeldata{l3pdf101}{{abspage}{6}}
\newlabeldata{mcid-112}{{tagabspage}{6}{tagmcabs}{112}{tagmcid}{1}}
\newlabeldata{l3pdf102}{{abspage}{6}}
\newlabeldata{mcid-113}{{tagabspage}{6}{tagmcabs}{113}{tagmcid}{2}}
\newlabeldata{l3pdf103}{{abspage}{6}}
\newlabeldata{mcid-114}{{tagabspage}{6}{tagmcabs}{114}{tagmcid}{3}}
\newlabeldata{l3pdf104}{{abspage}{6}}
\newlabeldata{mcid-115}{{tagabspage}{6}{tagmcabs}{115}{tagmcid}{4}}
\newlabeldata{l3pdf105}{{abspage}{6}}
\newlabeldata{mcid-116}{{tagabspage}{6}{tagmcabs}{116}{tagmcid}{5}}
\newlabeldata{l3pdf106}{{abspage}{6}}
\newlabeldata{mcid-117}{{tagabspage}{6}{tagmcabs}{117}{tagmcid}{6}}
\newlabeldata{l3pdf107}{{abspage}{6}}
\newlabeldata{mcid-118}{{tagabspage}{6}{tagmcabs}{118}{tagmcid}{7}}
\newlabeldata{l3pdf108}{{abspage}{6}}
\newlabeldata{mcid-119}{{tagabspage}{6}{tagmcabs}{119}{tagmcid}{8}}
\newlabeldata{l3pdf109}{{abspage}{6}}
\newlabeldata{mcid-120}{{tagabspage}{6}{tagmcabs}{120}{tagmcid}{9}}
\newlabeldata{l3pdf110}{{abspage}{6}}
\newlabeldata{mcid-121}{{tagabspage}{6}{tagmcabs}{121}{tagmcid}{10}}
\newlabeldata{l3pdf111}{{abspage}{6}}
\newlabeldata{mcid-122}{{tagabspage}{6}{tagmcabs}{122}{tagmcid}{11}}
\newlabeldata{l3pdf112}{{abspage}{6}}
\newlabeldata{mcid-123}{{tagabspage}{6}{tagmcabs}{123}{tagmcid}{12}}
\newlabeldata{l3pdf113}{{abspage}{6}}
\newlabeldata{mcid-124}{{tagabspage}{6}{tagmcabs}{124}{tagmcid}{13}}
\newlabeldata{l3pdf114}{{abspage}{6}}
\newlabeldata{mcid-125}{{tagabspage}{6}{tagmcabs}{125}{tagmcid}{14}}
\newlabeldata{l3pdf115}{{abspage}{6}}
\newlabeldata{mcid-126}{{tagabspage}{6}{tagmcabs}{126}{tagmcid}{15}}
\newlabeldata{l3pdf116}{{abspage}{6}}
\newlabeldata{mcid-127}{{tagabspage}{6}{tagmcabs}{127}{tagmcid}{16}}
\newlabeldata{l3pdf117}{{abspage}{6}}
\@writefile{nav}{\headcommand {\slideentry {2}{0}{3}{6/6}{}{0}}}
\@writefile{nav}{\headcommand {\beamer@framepages {6}{6}}}
\BKM@entry{id=3,open,dest={4F75746C696E65302E322E312E37},srcline={173}}{5C3337365C3337375C3030304D5C3030306F5C303030645C303030755C3030306C5C303030655C303030735C3030305C3034305C303030615C3030306E5C303030645C3030305C3034305C303030495C3030306E5C303030745C303030655C303030725C303030665C303030615C303030635C303030655C30303073}
\@writefile{toc}{\beamer@subsectionintoc {2}{1}{Modules and Interfaces}{7}{0}{2}}
\@writefile{nav}{\headcommand {\beamer@subsectionpages {4}{6}}}
\@writefile{nav}{\headcommand {\beamer@subsectionentry {0}{2}{1}{7}{Modules and Interfaces}}}
\newlabeldata{mcid-139}{{tagabspage}{7}{tagmcabs}{139}{tagmcid}{6}}
\newlabeldata{l3pdf127}{{abspage}{7}}
\newlabeldata{mcid-140}{{tagabspage}{7}{tagmcabs}{140}{tagmcid}{7}}
\newlabeldata{l3pdf128}{{abspage}{7}}
\newlabeldata{mcid-141}{{tagabspage}{7}{tagmcabs}{141}{tagmcid}{8}}
\newlabeldata{l3pdf129}{{abspage}{7}}
\newlabeldata{mcid-133}{{tagabspage}{7}{tagmcabs}{133}{tagmcid}{0}}
\newlabeldata{l3pdf121}{{abspage}{7}}
\newlabeldata{mcid-134}{{tagabspage}{7}{tagmcabs}{134}{tagmcid}{1}}
\newlabeldata{l3pdf122}{{abspage}{7}}
\newlabeldata{mcid-135}{{tagabspage}{7}{tagmcabs}{135}{tagmcid}{2}}
\newlabeldata{l3pdf123}{{abspage}{7}}
\newlabeldata{mcid-136}{{tagabspage}{7}{tagmcabs}{136}{tagmcid}{3}}
\newlabeldata{l3pdf124}{{abspage}{7}}
\newlabeldata{mcid-137}{{tagabspage}{7}{tagmcabs}{137}{tagmcid}{4}}
\newlabeldata{l3pdf125}{{abspage}{7}}
\newlabeldata{mcid-138}{{tagabspage}{7}{tagmcabs}{138}{tagmcid}{5}}
\newlabeldata{l3pdf126}{{abspage}{7}}
\@writefile{nav}{\headcommand {\slideentry {2}{1}{1}{7/7}{Modules and Interfaces}{0}}}
\@writefile{nav}{\headcommand {\beamer@framepages {7}{7}}}
\newlabeldata{mcid-150}{{tagabspage}{8}{tagmcabs}{150}{tagmcid}{6}}
\newlabeldata{l3pdf136}{{abspage}{8}}
\newlabeldata{mcid-151}{{tagabspage}{8}{tagmcabs}{151}{tagmcid}{7}}
\newlabeldata{l3pdf137}{{abspage}{8}}
\newlabeldata{mcid-152}{{tagabspage}{8}{tagmcabs}{152}{tagmcid}{8}}
\newlabeldata{l3pdf138}{{abspage}{8}}
\newlabeldata{mcid-144}{{tagabspage}{8}{tagmcabs}{144}{tagmcid}{0}}
\newlabeldata{l3pdf130}{{abspage}{8}}
\newlabeldata{mcid-145}{{tagabspage}{8}{tagmcabs}{145}{tagmcid}{1}}
\newlabeldata{l3pdf131}{{abspage}{8}}
\newlabeldata{mcid-146}{{tagabspage}{8}{tagmcabs}{146}{tagmcid}{2}}
\newlabeldata{l3pdf132}{{abspage}{8}}
\newlabeldata{mcid-147}{{tagabspage}{8}{tagmcabs}{147}{tagmcid}{3}}
\newlabeldata{l3pdf133}{{abspage}{8}}
\newlabeldata{mcid-148}{{tagabspage}{8}{tagmcabs}{148}{tagmcid}{4}}
\newlabeldata{l3pdf134}{{abspage}{8}}
\newlabeldata{mcid-149}{{tagabspage}{8}{tagmcabs}{149}{tagmcid}{5}}
\newlabeldata{l3pdf135}{{abspage}{8}}
\@writefile{nav}{\headcommand {\slideentry {2}{1}{2}{8/8}{Modules and Interfaces}{0}}}
\@writefile{nav}{\headcommand {\beamer@framepages {8}{8}}}
\newlabeldata{mcid-158}{{tagabspage}{9}{tagmcabs}{158}{tagmcid}{3}}
\newlabeldata{l3pdf142}{{abspage}{9}}
\newlabeldata{mcid-159}{{tagabspage}{9}{tagmcabs}{159}{tagmcid}{4}}
\newlabeldata{l3pdf143}{{abspage}{9}}
\newlabeldata{mcid-160}{{tagabspage}{9}{tagmcabs}{160}{tagmcid}{5}}
\newlabeldata{l3pdf144}{{abspage}{9}}
\newlabeldata{mcid-155}{{tagabspage}{9}{tagmcabs}{155}{tagmcid}{0}}
\newlabeldata{l3pdf139}{{abspage}{9}}
\newlabeldata{mcid-156}{{tagabspage}{9}{tagmcabs}{156}{tagmcid}{1}}
\newlabeldata{l3pdf140}{{abspage}{9}}
\newlabeldata{mcid-157}{{tagabspage}{9}{tagmcabs}{157}{tagmcid}{2}}
\newlabeldata{l3pdf141}{{abspage}{9}}
\@writefile{nav}{\headcommand {\slideentry {2}{1}{3}{9/9}{Modules and Interfaces}{0}}}
\@writefile{nav}{\headcommand {\beamer@framepages {9}{9}}}
\newlabeldata{mcid-169}{{tagabspage}{10}{tagmcabs}{169}{tagmcid}{6}}
\newlabeldata{l3pdf151}{{abspage}{10}}
\newlabeldata{mcid-170}{{tagabspage}{10}{tagmcabs}{170}{tagmcid}{7}}
\newlabeldata{l3pdf152}{{abspage}{10}}
\newlabeldata{mcid-171}{{tagabspage}{10}{tagmcabs}{171}{tagmcid}{8}}
\newlabeldata{l3pdf153}{{abspage}{10}}
\newlabeldata{mcid-163}{{tagabspage}{10}{tagmcabs}{163}{tagmcid}{0}}
\newlabeldata{l3pdf145}{{abspage}{10}}
\newlabeldata{mcid-164}{{tagabspage}{10}{tagmcabs}{164}{tagmcid}{1}}
\newlabeldata{l3pdf146}{{abspage}{10}}
\newlabeldata{mcid-165}{{tagabspage}{10}{tagmcabs}{165}{tagmcid}{2}}
\newlabeldata{l3pdf147}{{abspage}{10}}
\newlabeldata{mcid-166}{{tagabspage}{10}{tagmcabs}{166}{tagmcid}{3}}
\newlabeldata{l3pdf148}{{abspage}{10}}
\newlabeldata{mcid-167}{{tagabspage}{10}{tagmcabs}{167}{tagmcid}{4}}
\newlabeldata{l3pdf149}{{abspage}{10}}
\newlabeldata{mcid-168}{{tagabspage}{10}{tagmcabs}{168}{tagmcid}{5}}
\newlabeldata{l3pdf150}{{abspage}{10}}
\@writefile{nav}{\headcommand {\slideentry {2}{1}{4}{10/10}{Modules and Interfaces}{0}}}
\@writefile{nav}{\headcommand {\beamer@framepages {10}{10}}}
\newlabeldata{mcid-219}{{tagabspage}{11}{tagmcabs}{219}{tagmcid}{45}}
\newlabeldata{l3pdf199}{{abspage}{11}}
\newlabeldata{mcid-220}{{tagabspage}{11}{tagmcabs}{220}{tagmcid}{46}}
\newlabeldata{l3pdf200}{{abspage}{11}}
\newlabeldata{mcid-221}{{tagabspage}{11}{tagmcabs}{221}{tagmcid}{47}}
\newlabeldata{l3pdf201}{{abspage}{11}}
\newlabeldata{mcid-174}{{tagabspage}{11}{tagmcabs}{174}{tagmcid}{0}}
\newlabeldata{l3pdf154}{{abspage}{11}}
\newlabeldata{mcid-175}{{tagabspage}{11}{tagmcabs}{175}{tagmcid}{1}}
\newlabeldata{l3pdf155}{{abspage}{11}}
\newlabeldata{mcid-176}{{tagabspage}{11}{tagmcabs}{176}{tagmcid}{2}}
\newlabeldata{l3pdf156}{{abspage}{11}}
\newlabeldata{mcid-177}{{tagabspage}{11}{tagmcabs}{177}{tagmcid}{3}}
\newlabeldata{l3pdf157}{{abspage}{11}}
\newlabeldata{mcid-178}{{tagabspage}{11}{tagmcabs}{178}{tagmcid}{4}}
\newlabeldata{l3pdf158}{{abspage}{11}}
\newlabeldata{mcid-179}{{tagabspage}{11}{tagmcabs}{179}{tagmcid}{5}}
\newlabeldata{l3pdf159}{{abspage}{11}}
\newlabeldata{mcid-180}{{tagabspage}{11}{tagmcabs}{180}{tagmcid}{6}}
\newlabeldata{l3pdf160}{{abspage}{11}}
\newlabeldata{mcid-181}{{tagabspage}{11}{tagmcabs}{181}{tagmcid}{7}}
\newlabeldata{l3pdf161}{{abspage}{11}}
\newlabeldata{mcid-182}{{tagabspage}{11}{tagmcabs}{182}{tagmcid}{8}}
\newlabeldata{l3pdf162}{{abspage}{11}}
\newlabeldata{mcid-183}{{tagabspage}{11}{tagmcabs}{183}{tagmcid}{9}}
\newlabeldata{l3pdf163}{{abspage}{11}}
\newlabeldata{mcid-184}{{tagabspage}{11}{tagmcabs}{184}{tagmcid}{10}}
\newlabeldata{l3pdf164}{{abspage}{11}}
\newlabeldata{mcid-185}{{tagabspage}{11}{tagmcabs}{185}{tagmcid}{11}}
\newlabeldata{l3pdf165}{{abspage}{11}}
\newlabeldata{mcid-186}{{tagabspage}{11}{tagmcabs}{186}{tagmcid}{12}}
\newlabeldata{l3pdf166}{{abspage}{11}}
\newlabeldata{mcid-187}{{tagabspage}{11}{tagmcabs}{187}{tagmcid}{13}}
\newlabeldata{l3pdf167}{{abspage}{11}}
\newlabeldata{mcid-188}{{tagabspage}{11}{tagmcabs}{188}{tagmcid}{14}}
\newlabeldata{l3pdf168}{{abspage}{11}}
\newlabeldata{mcid-189}{{tagabspage}{11}{tagmcabs}{189}{tagmcid}{15}}
\newlabeldata{l3pdf169}{{abspage}{11}}
\newlabeldata{mcid-190}{{tagabspage}{11}{tagmcabs}{190}{tagmcid}{16}}
\newlabeldata{l3pdf170}{{abspage}{11}}
\newlabeldata{mcid-191}{{tagabspage}{11}{tagmcabs}{191}{tagmcid}{17}}
\newlabeldata{l3pdf171}{{abspage}{11}}
\newlabeldata{mcid-192}{{tagabspage}{11}{tagmcabs}{192}{tagmcid}{18}}
\newlabeldata{l3pdf172}{{abspage}{11}}
\newlabeldata{mcid-193}{{tagabspage}{11}{tagmcabs}{193}{tagmcid}{19}}
\newlabeldata{l3pdf173}{{abspage}{11}}
\newlabeldata{mcid-194}{{tagabspage}{11}{tagmcabs}{194}{tagmcid}{20}}
\newlabeldata{l3pdf174}{{abspage}{11}}
\newlabeldata{mcid-195}{{tagabspage}{11}{tagmcabs}{195}{tagmcid}{21}}
\newlabeldata{l3pdf175}{{abspage}{11}}
\newlabeldata{mcid-196}{{tagabspage}{11}{tagmcabs}{196}{tagmcid}{22}}
\newlabeldata{l3pdf176}{{abspage}{11}}
\newlabeldata{mcid-197}{{tagabspage}{11}{tagmcabs}{197}{tagmcid}{23}}
\newlabeldata{l3pdf177}{{abspage}{11}}
\newlabeldata{mcid-198}{{tagabspage}{11}{tagmcabs}{198}{tagmcid}{24}}
\newlabeldata{l3pdf178}{{abspage}{11}}
\newlabeldata{mcid-199}{{tagabspage}{11}{tagmcabs}{199}{tagmcid}{25}}
\newlabeldata{l3pdf179}{{abspage}{11}}
\newlabeldata{mcid-200}{{tagabspage}{11}{tagmcabs}{200}{tagmcid}{26}}
\newlabeldata{l3pdf180}{{abspage}{11}}
\newlabeldata{mcid-201}{{tagabspage}{11}{tagmcabs}{201}{tagmcid}{27}}
\newlabeldata{l3pdf181}{{abspage}{11}}
\newlabeldata{mcid-202}{{tagabspage}{11}{tagmcabs}{202}{tagmcid}{28}}
\newlabeldata{l3pdf182}{{abspage}{11}}
\newlabeldata{mcid-203}{{tagabspage}{11}{tagmcabs}{203}{tagmcid}{29}}
\newlabeldata{l3pdf183}{{abspage}{11}}
\newlabeldata{mcid-204}{{tagabspage}{11}{tagmcabs}{204}{tagmcid}{30}}
\newlabeldata{l3pdf184}{{abspage}{11}}
\newlabeldata{mcid-205}{{tagabspage}{11}{tagmcabs}{205}{tagmcid}{31}}
\newlabeldata{l3pdf185}{{abspage}{11}}
\newlabeldata{mcid-206}{{tagabspage}{11}{tagmcabs}{206}{tagmcid}{32}}
\newlabeldata{l3pdf186}{{abspage}{11}}
\newlabeldata{mcid-207}{{tagabspage}{11}{tagmcabs}{207}{tagmcid}{33}}
\newlabeldata{l3pdf187}{{abspage}{11}}
\newlabeldata{mcid-208}{{tagabspage}{11}{tagmcabs}{208}{tagmcid}{34}}
\newlabeldata{l3pdf188}{{abspage}{11}}
\newlabeldata{mcid-209}{{tagabspage}{11}{tagmcabs}{209}{tagmcid}{35}}
\newlabeldata{l3pdf189}{{abspage}{11}}
\newlabeldata{mcid-210}{{tagabspage}{11}{tagmcabs}{210}{tagmcid}{36}}
\newlabeldata{l3pdf190}{{abspage}{11}}
\newlabeldata{mcid-211}{{tagabspage}{11}{tagmcabs}{211}{tagmcid}{37}}
\newlabeldata{l3pdf191}{{abspage}{11}}
\newlabeldata{mcid-212}{{tagabspage}{11}{tagmcabs}{212}{tagmcid}{38}}
\newlabeldata{l3pdf192}{{abspage}{11}}
\newlabeldata{mcid-213}{{tagabspage}{11}{tagmcabs}{213}{tagmcid}{39}}
\newlabeldata{l3pdf193}{{abspage}{11}}
\newlabeldata{mcid-214}{{tagabspage}{11}{tagmcabs}{214}{tagmcid}{40}}
\newlabeldata{l3pdf194}{{abspage}{11}}
\newlabeldata{mcid-215}{{tagabspage}{11}{tagmcabs}{215}{tagmcid}{41}}
\newlabeldata{l3pdf195}{{abspage}{11}}
\newlabeldata{mcid-216}{{tagabspage}{11}{tagmcabs}{216}{tagmcid}{42}}
\newlabeldata{l3pdf196}{{abspage}{11}}
\newlabeldata{mcid-217}{{tagabspage}{11}{tagmcabs}{217}{tagmcid}{43}}
\newlabeldata{l3pdf197}{{abspage}{11}}
\newlabeldata{mcid-218}{{tagabspage}{11}{tagmcabs}{218}{tagmcid}{44}}
\newlabeldata{l3pdf198}{{abspage}{11}}
\@writefile{nav}{\headcommand {\slideentry {2}{1}{5}{11/11}{Modules and Interfaces}{0}}}
\@writefile{nav}{\headcommand {\beamer@framepages {11}{11}}}
\BKM@entry{id=4,open,dest={4F75746C696E65302E322E322E3132},srcline={285}}{5C3337365C3337375C303030415C303030625C303030735C303030745C303030725C303030615C303030635C303030745C3030305C3034305C303030445C303030615C303030745C303030615C3030305C3034305C303030545C303030795C303030705C303030655C30303073}
\@writefile{toc}{\beamer@subsectionintoc {2}{2}{Abstract Data Types}{12}{0}{2}}
\@writefile{nav}{\headcommand {\beamer@subsectionpages {7}{11}}}
\@writefile{nav}{\headcommand {\beamer@subsectionentry {0}{2}{2}{12}{Abstract Data Types}}}
\newlabeldata{mcid-232}{{tagabspage}{12}{tagmcabs}{232}{tagmcid}{8}}
\newlabeldata{l3pdf210}{{abspage}{12}}
\newlabeldata{mcid-233}{{tagabspage}{12}{tagmcabs}{233}{tagmcid}{9}}
\newlabeldata{l3pdf211}{{abspage}{12}}
\newlabeldata{mcid-234}{{tagabspage}{12}{tagmcabs}{234}{tagmcid}{10}}
\newlabeldata{l3pdf212}{{abspage}{12}}
\newlabeldata{mcid-224}{{tagabspage}{12}{tagmcabs}{224}{tagmcid}{0}}
\newlabeldata{l3pdf202}{{abspage}{12}}
\newlabeldata{mcid-225}{{tagabspage}{12}{tagmcabs}{225}{tagmcid}{1}}
\newlabeldata{l3pdf203}{{abspage}{12}}
\newlabeldata{mcid-226}{{tagabspage}{12}{tagmcabs}{226}{tagmcid}{2}}
\newlabeldata{l3pdf204}{{abspage}{12}}
\newlabeldata{mcid-227}{{tagabspage}{12}{tagmcabs}{227}{tagmcid}{3}}
\newlabeldata{l3pdf205}{{abspage}{12}}
\newlabeldata{mcid-228}{{tagabspage}{12}{tagmcabs}{228}{tagmcid}{4}}
\newlabeldata{l3pdf206}{{abspage}{12}}
\newlabeldata{mcid-229}{{tagabspage}{12}{tagmcabs}{229}{tagmcid}{5}}
\newlabeldata{l3pdf207}{{abspage}{12}}
\newlabeldata{mcid-230}{{tagabspage}{12}{tagmcabs}{230}{tagmcid}{6}}
\newlabeldata{l3pdf208}{{abspage}{12}}
\newlabeldata{mcid-231}{{tagabspage}{12}{tagmcabs}{231}{tagmcid}{7}}
\newlabeldata{l3pdf209}{{abspage}{12}}
\@writefile{nav}{\headcommand {\slideentry {2}{2}{1}{12/12}{Abstract Data Types}{0}}}
\@writefile{nav}{\headcommand {\beamer@framepages {12}{12}}}
\newlabeldata{mcid-243}{{tagabspage}{13}{tagmcabs}{243}{tagmcid}{6}}
\newlabeldata{l3pdf219}{{abspage}{13}}
\newlabeldata{mcid-244}{{tagabspage}{13}{tagmcabs}{244}{tagmcid}{7}}
\newlabeldata{l3pdf220}{{abspage}{13}}
\newlabeldata{mcid-245}{{tagabspage}{13}{tagmcabs}{245}{tagmcid}{8}}
\newlabeldata{l3pdf221}{{abspage}{13}}
\newlabeldata{mcid-237}{{tagabspage}{13}{tagmcabs}{237}{tagmcid}{0}}
\newlabeldata{l3pdf213}{{abspage}{13}}
\newlabeldata{mcid-238}{{tagabspage}{13}{tagmcabs}{238}{tagmcid}{1}}
\newlabeldata{l3pdf214}{{abspage}{13}}
\newlabeldata{mcid-239}{{tagabspage}{13}{tagmcabs}{239}{tagmcid}{2}}
\newlabeldata{l3pdf215}{{abspage}{13}}
\newlabeldata{mcid-240}{{tagabspage}{13}{tagmcabs}{240}{tagmcid}{3}}
\newlabeldata{l3pdf216}{{abspage}{13}}
\newlabeldata{mcid-241}{{tagabspage}{13}{tagmcabs}{241}{tagmcid}{4}}
\newlabeldata{l3pdf217}{{abspage}{13}}
\newlabeldata{mcid-242}{{tagabspage}{13}{tagmcabs}{242}{tagmcid}{5}}
\newlabeldata{l3pdf218}{{abspage}{13}}
\@writefile{nav}{\headcommand {\slideentry {2}{2}{2}{13/13}{Abstract Data Types}{0}}}
\@writefile{nav}{\headcommand {\beamer@framepages {13}{13}}}
\newlabeldata{mcid-251}{{tagabspage}{14}{tagmcabs}{251}{tagmcid}{3}}
\newlabeldata{l3pdf225}{{abspage}{14}}
\newlabeldata{mcid-252}{{tagabspage}{14}{tagmcabs}{252}{tagmcid}{4}}
\newlabeldata{l3pdf226}{{abspage}{14}}
\newlabeldata{mcid-253}{{tagabspage}{14}{tagmcabs}{253}{tagmcid}{5}}
\newlabeldata{l3pdf227}{{abspage}{14}}
\newlabeldata{mcid-248}{{tagabspage}{14}{tagmcabs}{248}{tagmcid}{0}}
\newlabeldata{l3pdf222}{{abspage}{14}}
\newlabeldata{mcid-249}{{tagabspage}{14}{tagmcabs}{249}{tagmcid}{1}}
\newlabeldata{l3pdf223}{{abspage}{14}}
\newlabeldata{mcid-250}{{tagabspage}{14}{tagmcabs}{250}{tagmcid}{2}}
\newlabeldata{l3pdf224}{{abspage}{14}}
\@writefile{nav}{\headcommand {\slideentry {2}{2}{3}{14/14}{Abstract Data Types}{0}}}
\@writefile{nav}{\headcommand {\beamer@framepages {14}{14}}}
\BKM@entry{id=5,open,dest={4F75746C696E65302E33},srcline={336}}{5C3337365C3337375C303030575C303030685C303030615C303030745C3030305C3034305C303030695C303030735C3030305C3034305C303030615C3030305C3034305C303030605C303030605C3030304C5C303030695C303030735C303030745C303030275C303030275C3030303F}
\@writefile{toc}{\beamer@sectionintoc {3}{What is a ``List''?}{15}{0}{3}}
\@writefile{nav}{\headcommand {\beamer@sectionpages {4}{14}}}
\@writefile{nav}{\headcommand {\beamer@subsectionpages {12}{14}}}
\@writefile{nav}{\headcommand {\sectionentry {3}{What is a ``List''?}{15}{What is a ``List''?}{0}}}
\newlabeldata{mcid-256}{{tagabspage}{15}{tagmcabs}{256}{tagmcid}{0}}
\newlabeldata{l3pdf228}{{abspage}{15}}
\newlabeldata{mcid-257}{{tagabspage}{15}{tagmcabs}{257}{tagmcid}{1}}
\newlabeldata{l3pdf229}{{abspage}{15}}
\newlabeldata{mcid-258}{{tagabspage}{15}{tagmcabs}{258}{tagmcid}{2}}
\newlabeldata{l3pdf230}{{abspage}{15}}
\newlabeldata{mcid-259}{{tagabspage}{15}{tagmcabs}{259}{tagmcid}{3}}
\newlabeldata{l3pdf231}{{abspage}{15}}
\newlabeldata{mcid-260}{{tagabspage}{15}{tagmcabs}{260}{tagmcid}{4}}
\newlabeldata{l3pdf232}{{abspage}{15}}
\@writefile{nav}{\headcommand {\slideentry {3}{0}{1}{15/15}{}{0}}}
\@writefile{nav}{\headcommand {\beamer@framepages {15}{15}}}
\newlabeldata{mcid-280}{{tagabspage}{16}{tagmcabs}{280}{tagmcid}{17}}
\newlabeldata{l3pdf250}{{abspage}{16}}
\newlabeldata{mcid-281}{{tagabspage}{16}{tagmcabs}{281}{tagmcid}{18}}
\newlabeldata{l3pdf251}{{abspage}{16}}
\newlabeldata{mcid-282}{{tagabspage}{16}{tagmcabs}{282}{tagmcid}{19}}
\newlabeldata{l3pdf252}{{abspage}{16}}
\newlabeldata{mcid-263}{{tagabspage}{16}{tagmcabs}{263}{tagmcid}{0}}
\newlabeldata{l3pdf233}{{abspage}{16}}
\newlabeldata{mcid-264}{{tagabspage}{16}{tagmcabs}{264}{tagmcid}{1}}
\newlabeldata{l3pdf234}{{abspage}{16}}
\newlabeldata{mcid-265}{{tagabspage}{16}{tagmcabs}{265}{tagmcid}{2}}
\newlabeldata{l3pdf235}{{abspage}{16}}
\newlabeldata{mcid-266}{{tagabspage}{16}{tagmcabs}{266}{tagmcid}{3}}
\newlabeldata{l3pdf236}{{abspage}{16}}
\newlabeldata{mcid-267}{{tagabspage}{16}{tagmcabs}{267}{tagmcid}{4}}
\newlabeldata{l3pdf237}{{abspage}{16}}
\newlabeldata{mcid-268}{{tagabspage}{16}{tagmcabs}{268}{tagmcid}{5}}
\newlabeldata{l3pdf238}{{abspage}{16}}
\newlabeldata{mcid-269}{{tagabspage}{16}{tagmcabs}{269}{tagmcid}{6}}
\newlabeldata{l3pdf239}{{abspage}{16}}
\newlabeldata{mcid-270}{{tagabspage}{16}{tagmcabs}{270}{tagmcid}{7}}
\newlabeldata{l3pdf240}{{abspage}{16}}
\newlabeldata{mcid-271}{{tagabspage}{16}{tagmcabs}{271}{tagmcid}{8}}
\newlabeldata{l3pdf241}{{abspage}{16}}
\newlabeldata{mcid-272}{{tagabspage}{16}{tagmcabs}{272}{tagmcid}{9}}
\newlabeldata{l3pdf242}{{abspage}{16}}
\newlabeldata{mcid-273}{{tagabspage}{16}{tagmcabs}{273}{tagmcid}{10}}
\newlabeldata{l3pdf243}{{abspage}{16}}
\newlabeldata{mcid-274}{{tagabspage}{16}{tagmcabs}{274}{tagmcid}{11}}
\newlabeldata{l3pdf244}{{abspage}{16}}
\newlabeldata{mcid-275}{{tagabspage}{16}{tagmcabs}{275}{tagmcid}{12}}
\newlabeldata{l3pdf245}{{abspage}{16}}
\newlabeldata{mcid-276}{{tagabspage}{16}{tagmcabs}{276}{tagmcid}{13}}
\newlabeldata{l3pdf246}{{abspage}{16}}
\newlabeldata{mcid-277}{{tagabspage}{16}{tagmcabs}{277}{tagmcid}{14}}
\newlabeldata{l3pdf247}{{abspage}{16}}
\newlabeldata{mcid-278}{{tagabspage}{16}{tagmcabs}{278}{tagmcid}{15}}
\newlabeldata{l3pdf248}{{abspage}{16}}
\newlabeldata{mcid-279}{{tagabspage}{16}{tagmcabs}{279}{tagmcid}{16}}
\newlabeldata{l3pdf249}{{abspage}{16}}
\@writefile{nav}{\headcommand {\slideentry {3}{0}{2}{16/16}{}{0}}}
\@writefile{nav}{\headcommand {\beamer@framepages {16}{16}}}
\BKM@entry{id=6,open,dest={4F75746C696E65302E332E312E3137},srcline={368}}{5C3337365C3337375C303030415C303030725C303030725C303030615C303030795C3030302D5C303030425C303030615C303030735C303030655C303030645C3030305C3034305C3030304C5C303030695C303030735C303030745C30303073}
\@writefile{toc}{\beamer@subsectionintoc {3}{1}{Array-Based Lists}{17}{0}{3}}
\@writefile{nav}{\headcommand {\beamer@subsectionpages {15}{16}}}
\@writefile{nav}{\headcommand {\beamer@subsectionentry {0}{3}{1}{17}{Array-Based Lists}}}
\newlabeldata{mcid-285}{{tagabspage}{17}{tagmcabs}{285}{tagmcid}{0}}
\newlabeldata{l3pdf253}{{abspage}{17}}
\newlabeldata{mcid-286}{{tagabspage}{17}{tagmcabs}{286}{tagmcid}{1}}
\newlabeldata{l3pdf254}{{abspage}{17}}
\newlabeldata{mcid-287}{{tagabspage}{17}{tagmcabs}{287}{tagmcid}{2}}
\newlabeldata{l3pdf255}{{abspage}{17}}
\newlabeldata{mcid-288}{{tagabspage}{17}{tagmcabs}{288}{tagmcid}{3}}
\newlabeldata{l3pdf256}{{abspage}{17}}
\newlabeldata{mcid-289}{{tagabspage}{17}{tagmcabs}{289}{tagmcid}{4}}
\newlabeldata{l3pdf257}{{abspage}{17}}
\@writefile{nav}{\headcommand {\slideentry {3}{1}{1}{17/17}{Array-Based Lists}{0}}}
\@writefile{nav}{\headcommand {\beamer@framepages {17}{17}}}
\newlabeldata{mcid-299}{{tagabspage}{18}{tagmcabs}{299}{tagmcid}{7}}
\newlabeldata{l3pdf265}{{abspage}{18}}
\newlabeldata{mcid-300}{{tagabspage}{18}{tagmcabs}{300}{tagmcid}{8}}
\newlabeldata{l3pdf266}{{abspage}{18}}
\newlabeldata{mcid-301}{{tagabspage}{18}{tagmcabs}{301}{tagmcid}{9}}
\newlabeldata{l3pdf267}{{abspage}{18}}
\newlabeldata{mcid-292}{{tagabspage}{18}{tagmcabs}{292}{tagmcid}{0}}
\newlabeldata{l3pdf258}{{abspage}{18}}
\newlabeldata{mcid-293}{{tagabspage}{18}{tagmcabs}{293}{tagmcid}{1}}
\newlabeldata{l3pdf259}{{abspage}{18}}
\newlabeldata{mcid-294}{{tagabspage}{18}{tagmcabs}{294}{tagmcid}{2}}
\newlabeldata{l3pdf260}{{abspage}{18}}
\newlabeldata{mcid-295}{{tagabspage}{18}{tagmcabs}{295}{tagmcid}{3}}
\newlabeldata{l3pdf261}{{abspage}{18}}
\newlabeldata{mcid-296}{{tagabspage}{18}{tagmcabs}{296}{tagmcid}{4}}
\newlabeldata{l3pdf262}{{abspage}{18}}
\newlabeldata{mcid-297}{{tagabspage}{18}{tagmcabs}{297}{tagmcid}{5}}
\newlabeldata{l3pdf263}{{abspage}{18}}
\newlabeldata{mcid-298}{{tagabspage}{18}{tagmcabs}{298}{tagmcid}{6}}
\newlabeldata{l3pdf264}{{abspage}{18}}
\@writefile{nav}{\headcommand {\slideentry {3}{1}{2}{18/18}{Array-Based Lists}{0}}}
\@writefile{nav}{\headcommand {\beamer@framepages {18}{18}}}
\newlabeldata{mcid-306}{{tagabspage}{19}{tagmcabs}{306}{tagmcid}{2}}
\newlabeldata{l3pdf270}{{abspage}{19}}
\newlabeldata{mcid-307}{{tagabspage}{19}{tagmcabs}{307}{tagmcid}{3}}
\newlabeldata{l3pdf271}{{abspage}{19}}
\newlabeldata{mcid-308}{{tagabspage}{19}{tagmcabs}{308}{tagmcid}{4}}
\newlabeldata{l3pdf272}{{abspage}{19}}
\newlabeldata{mcid-304}{{tagabspage}{19}{tagmcabs}{304}{tagmcid}{0}}
\newlabeldata{l3pdf268}{{abspage}{19}}
\newlabeldata{mcid-305}{{tagabspage}{19}{tagmcabs}{305}{tagmcid}{1}}
\newlabeldata{l3pdf269}{{abspage}{19}}
\@writefile{nav}{\headcommand {\slideentry {3}{1}{3}{19/19}{Array-Based Lists}{0}}}
\@writefile{nav}{\headcommand {\beamer@framepages {19}{19}}}
\newlabeldata{mcid-313}{{tagabspage}{20}{tagmcabs}{313}{tagmcid}{2}}
\newlabeldata{l3pdf275}{{abspage}{20}}
\newlabeldata{mcid-314}{{tagabspage}{20}{tagmcabs}{314}{tagmcid}{3}}
\newlabeldata{l3pdf276}{{abspage}{20}}
\newlabeldata{mcid-315}{{tagabspage}{20}{tagmcabs}{315}{tagmcid}{4}}
\newlabeldata{l3pdf277}{{abspage}{20}}
\newlabeldata{mcid-311}{{tagabspage}{20}{tagmcabs}{311}{tagmcid}{0}}
\newlabeldata{l3pdf273}{{abspage}{20}}
\newlabeldata{mcid-312}{{tagabspage}{20}{tagmcabs}{312}{tagmcid}{1}}
\newlabeldata{l3pdf274}{{abspage}{20}}
\@writefile{nav}{\headcommand {\slideentry {3}{1}{4}{20/20}{Array-Based Lists}{0}}}
\@writefile{nav}{\headcommand {\beamer@framepages {20}{20}}}
\newlabeldata{mcid-324}{{tagabspage}{21}{tagmcabs}{324}{tagmcid}{6}}
\newlabeldata{l3pdf284}{{abspage}{21}}
\newlabeldata{mcid-325}{{tagabspage}{21}{tagmcabs}{325}{tagmcid}{7}}
\newlabeldata{l3pdf285}{{abspage}{21}}
\newlabeldata{mcid-326}{{tagabspage}{21}{tagmcabs}{326}{tagmcid}{8}}
\newlabeldata{l3pdf286}{{abspage}{21}}
\newlabeldata{mcid-318}{{tagabspage}{21}{tagmcabs}{318}{tagmcid}{0}}
\newlabeldata{l3pdf278}{{abspage}{21}}
\newlabeldata{mcid-319}{{tagabspage}{21}{tagmcabs}{319}{tagmcid}{1}}
\newlabeldata{l3pdf279}{{abspage}{21}}
\newlabeldata{mcid-320}{{tagabspage}{21}{tagmcabs}{320}{tagmcid}{2}}
\newlabeldata{l3pdf280}{{abspage}{21}}
\newlabeldata{mcid-321}{{tagabspage}{21}{tagmcabs}{321}{tagmcid}{3}}
\newlabeldata{l3pdf281}{{abspage}{21}}
\newlabeldata{mcid-322}{{tagabspage}{21}{tagmcabs}{322}{tagmcid}{4}}
\newlabeldata{l3pdf282}{{abspage}{21}}
\newlabeldata{mcid-323}{{tagabspage}{21}{tagmcabs}{323}{tagmcid}{5}}
\newlabeldata{l3pdf283}{{abspage}{21}}
\@writefile{nav}{\headcommand {\slideentry {3}{1}{5}{21/21}{Array-Based Lists}{0}}}
\@writefile{nav}{\headcommand {\beamer@framepages {21}{21}}}
\newlabeldata{mcid-331}{{tagabspage}{22}{tagmcabs}{331}{tagmcid}{2}}
\newlabeldata{l3pdf289}{{abspage}{22}}
\newlabeldata{mcid-332}{{tagabspage}{22}{tagmcabs}{332}{tagmcid}{3}}
\newlabeldata{l3pdf290}{{abspage}{22}}
\newlabeldata{mcid-333}{{tagabspage}{22}{tagmcabs}{333}{tagmcid}{4}}
\newlabeldata{l3pdf291}{{abspage}{22}}
\newlabeldata{mcid-329}{{tagabspage}{22}{tagmcabs}{329}{tagmcid}{0}}
\newlabeldata{l3pdf287}{{abspage}{22}}
\newlabeldata{mcid-330}{{tagabspage}{22}{tagmcabs}{330}{tagmcid}{1}}
\newlabeldata{l3pdf288}{{abspage}{22}}
\@writefile{nav}{\headcommand {\slideentry {3}{1}{6}{22/22}{Array-Based Lists}{0}}}
\@writefile{nav}{\headcommand {\beamer@framepages {22}{22}}}
\newlabeldata{mcid-342}{{tagabspage}{23}{tagmcabs}{342}{tagmcid}{6}}
\newlabeldata{l3pdf298}{{abspage}{23}}
\newlabeldata{mcid-343}{{tagabspage}{23}{tagmcabs}{343}{tagmcid}{7}}
\newlabeldata{l3pdf299}{{abspage}{23}}
\newlabeldata{mcid-344}{{tagabspage}{23}{tagmcabs}{344}{tagmcid}{8}}
\newlabeldata{l3pdf300}{{abspage}{23}}
\newlabeldata{mcid-336}{{tagabspage}{23}{tagmcabs}{336}{tagmcid}{0}}
\newlabeldata{l3pdf292}{{abspage}{23}}
\newlabeldata{mcid-337}{{tagabspage}{23}{tagmcabs}{337}{tagmcid}{1}}
\newlabeldata{l3pdf293}{{abspage}{23}}
\newlabeldata{mcid-338}{{tagabspage}{23}{tagmcabs}{338}{tagmcid}{2}}
\newlabeldata{l3pdf294}{{abspage}{23}}
\newlabeldata{mcid-339}{{tagabspage}{23}{tagmcabs}{339}{tagmcid}{3}}
\newlabeldata{l3pdf295}{{abspage}{23}}
\newlabeldata{mcid-340}{{tagabspage}{23}{tagmcabs}{340}{tagmcid}{4}}
\newlabeldata{l3pdf296}{{abspage}{23}}
\newlabeldata{mcid-341}{{tagabspage}{23}{tagmcabs}{341}{tagmcid}{5}}
\newlabeldata{l3pdf297}{{abspage}{23}}
\@writefile{nav}{\headcommand {\slideentry {3}{1}{7}{23/23}{Array-Based Lists}{0}}}
\@writefile{nav}{\headcommand {\beamer@framepages {23}{23}}}
\BKM@entry{id=7,open,dest={4F75746C696E65302E332E322E3234},srcline={451}}{5C3337365C3337375C3030304C5C303030695C3030306E5C3030306B5C303030655C303030645C3030305C3034305C3030304C5C303030695C303030735C303030745C30303073}
\@writefile{toc}{\beamer@subsectionintoc {3}{2}{Linked Lists}{24}{0}{3}}
\@writefile{nav}{\headcommand {\beamer@subsectionpages {17}{23}}}
\@writefile{nav}{\headcommand {\beamer@subsectionentry {0}{3}{2}{24}{Linked Lists}}}
\newlabeldata{mcid-347}{{tagabspage}{24}{tagmcabs}{347}{tagmcid}{0}}
\newlabeldata{l3pdf301}{{abspage}{24}}
\newlabeldata{mcid-348}{{tagabspage}{24}{tagmcabs}{348}{tagmcid}{1}}
\newlabeldata{l3pdf302}{{abspage}{24}}
\newlabeldata{mcid-349}{{tagabspage}{24}{tagmcabs}{349}{tagmcid}{2}}
\newlabeldata{l3pdf303}{{abspage}{24}}
\newlabeldata{mcid-350}{{tagabspage}{24}{tagmcabs}{350}{tagmcid}{3}}
\newlabeldata{l3pdf304}{{abspage}{24}}
\newlabeldata{mcid-351}{{tagabspage}{24}{tagmcabs}{351}{tagmcid}{4}}
\newlabeldata{l3pdf305}{{abspage}{24}}
\@writefile{nav}{\headcommand {\slideentry {3}{2}{1}{24/24}{Linked Lists}{0}}}
\@writefile{nav}{\headcommand {\beamer@framepages {24}{24}}}
\newlabeldata{mcid-364}{{tagabspage}{25}{tagmcabs}{364}{tagmcid}{10}}
\newlabeldata{l3pdf316}{{abspage}{25}}
\newlabeldata{mcid-365}{{tagabspage}{25}{tagmcabs}{365}{tagmcid}{11}}
\newlabeldata{l3pdf317}{{abspage}{25}}
\newlabeldata{mcid-366}{{tagabspage}{25}{tagmcabs}{366}{tagmcid}{12}}
\newlabeldata{l3pdf318}{{abspage}{25}}
\newlabeldata{mcid-354}{{tagabspage}{25}{tagmcabs}{354}{tagmcid}{0}}
\newlabeldata{l3pdf306}{{abspage}{25}}
\newlabeldata{mcid-355}{{tagabspage}{25}{tagmcabs}{355}{tagmcid}{1}}
\newlabeldata{l3pdf307}{{abspage}{25}}
\newlabeldata{mcid-356}{{tagabspage}{25}{tagmcabs}{356}{tagmcid}{2}}
\newlabeldata{l3pdf308}{{abspage}{25}}
\newlabeldata{mcid-357}{{tagabspage}{25}{tagmcabs}{357}{tagmcid}{3}}
\newlabeldata{l3pdf309}{{abspage}{25}}
\newlabeldata{mcid-358}{{tagabspage}{25}{tagmcabs}{358}{tagmcid}{4}}
\newlabeldata{l3pdf310}{{abspage}{25}}
\newlabeldata{mcid-359}{{tagabspage}{25}{tagmcabs}{359}{tagmcid}{5}}
\newlabeldata{l3pdf311}{{abspage}{25}}
\newlabeldata{mcid-360}{{tagabspage}{25}{tagmcabs}{360}{tagmcid}{6}}
\newlabeldata{l3pdf312}{{abspage}{25}}
\newlabeldata{mcid-361}{{tagabspage}{25}{tagmcabs}{361}{tagmcid}{7}}
\newlabeldata{l3pdf313}{{abspage}{25}}
\newlabeldata{mcid-362}{{tagabspage}{25}{tagmcabs}{362}{tagmcid}{8}}
\newlabeldata{l3pdf314}{{abspage}{25}}
\newlabeldata{mcid-363}{{tagabspage}{25}{tagmcabs}{363}{tagmcid}{9}}
\newlabeldata{l3pdf315}{{abspage}{25}}
\@writefile{nav}{\headcommand {\slideentry {3}{2}{2}{25/25}{Linked Lists}{0}}}
\@writefile{nav}{\headcommand {\beamer@framepages {25}{25}}}
\newlabeldata{mcid-377}{{tagabspage}{26}{tagmcabs}{377}{tagmcid}{8}}
\newlabeldata{l3pdf327}{{abspage}{26}}
\newlabeldata{mcid-378}{{tagabspage}{26}{tagmcabs}{378}{tagmcid}{9}}
\newlabeldata{l3pdf328}{{abspage}{26}}
\newlabeldata{mcid-379}{{tagabspage}{26}{tagmcabs}{379}{tagmcid}{10}}
\newlabeldata{l3pdf329}{{abspage}{26}}
\newlabeldata{mcid-369}{{tagabspage}{26}{tagmcabs}{369}{tagmcid}{0}}
\newlabeldata{l3pdf319}{{abspage}{26}}
\newlabeldata{mcid-370}{{tagabspage}{26}{tagmcabs}{370}{tagmcid}{1}}
\newlabeldata{l3pdf320}{{abspage}{26}}
\newlabeldata{mcid-371}{{tagabspage}{26}{tagmcabs}{371}{tagmcid}{2}}
\newlabeldata{l3pdf321}{{abspage}{26}}
\newlabeldata{mcid-372}{{tagabspage}{26}{tagmcabs}{372}{tagmcid}{3}}
\newlabeldata{l3pdf322}{{abspage}{26}}
\newlabeldata{mcid-373}{{tagabspage}{26}{tagmcabs}{373}{tagmcid}{4}}
\newlabeldata{l3pdf323}{{abspage}{26}}
\newlabeldata{mcid-374}{{tagabspage}{26}{tagmcabs}{374}{tagmcid}{5}}
\newlabeldata{l3pdf324}{{abspage}{26}}
\newlabeldata{mcid-375}{{tagabspage}{26}{tagmcabs}{375}{tagmcid}{6}}
\newlabeldata{l3pdf325}{{abspage}{26}}
\newlabeldata{mcid-376}{{tagabspage}{26}{tagmcabs}{376}{tagmcid}{7}}
\newlabeldata{l3pdf326}{{abspage}{26}}
\@writefile{nav}{\headcommand {\slideentry {3}{2}{3}{26/26}{Linked Lists}{0}}}
\@writefile{nav}{\headcommand {\beamer@framepages {26}{26}}}
\newlabeldata{mcid-384}{{tagabspage}{27}{tagmcabs}{384}{tagmcid}{2}}
\newlabeldata{l3pdf332}{{abspage}{27}}
\newlabeldata{mcid-385}{{tagabspage}{27}{tagmcabs}{385}{tagmcid}{3}}
\newlabeldata{l3pdf333}{{abspage}{27}}
\newlabeldata{mcid-386}{{tagabspage}{27}{tagmcabs}{386}{tagmcid}{4}}
\newlabeldata{l3pdf334}{{abspage}{27}}
\newlabeldata{mcid-382}{{tagabspage}{27}{tagmcabs}{382}{tagmcid}{0}}
\newlabeldata{l3pdf330}{{abspage}{27}}
\newlabeldata{mcid-383}{{tagabspage}{27}{tagmcabs}{383}{tagmcid}{1}}
\newlabeldata{l3pdf331}{{abspage}{27}}
\@writefile{nav}{\headcommand {\slideentry {3}{2}{4}{27/27}{Linked Lists}{0}}}
\@writefile{nav}{\headcommand {\beamer@framepages {27}{27}}}
\newlabeldata{mcid-393}{{tagabspage}{28}{tagmcabs}{393}{tagmcid}{4}}
\newlabeldata{l3pdf339}{{abspage}{28}}
\newlabeldata{mcid-394}{{tagabspage}{28}{tagmcabs}{394}{tagmcid}{5}}
\newlabeldata{l3pdf340}{{abspage}{28}}
\newlabeldata{mcid-395}{{tagabspage}{28}{tagmcabs}{395}{tagmcid}{6}}
\newlabeldata{l3pdf341}{{abspage}{28}}
\newlabeldata{mcid-389}{{tagabspage}{28}{tagmcabs}{389}{tagmcid}{0}}
\newlabeldata{l3pdf335}{{abspage}{28}}
\newlabeldata{mcid-390}{{tagabspage}{28}{tagmcabs}{390}{tagmcid}{1}}
\newlabeldata{l3pdf336}{{abspage}{28}}
\newlabeldata{mcid-391}{{tagabspage}{28}{tagmcabs}{391}{tagmcid}{2}}
\newlabeldata{l3pdf337}{{abspage}{28}}
\newlabeldata{mcid-392}{{tagabspage}{28}{tagmcabs}{392}{tagmcid}{3}}
\newlabeldata{l3pdf338}{{abspage}{28}}
\@writefile{nav}{\headcommand {\slideentry {3}{2}{5}{28/28}{Linked Lists}{0}}}
\@writefile{nav}{\headcommand {\beamer@framepages {28}{28}}}
\newlabeldata{mcid-400}{{tagabspage}{29}{tagmcabs}{400}{tagmcid}{2}}
\newlabeldata{l3pdf344}{{abspage}{29}}
\newlabeldata{mcid-401}{{tagabspage}{29}{tagmcabs}{401}{tagmcid}{3}}
\newlabeldata{l3pdf345}{{abspage}{29}}
\newlabeldata{mcid-402}{{tagabspage}{29}{tagmcabs}{402}{tagmcid}{4}}
\newlabeldata{l3pdf346}{{abspage}{29}}
\newlabeldata{mcid-398}{{tagabspage}{29}{tagmcabs}{398}{tagmcid}{0}}
\newlabeldata{l3pdf342}{{abspage}{29}}
\newlabeldata{mcid-399}{{tagabspage}{29}{tagmcabs}{399}{tagmcid}{1}}
\newlabeldata{l3pdf343}{{abspage}{29}}
\@writefile{nav}{\headcommand {\slideentry {3}{2}{6}{29/29}{Linked Lists}{0}}}
\@writefile{nav}{\headcommand {\beamer@framepages {29}{29}}}
\newlabeldata{mcid-407}{{tagabspage}{30}{tagmcabs}{407}{tagmcid}{2}}
\newlabeldata{l3pdf349}{{abspage}{30}}
\newlabeldata{mcid-408}{{tagabspage}{30}{tagmcabs}{408}{tagmcid}{3}}
\newlabeldata{l3pdf350}{{abspage}{30}}
\newlabeldata{mcid-409}{{tagabspage}{30}{tagmcabs}{409}{tagmcid}{4}}
\newlabeldata{l3pdf351}{{abspage}{30}}
\newlabeldata{mcid-405}{{tagabspage}{30}{tagmcabs}{405}{tagmcid}{0}}
\newlabeldata{l3pdf347}{{abspage}{30}}
\newlabeldata{mcid-406}{{tagabspage}{30}{tagmcabs}{406}{tagmcid}{1}}
\newlabeldata{l3pdf348}{{abspage}{30}}
\@writefile{nav}{\headcommand {\slideentry {3}{2}{7}{30/30}{Linked Lists}{0}}}
\@writefile{nav}{\headcommand {\beamer@framepages {30}{30}}}
\newlabeldata{mcid-414}{{tagabspage}{31}{tagmcabs}{414}{tagmcid}{2}}
\newlabeldata{l3pdf354}{{abspage}{31}}
\newlabeldata{mcid-415}{{tagabspage}{31}{tagmcabs}{415}{tagmcid}{3}}
\newlabeldata{l3pdf355}{{abspage}{31}}
\newlabeldata{mcid-416}{{tagabspage}{31}{tagmcabs}{416}{tagmcid}{4}}
\newlabeldata{l3pdf356}{{abspage}{31}}
\newlabeldata{mcid-412}{{tagabspage}{31}{tagmcabs}{412}{tagmcid}{0}}
\newlabeldata{l3pdf352}{{abspage}{31}}
\newlabeldata{mcid-413}{{tagabspage}{31}{tagmcabs}{413}{tagmcid}{1}}
\newlabeldata{l3pdf353}{{abspage}{31}}
\@writefile{nav}{\headcommand {\slideentry {3}{2}{8}{31/31}{Linked Lists}{0}}}
\@writefile{nav}{\headcommand {\beamer@framepages {31}{31}}}
\newlabeldata{mcid-425}{{tagabspage}{32}{tagmcabs}{425}{tagmcid}{6}}
\newlabeldata{l3pdf363}{{abspage}{32}}
\newlabeldata{mcid-426}{{tagabspage}{32}{tagmcabs}{426}{tagmcid}{7}}
\newlabeldata{l3pdf364}{{abspage}{32}}
\newlabeldata{mcid-427}{{tagabspage}{32}{tagmcabs}{427}{tagmcid}{8}}
\newlabeldata{l3pdf365}{{abspage}{32}}
\newlabeldata{mcid-419}{{tagabspage}{32}{tagmcabs}{419}{tagmcid}{0}}
\newlabeldata{l3pdf357}{{abspage}{32}}
\newlabeldata{mcid-420}{{tagabspage}{32}{tagmcabs}{420}{tagmcid}{1}}
\newlabeldata{l3pdf358}{{abspage}{32}}
\newlabeldata{mcid-421}{{tagabspage}{32}{tagmcabs}{421}{tagmcid}{2}}
\newlabeldata{l3pdf359}{{abspage}{32}}
\newlabeldata{mcid-422}{{tagabspage}{32}{tagmcabs}{422}{tagmcid}{3}}
\newlabeldata{l3pdf360}{{abspage}{32}}
\newlabeldata{mcid-423}{{tagabspage}{32}{tagmcabs}{423}{tagmcid}{4}}
\newlabeldata{l3pdf361}{{abspage}{32}}
\newlabeldata{mcid-424}{{tagabspage}{32}{tagmcabs}{424}{tagmcid}{5}}
\newlabeldata{l3pdf362}{{abspage}{32}}
\@writefile{nav}{\headcommand {\slideentry {3}{2}{9}{32/32}{Linked Lists}{0}}}
\@writefile{nav}{\headcommand {\beamer@framepages {32}{32}}}
\BKM@entry{id=8,open,dest={4F75746C696E65302E332E332E3333},srcline={562}}{5C3337365C3337375C303030545C303030615C3030306B5C303030655C303030615C303030775C303030615C303030795C303030735C3030305C3034305C303030615C303030625C3030306F5C303030755C303030745C3030305C3034305C303030445C303030615C303030745C303030615C3030305C3034305C303030535C303030745C303030725C303030755C303030635C303030745C303030755C303030725C303030655C30303073}
\@writefile{toc}{\beamer@subsectionintoc {3}{3}{Takeaways about Data Structures}{33}{0}{3}}
\@writefile{nav}{\headcommand {\beamer@subsectionpages {24}{32}}}
\@writefile{nav}{\headcommand {\beamer@subsectionentry {0}{3}{3}{33}{Takeaways about Data Structures}}}
\newlabeldata{mcid-439}{{tagabspage}{33}{tagmcabs}{439}{tagmcid}{9}}
\newlabeldata{l3pdf375}{{abspage}{33}}
\newlabeldata{mcid-440}{{tagabspage}{33}{tagmcabs}{440}{tagmcid}{10}}
\newlabeldata{l3pdf376}{{abspage}{33}}
\newlabeldata{mcid-441}{{tagabspage}{33}{tagmcabs}{441}{tagmcid}{11}}
\newlabeldata{l3pdf377}{{abspage}{33}}
\newlabeldata{mcid-430}{{tagabspage}{33}{tagmcabs}{430}{tagmcid}{0}}
\newlabeldata{l3pdf366}{{abspage}{33}}
\newlabeldata{mcid-431}{{tagabspage}{33}{tagmcabs}{431}{tagmcid}{1}}
\newlabeldata{l3pdf367}{{abspage}{33}}
\newlabeldata{mcid-432}{{tagabspage}{33}{tagmcabs}{432}{tagmcid}{2}}
\newlabeldata{l3pdf368}{{abspage}{33}}
\newlabeldata{mcid-433}{{tagabspage}{33}{tagmcabs}{433}{tagmcid}{3}}
\newlabeldata{l3pdf369}{{abspage}{33}}
\newlabeldata{mcid-434}{{tagabspage}{33}{tagmcabs}{434}{tagmcid}{4}}
\newlabeldata{l3pdf370}{{abspage}{33}}
\newlabeldata{mcid-435}{{tagabspage}{33}{tagmcabs}{435}{tagmcid}{5}}
\newlabeldata{l3pdf371}{{abspage}{33}}
\newlabeldata{mcid-436}{{tagabspage}{33}{tagmcabs}{436}{tagmcid}{6}}
\newlabeldata{l3pdf372}{{abspage}{33}}
\newlabeldata{mcid-437}{{tagabspage}{33}{tagmcabs}{437}{tagmcid}{7}}
\newlabeldata{l3pdf373}{{abspage}{33}}
\newlabeldata{mcid-438}{{tagabspage}{33}{tagmcabs}{438}{tagmcid}{8}}
\newlabeldata{l3pdf374}{{abspage}{33}}
\@writefile{nav}{\headcommand {\slideentry {3}{3}{1}{33/33}{Takeaways about Data Structures}{0}}}
\@writefile{nav}{\headcommand {\beamer@framepages {33}{33}}}
\BKM@entry{id=9,open,dest={4F75746C696E65302E34},srcline={707}}{5C3337365C3337375C303030555C303030735C303030655C303030665C303030755C3030306C5C3030305C3034305C3030304C5C303030695C3030306E5C3030306B5C303030655C303030645C3030305C3034305C3030304C5C303030695C303030735C303030745C3030305C3034305C303030505C303030615C303030745C303030745C303030655C303030725C3030306E5C30303073}
\@writefile{toc}{\beamer@sectionintoc {4}{Useful Linked List Patterns}{34}{0}{4}}
\@writefile{nav}{\headcommand {\beamer@sectionpages {15}{33}}}
\@writefile{nav}{\headcommand {\beamer@subsectionpages {33}{33}}}
\@writefile{nav}{\headcommand {\sectionentry {4}{Useful Linked List Patterns}{34}{Useful Linked List Patterns}{0}}}
\newlabeldata{mcid-444}{{tagabspage}{34}{tagmcabs}{444}{tagmcid}{0}}
\newlabeldata{l3pdf378}{{abspage}{34}}
\newlabeldata{mcid-445}{{tagabspage}{34}{tagmcabs}{445}{tagmcid}{1}}
\newlabeldata{l3pdf379}{{abspage}{34}}
\newlabeldata{mcid-446}{{tagabspage}{34}{tagmcabs}{446}{tagmcid}{2}}
\newlabeldata{l3pdf380}{{abspage}{34}}
\newlabeldata{mcid-447}{{tagabspage}{34}{tagmcabs}{447}{tagmcid}{3}}
\newlabeldata{l3pdf381}{{abspage}{34}}
\newlabeldata{mcid-448}{{tagabspage}{34}{tagmcabs}{448}{tagmcid}{4}}
\newlabeldata{l3pdf382}{{abspage}{34}}
\@writefile{nav}{\headcommand {\slideentry {4}{0}{1}{34/34}{}{0}}}
\@writefile{nav}{\headcommand {\beamer@framepages {34}{34}}}
\newlabeldata{mcid-482}{{tagabspage}{35}{tagmcabs}{482}{tagmcid}{31}}
\newlabeldata{l3pdf414}{{abspage}{35}}
\newlabeldata{mcid-483}{{tagabspage}{35}{tagmcabs}{483}{tagmcid}{32}}
\newlabeldata{l3pdf415}{{abspage}{35}}
\newlabeldata{mcid-484}{{tagabspage}{35}{tagmcabs}{484}{tagmcid}{33}}
\newlabeldata{l3pdf416}{{abspage}{35}}
\newlabeldata{mcid-451}{{tagabspage}{35}{tagmcabs}{451}{tagmcid}{0}}
\newlabeldata{l3pdf383}{{abspage}{35}}
\newlabeldata{mcid-452}{{tagabspage}{35}{tagmcabs}{452}{tagmcid}{1}}
\newlabeldata{l3pdf384}{{abspage}{35}}
\newlabeldata{mcid-453}{{tagabspage}{35}{tagmcabs}{453}{tagmcid}{2}}
\newlabeldata{l3pdf385}{{abspage}{35}}
\newlabeldata{mcid-454}{{tagabspage}{35}{tagmcabs}{454}{tagmcid}{3}}
\newlabeldata{l3pdf386}{{abspage}{35}}
\newlabeldata{mcid-455}{{tagabspage}{35}{tagmcabs}{455}{tagmcid}{4}}
\newlabeldata{l3pdf387}{{abspage}{35}}
\newlabeldata{mcid-456}{{tagabspage}{35}{tagmcabs}{456}{tagmcid}{5}}
\newlabeldata{l3pdf388}{{abspage}{35}}
\newlabeldata{mcid-457}{{tagabspage}{35}{tagmcabs}{457}{tagmcid}{6}}
\newlabeldata{l3pdf389}{{abspage}{35}}
\newlabeldata{mcid-458}{{tagabspage}{35}{tagmcabs}{458}{tagmcid}{7}}
\newlabeldata{l3pdf390}{{abspage}{35}}
\newlabeldata{mcid-459}{{tagabspage}{35}{tagmcabs}{459}{tagmcid}{8}}
\newlabeldata{l3pdf391}{{abspage}{35}}
\newlabeldata{mcid-460}{{tagabspage}{35}{tagmcabs}{460}{tagmcid}{9}}
\newlabeldata{l3pdf392}{{abspage}{35}}
\newlabeldata{mcid-461}{{tagabspage}{35}{tagmcabs}{461}{tagmcid}{10}}
\newlabeldata{l3pdf393}{{abspage}{35}}
\newlabeldata{mcid-462}{{tagabspage}{35}{tagmcabs}{462}{tagmcid}{11}}
\newlabeldata{l3pdf394}{{abspage}{35}}
\newlabeldata{mcid-463}{{tagabspage}{35}{tagmcabs}{463}{tagmcid}{12}}
\newlabeldata{l3pdf395}{{abspage}{35}}
\newlabeldata{mcid-464}{{tagabspage}{35}{tagmcabs}{464}{tagmcid}{13}}
\newlabeldata{l3pdf396}{{abspage}{35}}
\newlabeldata{mcid-465}{{tagabspage}{35}{tagmcabs}{465}{tagmcid}{14}}
\newlabeldata{l3pdf397}{{abspage}{35}}
\newlabeldata{mcid-466}{{tagabspage}{35}{tagmcabs}{466}{tagmcid}{15}}
\newlabeldata{l3pdf398}{{abspage}{35}}
\newlabeldata{mcid-467}{{tagabspage}{35}{tagmcabs}{467}{tagmcid}{16}}
\newlabeldata{l3pdf399}{{abspage}{35}}
\newlabeldata{mcid-468}{{tagabspage}{35}{tagmcabs}{468}{tagmcid}{17}}
\newlabeldata{l3pdf400}{{abspage}{35}}
\newlabeldata{mcid-469}{{tagabspage}{35}{tagmcabs}{469}{tagmcid}{18}}
\newlabeldata{l3pdf401}{{abspage}{35}}
\newlabeldata{mcid-470}{{tagabspage}{35}{tagmcabs}{470}{tagmcid}{19}}
\newlabeldata{l3pdf402}{{abspage}{35}}
\newlabeldata{mcid-471}{{tagabspage}{35}{tagmcabs}{471}{tagmcid}{20}}
\newlabeldata{l3pdf403}{{abspage}{35}}
\newlabeldata{mcid-472}{{tagabspage}{35}{tagmcabs}{472}{tagmcid}{21}}
\newlabeldata{l3pdf404}{{abspage}{35}}
\newlabeldata{mcid-473}{{tagabspage}{35}{tagmcabs}{473}{tagmcid}{22}}
\newlabeldata{l3pdf405}{{abspage}{35}}
\newlabeldata{mcid-474}{{tagabspage}{35}{tagmcabs}{474}{tagmcid}{23}}
\newlabeldata{l3pdf406}{{abspage}{35}}
\newlabeldata{mcid-475}{{tagabspage}{35}{tagmcabs}{475}{tagmcid}{24}}
\newlabeldata{l3pdf407}{{abspage}{35}}
\newlabeldata{mcid-476}{{tagabspage}{35}{tagmcabs}{476}{tagmcid}{25}}
\newlabeldata{l3pdf408}{{abspage}{35}}
\newlabeldata{mcid-477}{{tagabspage}{35}{tagmcabs}{477}{tagmcid}{26}}
\newlabeldata{l3pdf409}{{abspage}{35}}
\newlabeldata{mcid-478}{{tagabspage}{35}{tagmcabs}{478}{tagmcid}{27}}
\newlabeldata{l3pdf410}{{abspage}{35}}
\newlabeldata{mcid-479}{{tagabspage}{35}{tagmcabs}{479}{tagmcid}{28}}
\newlabeldata{l3pdf411}{{abspage}{35}}
\newlabeldata{mcid-480}{{tagabspage}{35}{tagmcabs}{480}{tagmcid}{29}}
\newlabeldata{l3pdf412}{{abspage}{35}}
\newlabeldata{mcid-481}{{tagabspage}{35}{tagmcabs}{481}{tagmcid}{30}}
\newlabeldata{l3pdf413}{{abspage}{35}}
\@writefile{nav}{\headcommand {\slideentry {4}{0}{2}{35/35}{}{0}}}
\@writefile{nav}{\headcommand {\beamer@framepages {35}{35}}}
\newlabeldata{mcid-512}{{tagabspage}{36}{tagmcabs}{512}{tagmcid}{25}}
\newlabeldata{l3pdf442}{{abspage}{36}}
\newlabeldata{mcid-513}{{tagabspage}{36}{tagmcabs}{513}{tagmcid}{26}}
\newlabeldata{l3pdf443}{{abspage}{36}}
\newlabeldata{mcid-514}{{tagabspage}{36}{tagmcabs}{514}{tagmcid}{27}}
\newlabeldata{l3pdf444}{{abspage}{36}}
\newlabeldata{mcid-487}{{tagabspage}{36}{tagmcabs}{487}{tagmcid}{0}}
\newlabeldata{l3pdf417}{{abspage}{36}}
\newlabeldata{mcid-488}{{tagabspage}{36}{tagmcabs}{488}{tagmcid}{1}}
\newlabeldata{l3pdf418}{{abspage}{36}}
\newlabeldata{mcid-489}{{tagabspage}{36}{tagmcabs}{489}{tagmcid}{2}}
\newlabeldata{l3pdf419}{{abspage}{36}}
\newlabeldata{mcid-490}{{tagabspage}{36}{tagmcabs}{490}{tagmcid}{3}}
\newlabeldata{l3pdf420}{{abspage}{36}}
\newlabeldata{mcid-491}{{tagabspage}{36}{tagmcabs}{491}{tagmcid}{4}}
\newlabeldata{l3pdf421}{{abspage}{36}}
\newlabeldata{mcid-492}{{tagabspage}{36}{tagmcabs}{492}{tagmcid}{5}}
\newlabeldata{l3pdf422}{{abspage}{36}}
\newlabeldata{mcid-493}{{tagabspage}{36}{tagmcabs}{493}{tagmcid}{6}}
\newlabeldata{l3pdf423}{{abspage}{36}}
\newlabeldata{mcid-494}{{tagabspage}{36}{tagmcabs}{494}{tagmcid}{7}}
\newlabeldata{l3pdf424}{{abspage}{36}}
\newlabeldata{mcid-495}{{tagabspage}{36}{tagmcabs}{495}{tagmcid}{8}}
\newlabeldata{l3pdf425}{{abspage}{36}}
\newlabeldata{mcid-496}{{tagabspage}{36}{tagmcabs}{496}{tagmcid}{9}}
\newlabeldata{l3pdf426}{{abspage}{36}}
\newlabeldata{mcid-497}{{tagabspage}{36}{tagmcabs}{497}{tagmcid}{10}}
\newlabeldata{l3pdf427}{{abspage}{36}}
\newlabeldata{mcid-498}{{tagabspage}{36}{tagmcabs}{498}{tagmcid}{11}}
\newlabeldata{l3pdf428}{{abspage}{36}}
\newlabeldata{mcid-499}{{tagabspage}{36}{tagmcabs}{499}{tagmcid}{12}}
\newlabeldata{l3pdf429}{{abspage}{36}}
\newlabeldata{mcid-500}{{tagabspage}{36}{tagmcabs}{500}{tagmcid}{13}}
\newlabeldata{l3pdf430}{{abspage}{36}}
\newlabeldata{mcid-501}{{tagabspage}{36}{tagmcabs}{501}{tagmcid}{14}}
\newlabeldata{l3pdf431}{{abspage}{36}}
\newlabeldata{mcid-502}{{tagabspage}{36}{tagmcabs}{502}{tagmcid}{15}}
\newlabeldata{l3pdf432}{{abspage}{36}}
\newlabeldata{mcid-503}{{tagabspage}{36}{tagmcabs}{503}{tagmcid}{16}}
\newlabeldata{l3pdf433}{{abspage}{36}}
\newlabeldata{mcid-504}{{tagabspage}{36}{tagmcabs}{504}{tagmcid}{17}}
\newlabeldata{l3pdf434}{{abspage}{36}}
\newlabeldata{mcid-505}{{tagabspage}{36}{tagmcabs}{505}{tagmcid}{18}}
\newlabeldata{l3pdf435}{{abspage}{36}}
\newlabeldata{mcid-506}{{tagabspage}{36}{tagmcabs}{506}{tagmcid}{19}}
\newlabeldata{l3pdf436}{{abspage}{36}}
\newlabeldata{mcid-507}{{tagabspage}{36}{tagmcabs}{507}{tagmcid}{20}}
\newlabeldata{l3pdf437}{{abspage}{36}}
\newlabeldata{mcid-508}{{tagabspage}{36}{tagmcabs}{508}{tagmcid}{21}}
\newlabeldata{l3pdf438}{{abspage}{36}}
\newlabeldata{mcid-509}{{tagabspage}{36}{tagmcabs}{509}{tagmcid}{22}}
\newlabeldata{l3pdf439}{{abspage}{36}}
\newlabeldata{mcid-510}{{tagabspage}{36}{tagmcabs}{510}{tagmcid}{23}}
\newlabeldata{l3pdf440}{{abspage}{36}}
\newlabeldata{mcid-511}{{tagabspage}{36}{tagmcabs}{511}{tagmcid}{24}}
\newlabeldata{l3pdf441}{{abspage}{36}}
\@writefile{nav}{\headcommand {\slideentry {4}{0}{3}{36/36}{}{0}}}
\@writefile{nav}{\headcommand {\beamer@framepages {36}{36}}}
\newlabeldata{mcid-537}{{tagabspage}{37}{tagmcabs}{537}{tagmcid}{20}}
\newlabeldata{l3pdf465}{{abspage}{37}}
\newlabeldata{mcid-538}{{tagabspage}{37}{tagmcabs}{538}{tagmcid}{21}}
\newlabeldata{l3pdf466}{{abspage}{37}}
\newlabeldata{mcid-539}{{tagabspage}{37}{tagmcabs}{539}{tagmcid}{22}}
\newlabeldata{l3pdf467}{{abspage}{37}}
\newlabeldata{mcid-517}{{tagabspage}{37}{tagmcabs}{517}{tagmcid}{0}}
\newlabeldata{l3pdf445}{{abspage}{37}}
\newlabeldata{mcid-518}{{tagabspage}{37}{tagmcabs}{518}{tagmcid}{1}}
\newlabeldata{l3pdf446}{{abspage}{37}}
\newlabeldata{mcid-519}{{tagabspage}{37}{tagmcabs}{519}{tagmcid}{2}}
\newlabeldata{l3pdf447}{{abspage}{37}}
\newlabeldata{mcid-520}{{tagabspage}{37}{tagmcabs}{520}{tagmcid}{3}}
\newlabeldata{l3pdf448}{{abspage}{37}}
\newlabeldata{mcid-521}{{tagabspage}{37}{tagmcabs}{521}{tagmcid}{4}}
\newlabeldata{l3pdf449}{{abspage}{37}}
\newlabeldata{mcid-522}{{tagabspage}{37}{tagmcabs}{522}{tagmcid}{5}}
\newlabeldata{l3pdf450}{{abspage}{37}}
\newlabeldata{mcid-523}{{tagabspage}{37}{tagmcabs}{523}{tagmcid}{6}}
\newlabeldata{l3pdf451}{{abspage}{37}}
\newlabeldata{mcid-524}{{tagabspage}{37}{tagmcabs}{524}{tagmcid}{7}}
\newlabeldata{l3pdf452}{{abspage}{37}}
\newlabeldata{mcid-525}{{tagabspage}{37}{tagmcabs}{525}{tagmcid}{8}}
\newlabeldata{l3pdf453}{{abspage}{37}}
\newlabeldata{mcid-526}{{tagabspage}{37}{tagmcabs}{526}{tagmcid}{9}}
\newlabeldata{l3pdf454}{{abspage}{37}}
\newlabeldata{mcid-527}{{tagabspage}{37}{tagmcabs}{527}{tagmcid}{10}}
\newlabeldata{l3pdf455}{{abspage}{37}}
\newlabeldata{mcid-528}{{tagabspage}{37}{tagmcabs}{528}{tagmcid}{11}}
\newlabeldata{l3pdf456}{{abspage}{37}}
\newlabeldata{mcid-529}{{tagabspage}{37}{tagmcabs}{529}{tagmcid}{12}}
\newlabeldata{l3pdf457}{{abspage}{37}}
\newlabeldata{mcid-530}{{tagabspage}{37}{tagmcabs}{530}{tagmcid}{13}}
\newlabeldata{l3pdf458}{{abspage}{37}}
\newlabeldata{mcid-531}{{tagabspage}{37}{tagmcabs}{531}{tagmcid}{14}}
\newlabeldata{l3pdf459}{{abspage}{37}}
\newlabeldata{mcid-532}{{tagabspage}{37}{tagmcabs}{532}{tagmcid}{15}}
\newlabeldata{l3pdf460}{{abspage}{37}}
\newlabeldata{mcid-533}{{tagabspage}{37}{tagmcabs}{533}{tagmcid}{16}}
\newlabeldata{l3pdf461}{{abspage}{37}}
\newlabeldata{mcid-534}{{tagabspage}{37}{tagmcabs}{534}{tagmcid}{17}}
\newlabeldata{l3pdf462}{{abspage}{37}}
\newlabeldata{mcid-535}{{tagabspage}{37}{tagmcabs}{535}{tagmcid}{18}}
\newlabeldata{l3pdf463}{{abspage}{37}}
\newlabeldata{mcid-536}{{tagabspage}{37}{tagmcabs}{536}{tagmcid}{19}}
\newlabeldata{l3pdf464}{{abspage}{37}}
\@writefile{nav}{\headcommand {\slideentry {4}{0}{4}{37/37}{}{0}}}
\@writefile{nav}{\headcommand {\beamer@framepages {37}{37}}}
\newlabeldata{mcid-563}{{tagabspage}{38}{tagmcabs}{563}{tagmcid}{21}}
\newlabeldata{l3pdf489}{{abspage}{38}}
\newlabeldata{mcid-564}{{tagabspage}{38}{tagmcabs}{564}{tagmcid}{22}}
\newlabeldata{l3pdf490}{{abspage}{38}}
\newlabeldata{mcid-565}{{tagabspage}{38}{tagmcabs}{565}{tagmcid}{23}}
\newlabeldata{l3pdf491}{{abspage}{38}}
\newlabeldata{mcid-542}{{tagabspage}{38}{tagmcabs}{542}{tagmcid}{0}}
\newlabeldata{l3pdf468}{{abspage}{38}}
\newlabeldata{mcid-543}{{tagabspage}{38}{tagmcabs}{543}{tagmcid}{1}}
\newlabeldata{l3pdf469}{{abspage}{38}}
\newlabeldata{mcid-544}{{tagabspage}{38}{tagmcabs}{544}{tagmcid}{2}}
\newlabeldata{l3pdf470}{{abspage}{38}}
\newlabeldata{mcid-545}{{tagabspage}{38}{tagmcabs}{545}{tagmcid}{3}}
\newlabeldata{l3pdf471}{{abspage}{38}}
\newlabeldata{mcid-546}{{tagabspage}{38}{tagmcabs}{546}{tagmcid}{4}}
\newlabeldata{l3pdf472}{{abspage}{38}}
\newlabeldata{mcid-547}{{tagabspage}{38}{tagmcabs}{547}{tagmcid}{5}}
\newlabeldata{l3pdf473}{{abspage}{38}}
\newlabeldata{mcid-548}{{tagabspage}{38}{tagmcabs}{548}{tagmcid}{6}}
\newlabeldata{l3pdf474}{{abspage}{38}}
\newlabeldata{mcid-549}{{tagabspage}{38}{tagmcabs}{549}{tagmcid}{7}}
\newlabeldata{l3pdf475}{{abspage}{38}}
\newlabeldata{mcid-550}{{tagabspage}{38}{tagmcabs}{550}{tagmcid}{8}}
\newlabeldata{l3pdf476}{{abspage}{38}}
\newlabeldata{mcid-551}{{tagabspage}{38}{tagmcabs}{551}{tagmcid}{9}}
\newlabeldata{l3pdf477}{{abspage}{38}}
\newlabeldata{mcid-552}{{tagabspage}{38}{tagmcabs}{552}{tagmcid}{10}}
\newlabeldata{l3pdf478}{{abspage}{38}}
\newlabeldata{mcid-553}{{tagabspage}{38}{tagmcabs}{553}{tagmcid}{11}}
\newlabeldata{l3pdf479}{{abspage}{38}}
\newlabeldata{mcid-554}{{tagabspage}{38}{tagmcabs}{554}{tagmcid}{12}}
\newlabeldata{l3pdf480}{{abspage}{38}}
\newlabeldata{mcid-555}{{tagabspage}{38}{tagmcabs}{555}{tagmcid}{13}}
\newlabeldata{l3pdf481}{{abspage}{38}}
\newlabeldata{mcid-556}{{tagabspage}{38}{tagmcabs}{556}{tagmcid}{14}}
\newlabeldata{l3pdf482}{{abspage}{38}}
\newlabeldata{mcid-557}{{tagabspage}{38}{tagmcabs}{557}{tagmcid}{15}}
\newlabeldata{l3pdf483}{{abspage}{38}}
\newlabeldata{mcid-558}{{tagabspage}{38}{tagmcabs}{558}{tagmcid}{16}}
\newlabeldata{l3pdf484}{{abspage}{38}}
\newlabeldata{mcid-559}{{tagabspage}{38}{tagmcabs}{559}{tagmcid}{17}}
\newlabeldata{l3pdf485}{{abspage}{38}}
\newlabeldata{mcid-560}{{tagabspage}{38}{tagmcabs}{560}{tagmcid}{18}}
\newlabeldata{l3pdf486}{{abspage}{38}}
\newlabeldata{mcid-561}{{tagabspage}{38}{tagmcabs}{561}{tagmcid}{19}}
\newlabeldata{l3pdf487}{{abspage}{38}}
\newlabeldata{mcid-562}{{tagabspage}{38}{tagmcabs}{562}{tagmcid}{20}}
\newlabeldata{l3pdf488}{{abspage}{38}}
\@writefile{nav}{\headcommand {\slideentry {4}{0}{5}{38/38}{}{0}}}
\@writefile{nav}{\headcommand {\beamer@framepages {38}{38}}}
\@writefile{nav}{\headcommand {\beamer@partpages {1}{38}}}
\@writefile{nav}{\headcommand {\beamer@subsectionpages {34}{38}}}
\@writefile{nav}{\headcommand {\beamer@sectionpages {34}{38}}}
\@writefile{nav}{\headcommand {\beamer@documentpages {38}}}
\@writefile{nav}{\headcommand {\gdef \inserttotalframenumber {38}}}
\gdef\minted@oldcachelist{,
  default.pygstyle,
  055DF8A7B52306ACE38986BD29E9E74FBC3D4F9D441B30556C589C54C207F7CD.pygtex,
  9141900019BD4A5A8019539421F7066BBC3D4F9D441B30556C589C54C207F7CD.pygtex,
  12082870C2BEF6FA6155842850220E69BC3D4F9D441B30556C589C54C207F7CD.pygtex,
  E667B8B7F149B81C67AD910B1CD7EA68BC3D4F9D441B30556C589C54C207F7CD.pygtex,
  C11796C24CCCA94FE9CBCD32BD6A504ABC3D4F9D441B30556C589C54C207F7CD.pygtex,
  56C59AA52CFAEB6B9818AB92F6167E1DBC3D4F9D441B30556C589C54C207F7CD.pygtex,
  E33ABF72A336465DAE0337CE6D8038AFBC3D4F9D441B30556C589C54C207F7CD.pygtex,
  8FF9078B15E2370B215A9614A02EAE7ABC3D4F9D441B30556C589C54C207F7CD.pygtex}
\newlabeldata{__tag_LastPage}{{abspage}{38}{tagmcabs}{567}}
\gdef\svg@ink@ver@settings{{\m@ne }{inkscape}{1}}
\gdef \@abspage@last{38}
