\relax 
\providecommand\hyper@newdestlabel[2]{}
\providecommand\HyperFirstAtBeginDocument{\AtBeginDocument}
\HyperFirstAtBeginDocument{\ifx\hyper@anchor\@undefined
\global\let\oldcontentsline\contentsline
\gdef\contentsline#1#2#3#4{\oldcontentsline{#1}{#2}{#3}}
\global\let\oldnewlabel\newlabel
\gdef\newlabel#1#2{\newlabelxx{#1}#2}
\gdef\newlabelxx#1#2#3#4#5#6{\oldnewlabel{#1}{{#2}{#3}}}
\AtEndDocument{\ifx\hyper@anchor\@undefined
\let\contentsline\oldcontentsline
\let\newlabel\oldnewlabel
\fi}
\fi}
\global\let\hyper@last\relax 
\gdef\HyperFirstAtBeginDocument#1{#1}
\providecommand\HyField@AuxAddToFields[1]{}
\providecommand\HyField@AuxAddToCoFields[2]{}
\providecommand\BKM@entry[2]{}
\newlabeldata{mcid-1}{{tagabspage}{1}{tagmcabs}{1}{tagmcid}{0}}
\newlabeldata{l3pdf1}{{abspage}{1}}
\@writefile{nav}{\headcommand {\slideentry {0}{0}{1}{1/1}{}{0}}}
\@writefile{nav}{\headcommand {\beamer@framepages {1}{1}}}
\BKM@entry{id=1,open,dest={4F75746C696E65302E31},srcline={101}}{5C3337365C3337375C3030304A5C303030655C3030306F5C303030705C303030615C303030725C303030645C303030795C3030305C3034305C303030425C3030306F5C303030615C303030725C30303064}
\@writefile{toc}{\beamer@sectionintoc {1}{Jeopardy Board}{2}{0}{1}}
\@writefile{nav}{\headcommand {\beamer@sectionpages {1}{1}}}
\@writefile{nav}{\headcommand {\beamer@subsectionpages {1}{1}}}
\@writefile{nav}{\headcommand {\sectionentry {1}{Jeopardy Board}{2}{Jeopardy Board}{0}}}
\newlabeldata{mcid-4}{{tagabspage}{2}{tagmcabs}{4}{tagmcid}{0}}
\newlabeldata{l3pdf2}{{abspage}{2}}
\newlabeldata{mcid-5}{{tagabspage}{2}{tagmcabs}{5}{tagmcid}{1}}
\newlabeldata{l3pdf3}{{abspage}{2}}
\newlabeldata{mcid-6}{{tagabspage}{2}{tagmcabs}{6}{tagmcid}{2}}
\newlabeldata{l3pdf4}{{abspage}{2}}
\newlabeldata{mcid-7}{{tagabspage}{2}{tagmcabs}{7}{tagmcid}{3}}
\newlabeldata{l3pdf5}{{abspage}{2}}
\newlabeldata{mcid-8}{{tagabspage}{2}{tagmcabs}{8}{tagmcid}{4}}
\newlabeldata{l3pdf6}{{abspage}{2}}
\newlabeldata{mcid-9}{{tagabspage}{2}{tagmcabs}{9}{tagmcid}{5}}
\newlabeldata{l3pdf7}{{abspage}{2}}
\newlabeldata{mcid-10}{{tagabspage}{2}{tagmcabs}{10}{tagmcid}{6}}
\newlabeldata{l3pdf8}{{abspage}{2}}
\newlabeldata{mcid-11}{{tagabspage}{2}{tagmcabs}{11}{tagmcid}{7}}
\newlabeldata{l3pdf9}{{abspage}{2}}
\newlabeldata{mcid-12}{{tagabspage}{2}{tagmcabs}{12}{tagmcid}{8}}
\newlabeldata{l3pdf10}{{abspage}{2}}
\newlabeldata{mcid-13}{{tagabspage}{2}{tagmcabs}{13}{tagmcid}{9}}
\newlabeldata{l3pdf11}{{abspage}{2}}
\newlabeldata{mcid-14}{{tagabspage}{2}{tagmcabs}{14}{tagmcid}{10}}
\newlabeldata{l3pdf12}{{abspage}{2}}
\newlabeldata{mcid-15}{{tagabspage}{2}{tagmcabs}{15}{tagmcid}{11}}
\newlabeldata{l3pdf13}{{abspage}{2}}
\newlabeldata{mcid-16}{{tagabspage}{2}{tagmcabs}{16}{tagmcid}{12}}
\newlabeldata{l3pdf14}{{abspage}{2}}
\newlabeldata{mcid-17}{{tagabspage}{2}{tagmcabs}{17}{tagmcid}{13}}
\newlabeldata{l3pdf15}{{abspage}{2}}
\newlabeldata{mcid-18}{{tagabspage}{2}{tagmcabs}{18}{tagmcid}{14}}
\newlabeldata{l3pdf16}{{abspage}{2}}
\newlabeldata{mcid-19}{{tagabspage}{2}{tagmcabs}{19}{tagmcid}{15}}
\newlabeldata{l3pdf17}{{abspage}{2}}
\newlabeldata{mcid-20}{{tagabspage}{2}{tagmcabs}{20}{tagmcid}{16}}
\newlabeldata{l3pdf18}{{abspage}{2}}
\newlabeldata{mcid-21}{{tagabspage}{2}{tagmcabs}{21}{tagmcid}{17}}
\newlabeldata{l3pdf19}{{abspage}{2}}
\newlabeldata{mcid-22}{{tagabspage}{2}{tagmcabs}{22}{tagmcid}{18}}
\newlabeldata{l3pdf20}{{abspage}{2}}
\newlabeldata{mcid-23}{{tagabspage}{2}{tagmcabs}{23}{tagmcid}{19}}
\newlabeldata{l3pdf21}{{abspage}{2}}
\newlabeldata{mcid-24}{{tagabspage}{2}{tagmcabs}{24}{tagmcid}{20}}
\newlabeldata{l3pdf22}{{abspage}{2}}
\newlabeldata{mcid-25}{{tagabspage}{2}{tagmcabs}{25}{tagmcid}{21}}
\newlabeldata{l3pdf23}{{abspage}{2}}
\newlabeldata{mcid-26}{{tagabspage}{2}{tagmcabs}{26}{tagmcid}{22}}
\newlabeldata{l3pdf24}{{abspage}{2}}
\newlabeldata{mcid-27}{{tagabspage}{2}{tagmcabs}{27}{tagmcid}{23}}
\newlabeldata{l3pdf25}{{abspage}{2}}
\@writefile{nav}{\headcommand {\slideentry {1}{0}{1}{2/2}{}{0}}}
\@writefile{nav}{\headcommand {\beamer@framepages {2}{2}}}
\BKM@entry{id=2,open,dest={4F75746C696E65302E32},srcline={117}}{5C3337365C3337375C303030435C3030306F5C3030306E5C303030635C303030755C303030725C303030725C303030655C3030306E5C303030635C30303079}
\@writefile{toc}{\beamer@sectionintoc {2}{Concurrency}{3}{0}{2}}
\@writefile{nav}{\headcommand {\beamer@sectionpages {2}{2}}}
\@writefile{nav}{\headcommand {\beamer@subsectionpages {2}{2}}}
\@writefile{nav}{\headcommand {\sectionentry {2}{Concurrency}{3}{Concurrency}{0}}}
\newlabeldata{mcid-55}{{tagabspage}{3}{tagmcabs}{55}{tagmcid}{25}}
\newlabeldata{l3pdf51}{{abspage}{3}}
\newlabeldata{mcid-30}{{tagabspage}{3}{tagmcabs}{30}{tagmcid}{0}}
\newlabeldata{l3pdf26}{{abspage}{3}}
\newlabeldata{mcid-31}{{tagabspage}{3}{tagmcabs}{31}{tagmcid}{1}}
\newlabeldata{l3pdf27}{{abspage}{3}}
\newlabeldata{mcid-32}{{tagabspage}{3}{tagmcabs}{32}{tagmcid}{2}}
\newlabeldata{l3pdf28}{{abspage}{3}}
\newlabeldata{mcid-33}{{tagabspage}{3}{tagmcabs}{33}{tagmcid}{3}}
\newlabeldata{l3pdf29}{{abspage}{3}}
\newlabeldata{mcid-34}{{tagabspage}{3}{tagmcabs}{34}{tagmcid}{4}}
\newlabeldata{l3pdf30}{{abspage}{3}}
\newlabeldata{mcid-35}{{tagabspage}{3}{tagmcabs}{35}{tagmcid}{5}}
\newlabeldata{l3pdf31}{{abspage}{3}}
\newlabeldata{mcid-36}{{tagabspage}{3}{tagmcabs}{36}{tagmcid}{6}}
\newlabeldata{l3pdf32}{{abspage}{3}}
\newlabeldata{mcid-37}{{tagabspage}{3}{tagmcabs}{37}{tagmcid}{7}}
\newlabeldata{l3pdf33}{{abspage}{3}}
\newlabeldata{mcid-38}{{tagabspage}{3}{tagmcabs}{38}{tagmcid}{8}}
\newlabeldata{l3pdf34}{{abspage}{3}}
\newlabeldata{mcid-39}{{tagabspage}{3}{tagmcabs}{39}{tagmcid}{9}}
\newlabeldata{l3pdf35}{{abspage}{3}}
\newlabeldata{mcid-40}{{tagabspage}{3}{tagmcabs}{40}{tagmcid}{10}}
\newlabeldata{l3pdf36}{{abspage}{3}}
\newlabeldata{mcid-41}{{tagabspage}{3}{tagmcabs}{41}{tagmcid}{11}}
\newlabeldata{l3pdf37}{{abspage}{3}}
\newlabeldata{mcid-42}{{tagabspage}{3}{tagmcabs}{42}{tagmcid}{12}}
\newlabeldata{l3pdf38}{{abspage}{3}}
\newlabeldata{mcid-43}{{tagabspage}{3}{tagmcabs}{43}{tagmcid}{13}}
\newlabeldata{l3pdf39}{{abspage}{3}}
\newlabeldata{mcid-44}{{tagabspage}{3}{tagmcabs}{44}{tagmcid}{14}}
\newlabeldata{l3pdf40}{{abspage}{3}}
\newlabeldata{mcid-45}{{tagabspage}{3}{tagmcabs}{45}{tagmcid}{15}}
\newlabeldata{l3pdf41}{{abspage}{3}}
\newlabeldata{mcid-46}{{tagabspage}{3}{tagmcabs}{46}{tagmcid}{16}}
\newlabeldata{l3pdf42}{{abspage}{3}}
\newlabeldata{mcid-47}{{tagabspage}{3}{tagmcabs}{47}{tagmcid}{17}}
\newlabeldata{l3pdf43}{{abspage}{3}}
\newlabeldata{mcid-48}{{tagabspage}{3}{tagmcabs}{48}{tagmcid}{18}}
\newlabeldata{l3pdf44}{{abspage}{3}}
\newlabeldata{mcid-49}{{tagabspage}{3}{tagmcabs}{49}{tagmcid}{19}}
\newlabeldata{l3pdf45}{{abspage}{3}}
\newlabeldata{mcid-50}{{tagabspage}{3}{tagmcabs}{50}{tagmcid}{20}}
\newlabeldata{l3pdf46}{{abspage}{3}}
\newlabeldata{mcid-51}{{tagabspage}{3}{tagmcabs}{51}{tagmcid}{21}}
\newlabeldata{l3pdf47}{{abspage}{3}}
\newlabeldata{mcid-52}{{tagabspage}{3}{tagmcabs}{52}{tagmcid}{22}}
\newlabeldata{l3pdf48}{{abspage}{3}}
\newlabeldata{mcid-53}{{tagabspage}{3}{tagmcabs}{53}{tagmcid}{23}}
\newlabeldata{l3pdf49}{{abspage}{3}}
\newlabeldata{mcid-54}{{tagabspage}{3}{tagmcabs}{54}{tagmcid}{24}}
\newlabeldata{l3pdf50}{{abspage}{3}}
\@writefile{nav}{\headcommand {\slideentry {2}{0}{1}{3/3}{}{0}}}
\@writefile{nav}{\headcommand {\beamer@framepages {3}{3}}}
\newlabeldata{mcid-59}{{tagabspage}{4}{tagmcabs}{59}{tagmcid}{1}}
\newlabeldata{l3pdf53}{{abspage}{4}}
\newlabeldata{mcid-58}{{tagabspage}{4}{tagmcabs}{58}{tagmcid}{0}}
\newlabeldata{l3pdf52}{{abspage}{4}}
\@writefile{nav}{\headcommand {\slideentry {2}{0}{2}{4/4}{}{0}}}
\@writefile{nav}{\headcommand {\beamer@framepages {4}{4}}}
\newlabeldata{mcid-82}{{tagabspage}{5}{tagmcabs}{82}{tagmcid}{20}}
\newlabeldata{l3pdf74}{{abspage}{5}}
\newlabeldata{mcid-62}{{tagabspage}{5}{tagmcabs}{62}{tagmcid}{0}}
\newlabeldata{l3pdf54}{{abspage}{5}}
\newlabeldata{mcid-63}{{tagabspage}{5}{tagmcabs}{63}{tagmcid}{1}}
\newlabeldata{l3pdf55}{{abspage}{5}}
\newlabeldata{mcid-64}{{tagabspage}{5}{tagmcabs}{64}{tagmcid}{2}}
\newlabeldata{l3pdf56}{{abspage}{5}}
\newlabeldata{mcid-65}{{tagabspage}{5}{tagmcabs}{65}{tagmcid}{3}}
\newlabeldata{l3pdf57}{{abspage}{5}}
\newlabeldata{mcid-66}{{tagabspage}{5}{tagmcabs}{66}{tagmcid}{4}}
\newlabeldata{l3pdf58}{{abspage}{5}}
\newlabeldata{mcid-67}{{tagabspage}{5}{tagmcabs}{67}{tagmcid}{5}}
\newlabeldata{l3pdf59}{{abspage}{5}}
\newlabeldata{mcid-68}{{tagabspage}{5}{tagmcabs}{68}{tagmcid}{6}}
\newlabeldata{l3pdf60}{{abspage}{5}}
\newlabeldata{mcid-69}{{tagabspage}{5}{tagmcabs}{69}{tagmcid}{7}}
\newlabeldata{l3pdf61}{{abspage}{5}}
\newlabeldata{mcid-70}{{tagabspage}{5}{tagmcabs}{70}{tagmcid}{8}}
\newlabeldata{l3pdf62}{{abspage}{5}}
\newlabeldata{mcid-71}{{tagabspage}{5}{tagmcabs}{71}{tagmcid}{9}}
\newlabeldata{l3pdf63}{{abspage}{5}}
\newlabeldata{mcid-72}{{tagabspage}{5}{tagmcabs}{72}{tagmcid}{10}}
\newlabeldata{l3pdf64}{{abspage}{5}}
\newlabeldata{mcid-73}{{tagabspage}{5}{tagmcabs}{73}{tagmcid}{11}}
\newlabeldata{l3pdf65}{{abspage}{5}}
\newlabeldata{mcid-74}{{tagabspage}{5}{tagmcabs}{74}{tagmcid}{12}}
\newlabeldata{l3pdf66}{{abspage}{5}}
\newlabeldata{mcid-75}{{tagabspage}{5}{tagmcabs}{75}{tagmcid}{13}}
\newlabeldata{l3pdf67}{{abspage}{5}}
\newlabeldata{mcid-76}{{tagabspage}{5}{tagmcabs}{76}{tagmcid}{14}}
\newlabeldata{l3pdf68}{{abspage}{5}}
\newlabeldata{mcid-77}{{tagabspage}{5}{tagmcabs}{77}{tagmcid}{15}}
\newlabeldata{l3pdf69}{{abspage}{5}}
\newlabeldata{mcid-78}{{tagabspage}{5}{tagmcabs}{78}{tagmcid}{16}}
\newlabeldata{l3pdf70}{{abspage}{5}}
\newlabeldata{mcid-79}{{tagabspage}{5}{tagmcabs}{79}{tagmcid}{17}}
\newlabeldata{l3pdf71}{{abspage}{5}}
\newlabeldata{mcid-80}{{tagabspage}{5}{tagmcabs}{80}{tagmcid}{18}}
\newlabeldata{l3pdf72}{{abspage}{5}}
\newlabeldata{mcid-81}{{tagabspage}{5}{tagmcabs}{81}{tagmcid}{19}}
\newlabeldata{l3pdf73}{{abspage}{5}}
\@writefile{nav}{\headcommand {\slideentry {2}{0}{3}{5/5}{}{0}}}
\@writefile{nav}{\headcommand {\beamer@framepages {5}{5}}}
\newlabeldata{mcid-105}{{tagabspage}{6}{tagmcabs}{105}{tagmcid}{20}}
\newlabeldata{l3pdf95}{{abspage}{6}}
\newlabeldata{mcid-85}{{tagabspage}{6}{tagmcabs}{85}{tagmcid}{0}}
\newlabeldata{l3pdf75}{{abspage}{6}}
\newlabeldata{mcid-86}{{tagabspage}{6}{tagmcabs}{86}{tagmcid}{1}}
\newlabeldata{l3pdf76}{{abspage}{6}}
\newlabeldata{mcid-87}{{tagabspage}{6}{tagmcabs}{87}{tagmcid}{2}}
\newlabeldata{l3pdf77}{{abspage}{6}}
\newlabeldata{mcid-88}{{tagabspage}{6}{tagmcabs}{88}{tagmcid}{3}}
\newlabeldata{l3pdf78}{{abspage}{6}}
\newlabeldata{mcid-89}{{tagabspage}{6}{tagmcabs}{89}{tagmcid}{4}}
\newlabeldata{l3pdf79}{{abspage}{6}}
\newlabeldata{mcid-90}{{tagabspage}{6}{tagmcabs}{90}{tagmcid}{5}}
\newlabeldata{l3pdf80}{{abspage}{6}}
\newlabeldata{mcid-91}{{tagabspage}{6}{tagmcabs}{91}{tagmcid}{6}}
\newlabeldata{l3pdf81}{{abspage}{6}}
\newlabeldata{mcid-92}{{tagabspage}{6}{tagmcabs}{92}{tagmcid}{7}}
\newlabeldata{l3pdf82}{{abspage}{6}}
\newlabeldata{mcid-93}{{tagabspage}{6}{tagmcabs}{93}{tagmcid}{8}}
\newlabeldata{l3pdf83}{{abspage}{6}}
\newlabeldata{mcid-94}{{tagabspage}{6}{tagmcabs}{94}{tagmcid}{9}}
\newlabeldata{l3pdf84}{{abspage}{6}}
\newlabeldata{mcid-95}{{tagabspage}{6}{tagmcabs}{95}{tagmcid}{10}}
\newlabeldata{l3pdf85}{{abspage}{6}}
\newlabeldata{mcid-96}{{tagabspage}{6}{tagmcabs}{96}{tagmcid}{11}}
\newlabeldata{l3pdf86}{{abspage}{6}}
\newlabeldata{mcid-97}{{tagabspage}{6}{tagmcabs}{97}{tagmcid}{12}}
\newlabeldata{l3pdf87}{{abspage}{6}}
\newlabeldata{mcid-98}{{tagabspage}{6}{tagmcabs}{98}{tagmcid}{13}}
\newlabeldata{l3pdf88}{{abspage}{6}}
\newlabeldata{mcid-99}{{tagabspage}{6}{tagmcabs}{99}{tagmcid}{14}}
\newlabeldata{l3pdf89}{{abspage}{6}}
\newlabeldata{mcid-100}{{tagabspage}{6}{tagmcabs}{100}{tagmcid}{15}}
\newlabeldata{l3pdf90}{{abspage}{6}}
\newlabeldata{mcid-101}{{tagabspage}{6}{tagmcabs}{101}{tagmcid}{16}}
\newlabeldata{l3pdf91}{{abspage}{6}}
\newlabeldata{mcid-102}{{tagabspage}{6}{tagmcabs}{102}{tagmcid}{17}}
\newlabeldata{l3pdf92}{{abspage}{6}}
\newlabeldata{mcid-103}{{tagabspage}{6}{tagmcabs}{103}{tagmcid}{18}}
\newlabeldata{l3pdf93}{{abspage}{6}}
\newlabeldata{mcid-104}{{tagabspage}{6}{tagmcabs}{104}{tagmcid}{19}}
\newlabeldata{l3pdf94}{{abspage}{6}}
\@writefile{nav}{\headcommand {\slideentry {2}{0}{4}{6/6}{}{0}}}
\@writefile{nav}{\headcommand {\beamer@framepages {6}{6}}}
\newlabeldata{mcid-136}{{tagabspage}{7}{tagmcabs}{136}{tagmcid}{28}}
\newlabeldata{l3pdf124}{{abspage}{7}}
\newlabeldata{mcid-108}{{tagabspage}{7}{tagmcabs}{108}{tagmcid}{0}}
\newlabeldata{l3pdf96}{{abspage}{7}}
\newlabeldata{mcid-109}{{tagabspage}{7}{tagmcabs}{109}{tagmcid}{1}}
\newlabeldata{l3pdf97}{{abspage}{7}}
\newlabeldata{mcid-110}{{tagabspage}{7}{tagmcabs}{110}{tagmcid}{2}}
\newlabeldata{l3pdf98}{{abspage}{7}}
\newlabeldata{mcid-111}{{tagabspage}{7}{tagmcabs}{111}{tagmcid}{3}}
\newlabeldata{l3pdf99}{{abspage}{7}}
\newlabeldata{mcid-112}{{tagabspage}{7}{tagmcabs}{112}{tagmcid}{4}}
\newlabeldata{l3pdf100}{{abspage}{7}}
\newlabeldata{mcid-113}{{tagabspage}{7}{tagmcabs}{113}{tagmcid}{5}}
\newlabeldata{l3pdf101}{{abspage}{7}}
\newlabeldata{mcid-114}{{tagabspage}{7}{tagmcabs}{114}{tagmcid}{6}}
\newlabeldata{l3pdf102}{{abspage}{7}}
\newlabeldata{mcid-115}{{tagabspage}{7}{tagmcabs}{115}{tagmcid}{7}}
\newlabeldata{l3pdf103}{{abspage}{7}}
\newlabeldata{mcid-116}{{tagabspage}{7}{tagmcabs}{116}{tagmcid}{8}}
\newlabeldata{l3pdf104}{{abspage}{7}}
\newlabeldata{mcid-117}{{tagabspage}{7}{tagmcabs}{117}{tagmcid}{9}}
\newlabeldata{l3pdf105}{{abspage}{7}}
\newlabeldata{mcid-118}{{tagabspage}{7}{tagmcabs}{118}{tagmcid}{10}}
\newlabeldata{l3pdf106}{{abspage}{7}}
\newlabeldata{mcid-119}{{tagabspage}{7}{tagmcabs}{119}{tagmcid}{11}}
\newlabeldata{l3pdf107}{{abspage}{7}}
\newlabeldata{mcid-120}{{tagabspage}{7}{tagmcabs}{120}{tagmcid}{12}}
\newlabeldata{l3pdf108}{{abspage}{7}}
\newlabeldata{mcid-121}{{tagabspage}{7}{tagmcabs}{121}{tagmcid}{13}}
\newlabeldata{l3pdf109}{{abspage}{7}}
\newlabeldata{mcid-122}{{tagabspage}{7}{tagmcabs}{122}{tagmcid}{14}}
\newlabeldata{l3pdf110}{{abspage}{7}}
\newlabeldata{mcid-123}{{tagabspage}{7}{tagmcabs}{123}{tagmcid}{15}}
\newlabeldata{l3pdf111}{{abspage}{7}}
\newlabeldata{mcid-124}{{tagabspage}{7}{tagmcabs}{124}{tagmcid}{16}}
\newlabeldata{l3pdf112}{{abspage}{7}}
\newlabeldata{mcid-125}{{tagabspage}{7}{tagmcabs}{125}{tagmcid}{17}}
\newlabeldata{l3pdf113}{{abspage}{7}}
\newlabeldata{mcid-126}{{tagabspage}{7}{tagmcabs}{126}{tagmcid}{18}}
\newlabeldata{l3pdf114}{{abspage}{7}}
\newlabeldata{mcid-127}{{tagabspage}{7}{tagmcabs}{127}{tagmcid}{19}}
\newlabeldata{l3pdf115}{{abspage}{7}}
\newlabeldata{mcid-128}{{tagabspage}{7}{tagmcabs}{128}{tagmcid}{20}}
\newlabeldata{l3pdf116}{{abspage}{7}}
\newlabeldata{mcid-129}{{tagabspage}{7}{tagmcabs}{129}{tagmcid}{21}}
\newlabeldata{l3pdf117}{{abspage}{7}}
\newlabeldata{mcid-130}{{tagabspage}{7}{tagmcabs}{130}{tagmcid}{22}}
\newlabeldata{l3pdf118}{{abspage}{7}}
\newlabeldata{mcid-131}{{tagabspage}{7}{tagmcabs}{131}{tagmcid}{23}}
\newlabeldata{l3pdf119}{{abspage}{7}}
\newlabeldata{mcid-132}{{tagabspage}{7}{tagmcabs}{132}{tagmcid}{24}}
\newlabeldata{l3pdf120}{{abspage}{7}}
\newlabeldata{mcid-133}{{tagabspage}{7}{tagmcabs}{133}{tagmcid}{25}}
\newlabeldata{l3pdf121}{{abspage}{7}}
\newlabeldata{mcid-134}{{tagabspage}{7}{tagmcabs}{134}{tagmcid}{26}}
\newlabeldata{l3pdf122}{{abspage}{7}}
\newlabeldata{mcid-135}{{tagabspage}{7}{tagmcabs}{135}{tagmcid}{27}}
\newlabeldata{l3pdf123}{{abspage}{7}}
\@writefile{nav}{\headcommand {\slideentry {2}{0}{5}{7/7}{}{0}}}
\@writefile{nav}{\headcommand {\beamer@framepages {7}{7}}}
\newlabeldata{mcid-167}{{tagabspage}{8}{tagmcabs}{167}{tagmcid}{28}}
\newlabeldata{l3pdf153}{{abspage}{8}}
\newlabeldata{mcid-139}{{tagabspage}{8}{tagmcabs}{139}{tagmcid}{0}}
\newlabeldata{l3pdf125}{{abspage}{8}}
\newlabeldata{mcid-140}{{tagabspage}{8}{tagmcabs}{140}{tagmcid}{1}}
\newlabeldata{l3pdf126}{{abspage}{8}}
\newlabeldata{mcid-141}{{tagabspage}{8}{tagmcabs}{141}{tagmcid}{2}}
\newlabeldata{l3pdf127}{{abspage}{8}}
\newlabeldata{mcid-142}{{tagabspage}{8}{tagmcabs}{142}{tagmcid}{3}}
\newlabeldata{l3pdf128}{{abspage}{8}}
\newlabeldata{mcid-143}{{tagabspage}{8}{tagmcabs}{143}{tagmcid}{4}}
\newlabeldata{l3pdf129}{{abspage}{8}}
\newlabeldata{mcid-144}{{tagabspage}{8}{tagmcabs}{144}{tagmcid}{5}}
\newlabeldata{l3pdf130}{{abspage}{8}}
\newlabeldata{mcid-145}{{tagabspage}{8}{tagmcabs}{145}{tagmcid}{6}}
\newlabeldata{l3pdf131}{{abspage}{8}}
\newlabeldata{mcid-146}{{tagabspage}{8}{tagmcabs}{146}{tagmcid}{7}}
\newlabeldata{l3pdf132}{{abspage}{8}}
\newlabeldata{mcid-147}{{tagabspage}{8}{tagmcabs}{147}{tagmcid}{8}}
\newlabeldata{l3pdf133}{{abspage}{8}}
\newlabeldata{mcid-148}{{tagabspage}{8}{tagmcabs}{148}{tagmcid}{9}}
\newlabeldata{l3pdf134}{{abspage}{8}}
\newlabeldata{mcid-149}{{tagabspage}{8}{tagmcabs}{149}{tagmcid}{10}}
\newlabeldata{l3pdf135}{{abspage}{8}}
\newlabeldata{mcid-150}{{tagabspage}{8}{tagmcabs}{150}{tagmcid}{11}}
\newlabeldata{l3pdf136}{{abspage}{8}}
\newlabeldata{mcid-151}{{tagabspage}{8}{tagmcabs}{151}{tagmcid}{12}}
\newlabeldata{l3pdf137}{{abspage}{8}}
\newlabeldata{mcid-152}{{tagabspage}{8}{tagmcabs}{152}{tagmcid}{13}}
\newlabeldata{l3pdf138}{{abspage}{8}}
\newlabeldata{mcid-153}{{tagabspage}{8}{tagmcabs}{153}{tagmcid}{14}}
\newlabeldata{l3pdf139}{{abspage}{8}}
\newlabeldata{mcid-154}{{tagabspage}{8}{tagmcabs}{154}{tagmcid}{15}}
\newlabeldata{l3pdf140}{{abspage}{8}}
\newlabeldata{mcid-155}{{tagabspage}{8}{tagmcabs}{155}{tagmcid}{16}}
\newlabeldata{l3pdf141}{{abspage}{8}}
\newlabeldata{mcid-156}{{tagabspage}{8}{tagmcabs}{156}{tagmcid}{17}}
\newlabeldata{l3pdf142}{{abspage}{8}}
\newlabeldata{mcid-157}{{tagabspage}{8}{tagmcabs}{157}{tagmcid}{18}}
\newlabeldata{l3pdf143}{{abspage}{8}}
\newlabeldata{mcid-158}{{tagabspage}{8}{tagmcabs}{158}{tagmcid}{19}}
\newlabeldata{l3pdf144}{{abspage}{8}}
\newlabeldata{mcid-159}{{tagabspage}{8}{tagmcabs}{159}{tagmcid}{20}}
\newlabeldata{l3pdf145}{{abspage}{8}}
\newlabeldata{mcid-160}{{tagabspage}{8}{tagmcabs}{160}{tagmcid}{21}}
\newlabeldata{l3pdf146}{{abspage}{8}}
\newlabeldata{mcid-161}{{tagabspage}{8}{tagmcabs}{161}{tagmcid}{22}}
\newlabeldata{l3pdf147}{{abspage}{8}}
\newlabeldata{mcid-162}{{tagabspage}{8}{tagmcabs}{162}{tagmcid}{23}}
\newlabeldata{l3pdf148}{{abspage}{8}}
\newlabeldata{mcid-163}{{tagabspage}{8}{tagmcabs}{163}{tagmcid}{24}}
\newlabeldata{l3pdf149}{{abspage}{8}}
\newlabeldata{mcid-164}{{tagabspage}{8}{tagmcabs}{164}{tagmcid}{25}}
\newlabeldata{l3pdf150}{{abspage}{8}}
\newlabeldata{mcid-165}{{tagabspage}{8}{tagmcabs}{165}{tagmcid}{26}}
\newlabeldata{l3pdf151}{{abspage}{8}}
\newlabeldata{mcid-166}{{tagabspage}{8}{tagmcabs}{166}{tagmcid}{27}}
\newlabeldata{l3pdf152}{{abspage}{8}}
\@writefile{nav}{\headcommand {\slideentry {2}{0}{6}{8/8}{}{0}}}
\@writefile{nav}{\headcommand {\beamer@framepages {8}{8}}}
\newlabeldata{mcid-170}{{tagabspage}{9}{tagmcabs}{170}{tagmcid}{0}}
\newlabeldata{l3pdf154}{{abspage}{9}}
\@writefile{nav}{\headcommand {\slideentry {2}{0}{7}{9/9}{}{0}}}
\@writefile{nav}{\headcommand {\beamer@framepages {9}{9}}}
\newlabeldata{mcid-173}{{tagabspage}{10}{tagmcabs}{173}{tagmcid}{0}}
\newlabeldata{l3pdf155}{{abspage}{10}}
\@writefile{nav}{\headcommand {\slideentry {2}{0}{8}{10/10}{}{0}}}
\@writefile{nav}{\headcommand {\beamer@framepages {10}{10}}}
\newlabeldata{mcid-176}{{tagabspage}{11}{tagmcabs}{176}{tagmcid}{0}}
\newlabeldata{l3pdf156}{{abspage}{11}}
\@writefile{nav}{\headcommand {\slideentry {2}{0}{9}{11/11}{}{0}}}
\@writefile{nav}{\headcommand {\beamer@framepages {11}{11}}}
\newlabeldata{mcid-179}{{tagabspage}{12}{tagmcabs}{179}{tagmcid}{0}}
\newlabeldata{l3pdf157}{{abspage}{12}}
\@writefile{nav}{\headcommand {\slideentry {2}{0}{10}{12/12}{}{0}}}
\@writefile{nav}{\headcommand {\beamer@framepages {12}{12}}}
\newlabeldata{mcid-182}{{tagabspage}{13}{tagmcabs}{182}{tagmcid}{0}}
\newlabeldata{l3pdf158}{{abspage}{13}}
\@writefile{nav}{\headcommand {\slideentry {2}{0}{11}{13/13}{}{0}}}
\@writefile{nav}{\headcommand {\beamer@framepages {13}{13}}}
\newlabeldata{mcid-185}{{tagabspage}{14}{tagmcabs}{185}{tagmcid}{0}}
\newlabeldata{l3pdf159}{{abspage}{14}}
\@writefile{nav}{\headcommand {\slideentry {2}{0}{12}{14/14}{}{0}}}
\@writefile{nav}{\headcommand {\beamer@framepages {14}{14}}}
\newlabeldata{mcid-188}{{tagabspage}{15}{tagmcabs}{188}{tagmcid}{0}}
\newlabeldata{l3pdf160}{{abspage}{15}}
\@writefile{nav}{\headcommand {\slideentry {2}{0}{13}{15/15}{}{0}}}
\@writefile{nav}{\headcommand {\beamer@framepages {15}{15}}}
\newlabeldata{mcid-191}{{tagabspage}{16}{tagmcabs}{191}{tagmcid}{0}}
\newlabeldata{l3pdf161}{{abspage}{16}}
\@writefile{nav}{\headcommand {\slideentry {2}{0}{14}{16/16}{}{0}}}
\@writefile{nav}{\headcommand {\beamer@framepages {16}{16}}}
\newlabeldata{mcid-194}{{tagabspage}{17}{tagmcabs}{194}{tagmcid}{0}}
\newlabeldata{l3pdf162}{{abspage}{17}}
\@writefile{nav}{\headcommand {\slideentry {2}{0}{15}{17/17}{}{0}}}
\@writefile{nav}{\headcommand {\beamer@framepages {17}{17}}}
\newlabeldata{mcid-197}{{tagabspage}{18}{tagmcabs}{197}{tagmcid}{0}}
\newlabeldata{l3pdf163}{{abspage}{18}}
\@writefile{nav}{\headcommand {\slideentry {2}{0}{16}{18/18}{}{0}}}
\@writefile{nav}{\headcommand {\beamer@framepages {18}{18}}}
\newlabeldata{mcid-200}{{tagabspage}{19}{tagmcabs}{200}{tagmcid}{0}}
\newlabeldata{l3pdf164}{{abspage}{19}}
\@writefile{nav}{\headcommand {\slideentry {2}{0}{17}{19/19}{}{0}}}
\@writefile{nav}{\headcommand {\beamer@framepages {19}{19}}}
\newlabeldata{mcid-203}{{tagabspage}{20}{tagmcabs}{203}{tagmcid}{0}}
\newlabeldata{l3pdf165}{{abspage}{20}}
\@writefile{nav}{\headcommand {\slideentry {2}{0}{18}{20/20}{}{0}}}
\@writefile{nav}{\headcommand {\beamer@framepages {20}{20}}}
\newlabeldata{mcid-206}{{tagabspage}{21}{tagmcabs}{206}{tagmcid}{0}}
\newlabeldata{l3pdf166}{{abspage}{21}}
\@writefile{nav}{\headcommand {\slideentry {2}{0}{19}{21/21}{}{0}}}
\@writefile{nav}{\headcommand {\beamer@framepages {21}{21}}}
\newlabeldata{mcid-209}{{tagabspage}{22}{tagmcabs}{209}{tagmcid}{0}}
\newlabeldata{l3pdf167}{{abspage}{22}}
\@writefile{nav}{\headcommand {\slideentry {2}{0}{20}{22/22}{}{0}}}
\@writefile{nav}{\headcommand {\beamer@framepages {22}{22}}}
\newlabeldata{mcid-212}{{tagabspage}{23}{tagmcabs}{212}{tagmcid}{0}}
\newlabeldata{l3pdf168}{{abspage}{23}}
\@writefile{nav}{\headcommand {\slideentry {2}{0}{21}{23/23}{}{0}}}
\@writefile{nav}{\headcommand {\beamer@framepages {23}{23}}}
\newlabeldata{mcid-215}{{tagabspage}{24}{tagmcabs}{215}{tagmcid}{0}}
\newlabeldata{l3pdf169}{{abspage}{24}}
\@writefile{nav}{\headcommand {\slideentry {2}{0}{22}{24/24}{}{0}}}
\@writefile{nav}{\headcommand {\beamer@framepages {24}{24}}}
\newlabeldata{mcid-218}{{tagabspage}{25}{tagmcabs}{218}{tagmcid}{0}}
\newlabeldata{l3pdf170}{{abspage}{25}}
\@writefile{nav}{\headcommand {\slideentry {2}{0}{23}{25/25}{}{0}}}
\@writefile{nav}{\headcommand {\beamer@framepages {25}{25}}}
\newlabeldata{mcid-221}{{tagabspage}{26}{tagmcabs}{221}{tagmcid}{0}}
\newlabeldata{l3pdf171}{{abspage}{26}}
\@writefile{nav}{\headcommand {\slideentry {2}{0}{24}{26/26}{}{0}}}
\@writefile{nav}{\headcommand {\beamer@framepages {26}{26}}}
\newlabeldata{mcid-224}{{tagabspage}{27}{tagmcabs}{224}{tagmcid}{0}}
\newlabeldata{l3pdf172}{{abspage}{27}}
\@writefile{nav}{\headcommand {\slideentry {2}{0}{25}{27/27}{}{0}}}
\@writefile{nav}{\headcommand {\beamer@framepages {27}{27}}}
\newlabeldata{mcid-227}{{tagabspage}{28}{tagmcabs}{227}{tagmcid}{0}}
\newlabeldata{l3pdf173}{{abspage}{28}}
\@writefile{nav}{\headcommand {\slideentry {2}{0}{26}{28/28}{}{0}}}
\@writefile{nav}{\headcommand {\beamer@framepages {28}{28}}}
\newlabeldata{mcid-230}{{tagabspage}{29}{tagmcabs}{230}{tagmcid}{0}}
\newlabeldata{l3pdf174}{{abspage}{29}}
\@writefile{nav}{\headcommand {\slideentry {2}{0}{27}{29/29}{}{0}}}
\@writefile{nav}{\headcommand {\beamer@framepages {29}{29}}}
\newlabeldata{mcid-233}{{tagabspage}{30}{tagmcabs}{233}{tagmcid}{0}}
\newlabeldata{l3pdf175}{{abspage}{30}}
\@writefile{nav}{\headcommand {\slideentry {2}{0}{28}{30/30}{}{0}}}
\@writefile{nav}{\headcommand {\beamer@framepages {30}{30}}}
\newlabeldata{mcid-236}{{tagabspage}{31}{tagmcabs}{236}{tagmcid}{0}}
\newlabeldata{l3pdf176}{{abspage}{31}}
\@writefile{nav}{\headcommand {\slideentry {2}{0}{29}{31/31}{}{0}}}
\@writefile{nav}{\headcommand {\beamer@framepages {31}{31}}}
\newlabeldata{mcid-239}{{tagabspage}{32}{tagmcabs}{239}{tagmcid}{0}}
\newlabeldata{l3pdf177}{{abspage}{32}}
\@writefile{nav}{\headcommand {\slideentry {2}{0}{30}{32/32}{}{0}}}
\@writefile{nav}{\headcommand {\beamer@framepages {32}{32}}}
\newlabeldata{mcid-242}{{tagabspage}{33}{tagmcabs}{242}{tagmcid}{0}}
\newlabeldata{l3pdf178}{{abspage}{33}}
\@writefile{nav}{\headcommand {\slideentry {2}{0}{31}{33/33}{}{0}}}
\@writefile{nav}{\headcommand {\beamer@framepages {33}{33}}}
\newlabeldata{mcid-245}{{tagabspage}{34}{tagmcabs}{245}{tagmcid}{0}}
\newlabeldata{l3pdf179}{{abspage}{34}}
\@writefile{nav}{\headcommand {\slideentry {2}{0}{32}{34/34}{}{0}}}
\@writefile{nav}{\headcommand {\beamer@framepages {34}{34}}}
\@writefile{nav}{\headcommand {\beamer@partpages {1}{34}}}
\@writefile{nav}{\headcommand {\beamer@subsectionpages {3}{34}}}
\@writefile{nav}{\headcommand {\beamer@sectionpages {3}{34}}}
\@writefile{nav}{\headcommand {\beamer@documentpages {34}}}
\@writefile{nav}{\headcommand {\gdef \inserttotalframenumber {34}}}
\gdef\minted@oldcachelist{,
  default.pygstyle,
  6756CA232E144091531CFD0B2880D126D1224263881D38975DB56B807E8BBBDB.pygtex,
  7B5C599E4C613D2D483F3F4AEABFE968D1224263881D38975DB56B807E8BBBDB.pygtex,
  7B5C599E4C613D2D483F3F4AEABFE968D1224263881D38975DB56B807E8BBBDB.pygtex,
  242D73083B243438EA60628D84F6257DD1224263881D38975DB56B807E8BBBDB.pygtex,
  242D73083B243438EA60628D84F6257DD1224263881D38975DB56B807E8BBBDB.pygtex}
\newlabeldata{__tag_LastPage}{{abspage}{34}{tagmcabs}{247}}
\gdef\svg@ink@ver@settings{{\m@ne }{inkscape}{1}}
\gdef \@abspage@last{34}
