\relax 
\providecommand\hyper@newdestlabel[2]{}
\providecommand\HyperFirstAtBeginDocument{\AtBeginDocument}
\HyperFirstAtBeginDocument{\ifx\hyper@anchor\@undefined
\global\let\oldcontentsline\contentsline
\gdef\contentsline#1#2#3#4{\oldcontentsline{#1}{#2}{#3}}
\global\let\oldnewlabel\newlabel
\gdef\newlabel#1#2{\newlabelxx{#1}#2}
\gdef\newlabelxx#1#2#3#4#5#6{\oldnewlabel{#1}{{#2}{#3}}}
\AtEndDocument{\ifx\hyper@anchor\@undefined
\let\contentsline\oldcontentsline
\let\newlabel\oldnewlabel
\fi}
\fi}
\global\let\hyper@last\relax 
\gdef\HyperFirstAtBeginDocument#1{#1}
\providecommand\HyField@AuxAddToFields[1]{}
\providecommand\HyField@AuxAddToCoFields[2]{}
\providecommand\BKM@entry[2]{}
\newlabeldata{mcid-1}{{tagabspage}{1}{tagmcabs}{1}{tagmcid}{0}}
\newlabeldata{l3pdf1}{{abspage}{1}}
\@writefile{nav}{\headcommand {\slideentry {0}{0}{1}{1/1}{}{0}}}
\@writefile{nav}{\headcommand {\beamer@framepages {1}{1}}}
\newlabeldata{mcid-19}{{tagabspage}{2}{tagmcabs}{19}{tagmcid}{9}}
\newlabeldata{l3pdf11}{{abspage}{2}}
\newlabeldata{mcid-5}{{tagabspage}{2}{tagmcabs}{5}{tagmcid}{0}}
\newlabeldata{l3pdf2}{{abspage}{2}}
\newlabeldata{mcid-6}{{tagabspage}{2}{tagmcabs}{6}{tagmcid}{1}}
\newlabeldata{l3pdf3}{{abspage}{2}}
\newlabeldata{mcid-7}{{tagabspage}{2}{tagmcabs}{7}{tagmcid}{2}}
\newlabeldata{l3pdf4}{{abspage}{2}}
\newlabeldata{mcid-10}{{tagabspage}{2}{tagmcabs}{10}{tagmcid}{3}}
\newlabeldata{l3pdf5}{{abspage}{2}}
\newlabeldata{mcid-11}{{tagabspage}{2}{tagmcabs}{11}{tagmcid}{4}}
\newlabeldata{l3pdf6}{{abspage}{2}}
\newlabeldata{mcid-12}{{tagabspage}{2}{tagmcabs}{12}{tagmcid}{5}}
\newlabeldata{l3pdf7}{{abspage}{2}}
\newlabeldata{mcid-15}{{tagabspage}{2}{tagmcabs}{15}{tagmcid}{6}}
\newlabeldata{l3pdf8}{{abspage}{2}}
\newlabeldata{mcid-16}{{tagabspage}{2}{tagmcabs}{16}{tagmcid}{7}}
\newlabeldata{l3pdf9}{{abspage}{2}}
\newlabeldata{mcid-17}{{tagabspage}{2}{tagmcabs}{17}{tagmcid}{8}}
\newlabeldata{l3pdf10}{{abspage}{2}}
\@writefile{nav}{\headcommand {\slideentry {0}{0}{2}{2/2}{}{0}}}
\@writefile{nav}{\headcommand {\beamer@framepages {2}{2}}}
\BKM@entry{id=1,open,dest={4F75746C696E65302E31},srcline={71}}{5C3337365C3337375C303030535C303030655C303030635C3030305C3034305C30303031}
\@writefile{toc}{\beamer@sectionintoc {1}{Sec 1}{3}{0}{1}}
\@writefile{nav}{\headcommand {\beamer@sectionpages {1}{2}}}
\@writefile{nav}{\headcommand {\beamer@subsectionpages {1}{2}}}
\@writefile{nav}{\headcommand {\sectionentry {1}{Sec 1}{3}{Sec 1}{0}}}
\newlabeldata{mcid-29}{{tagabspage}{3}{tagmcabs}{29}{tagmcid}{3}}
\newlabeldata{l3pdf15}{{abspage}{3}}
\newlabeldata{mcid-22}{{tagabspage}{3}{tagmcabs}{22}{tagmcid}{0}}
\newlabeldata{l3pdf12}{{abspage}{3}}
\newlabeldata{mcid-24}{{tagabspage}{3}{tagmcabs}{24}{tagmcid}{1}}
\newlabeldata{l3pdf13}{{abspage}{3}}
\newlabeldata{mcid-27}{{tagabspage}{3}{tagmcabs}{27}{tagmcid}{2}}
\newlabeldata{l3pdf14}{{abspage}{3}}
\@writefile{nav}{\headcommand {\slideentry {1}{0}{1}{3/3}{}{0}}}
\@writefile{nav}{\headcommand {\beamer@framepages {3}{3}}}
\newlabeldata{mcid-46}{{tagabspage}{4}{tagmcabs}{46}{tagmcid}{6}}
\newlabeldata{l3pdf22}{{abspage}{4}}
\newlabeldata{mcid-32}{{tagabspage}{4}{tagmcabs}{32}{tagmcid}{0}}
\newlabeldata{l3pdf16}{{abspage}{4}}
\newlabeldata{mcid-34}{{tagabspage}{4}{tagmcabs}{34}{tagmcid}{1}}
\newlabeldata{l3pdf17}{{abspage}{4}}
\newlabeldata{mcid-37}{{tagabspage}{4}{tagmcabs}{37}{tagmcid}{2}}
\newlabeldata{l3pdf18}{{abspage}{4}}
\newlabeldata{mcid-39}{{tagabspage}{4}{tagmcabs}{39}{tagmcid}{3}}
\newlabeldata{l3pdf19}{{abspage}{4}}
\newlabeldata{mcid-41}{{tagabspage}{4}{tagmcabs}{41}{tagmcid}{4}}
\newlabeldata{l3pdf20}{{abspage}{4}}
\newlabeldata{mcid-44}{{tagabspage}{4}{tagmcabs}{44}{tagmcid}{5}}
\newlabeldata{l3pdf21}{{abspage}{4}}
\@writefile{nav}{\headcommand {\slideentry {1}{0}{2}{4/4}{}{0}}}
\@writefile{nav}{\headcommand {\beamer@framepages {4}{4}}}
\BKM@entry{id=2,open,dest={4F75746C696E65302E32},srcline={101}}{5C3337365C3337375C303030635C303030685C303030615C303030705C303030745C303030655C303030725C3030305C3034305C30303032}
\@writefile{toc}{\beamer@sectionintoc {2}{chapter 2}{5}{0}{2}}
\@writefile{nav}{\headcommand {\beamer@sectionpages {3}{4}}}
\@writefile{nav}{\headcommand {\beamer@subsectionpages {3}{4}}}
\@writefile{nav}{\headcommand {\sectionentry {2}{chapter 2}{5}{chapter 2}{0}}}
\newlabeldata{mcid-103}{{tagabspage}{5}{tagmcabs}{103}{tagmcid}{22}}
\newlabeldata{l3pdf45}{{abspage}{5}}
\newlabeldata{mcid-50}{{tagabspage}{5}{tagmcabs}{50}{tagmcid}{0}}
\newlabeldata{l3pdf23}{{abspage}{5}}
\newlabeldata{mcid-52}{{tagabspage}{5}{tagmcabs}{52}{tagmcid}{1}}
\newlabeldata{l3pdf24}{{abspage}{5}}
\newlabeldata{mcid-54}{{tagabspage}{5}{tagmcabs}{54}{tagmcid}{2}}
\newlabeldata{l3pdf25}{{abspage}{5}}
\newlabeldata{mcid-57}{{tagabspage}{5}{tagmcabs}{57}{tagmcid}{3}}
\newlabeldata{l3pdf26}{{abspage}{5}}
\newlabeldata{mcid-60}{{tagabspage}{5}{tagmcabs}{60}{tagmcid}{4}}
\newlabeldata{l3pdf27}{{abspage}{5}}
\newlabeldata{mcid-63}{{tagabspage}{5}{tagmcabs}{63}{tagmcid}{5}}
\newlabeldata{l3pdf28}{{abspage}{5}}
\newlabeldata{mcid-66}{{tagabspage}{5}{tagmcabs}{66}{tagmcid}{6}}
\newlabeldata{l3pdf29}{{abspage}{5}}
\newlabeldata{mcid-69}{{tagabspage}{5}{tagmcabs}{69}{tagmcid}{7}}
\newlabeldata{l3pdf30}{{abspage}{5}}
\newlabeldata{mcid-72}{{tagabspage}{5}{tagmcabs}{72}{tagmcid}{8}}
\newlabeldata{l3pdf31}{{abspage}{5}}
\newlabeldata{mcid-75}{{tagabspage}{5}{tagmcabs}{75}{tagmcid}{9}}
\newlabeldata{l3pdf32}{{abspage}{5}}
\newlabeldata{mcid-77}{{tagabspage}{5}{tagmcabs}{77}{tagmcid}{10}}
\newlabeldata{l3pdf33}{{abspage}{5}}
\newlabeldata{mcid-79}{{tagabspage}{5}{tagmcabs}{79}{tagmcid}{11}}
\newlabeldata{l3pdf34}{{abspage}{5}}
\newlabeldata{mcid-81}{{tagabspage}{5}{tagmcabs}{81}{tagmcid}{12}}
\newlabeldata{l3pdf35}{{abspage}{5}}
\newlabeldata{mcid-83}{{tagabspage}{5}{tagmcabs}{83}{tagmcid}{13}}
\newlabeldata{l3pdf36}{{abspage}{5}}
\newlabeldata{mcid-86}{{tagabspage}{5}{tagmcabs}{86}{tagmcid}{14}}
\newlabeldata{l3pdf37}{{abspage}{5}}
\newlabeldata{mcid-89}{{tagabspage}{5}{tagmcabs}{89}{tagmcid}{15}}
\newlabeldata{l3pdf38}{{abspage}{5}}
\newlabeldata{mcid-91}{{tagabspage}{5}{tagmcabs}{91}{tagmcid}{16}}
\newlabeldata{l3pdf39}{{abspage}{5}}
\newlabeldata{mcid-93}{{tagabspage}{5}{tagmcabs}{93}{tagmcid}{17}}
\newlabeldata{l3pdf40}{{abspage}{5}}
\newlabeldata{mcid-95}{{tagabspage}{5}{tagmcabs}{95}{tagmcid}{18}}
\newlabeldata{l3pdf41}{{abspage}{5}}
\newlabeldata{mcid-97}{{tagabspage}{5}{tagmcabs}{97}{tagmcid}{19}}
\newlabeldata{l3pdf42}{{abspage}{5}}
\newlabeldata{mcid-99}{{tagabspage}{5}{tagmcabs}{99}{tagmcid}{20}}
\newlabeldata{l3pdf43}{{abspage}{5}}
\newlabeldata{mcid-101}{{tagabspage}{5}{tagmcabs}{101}{tagmcid}{21}}
\newlabeldata{l3pdf44}{{abspage}{5}}
\@writefile{nav}{\headcommand {\slideentry {2}{0}{1}{5/5}{}{0}}}
\@writefile{nav}{\headcommand {\beamer@framepages {5}{5}}}
\newlabeldata{mcid-116}{{tagabspage}{6}{tagmcabs}{116}{tagmcid}{6}}
\newlabeldata{l3pdf52}{{abspage}{6}}
\newlabeldata{mcid-106}{{tagabspage}{6}{tagmcabs}{106}{tagmcid}{0}}
\newlabeldata{l3pdf46}{{abspage}{6}}
\newlabeldata{mcid-107}{{tagabspage}{6}{tagmcabs}{107}{tagmcid}{1}}
\newlabeldata{l3pdf47}{{abspage}{6}}
\newlabeldata{mcid-109}{{tagabspage}{6}{tagmcabs}{109}{tagmcid}{2}}
\newlabeldata{l3pdf48}{{abspage}{6}}
\newlabeldata{mcid-111}{{tagabspage}{6}{tagmcabs}{111}{tagmcid}{3}}
\newlabeldata{l3pdf49}{{abspage}{6}}
\newlabeldata{mcid-112}{{tagabspage}{6}{tagmcabs}{112}{tagmcid}{4}}
\newlabeldata{l3pdf50}{{abspage}{6}}
\newlabeldata{mcid-114}{{tagabspage}{6}{tagmcabs}{114}{tagmcid}{5}}
\newlabeldata{l3pdf51}{{abspage}{6}}
\@writefile{nav}{\headcommand {\slideentry {2}{0}{2}{6/6}{}{0}}}
\@writefile{nav}{\headcommand {\beamer@framepages {6}{6}}}
\BKM@entry{id=3,open,dest={4F75746C696E65302E33},srcline={149}}{5C3337365C3337375C303030705C303030615C303030725C303030745C3030305C3034305C30303033}
\@writefile{toc}{\beamer@sectionintoc {3}{part 3}{7}{0}{3}}
\@writefile{nav}{\headcommand {\beamer@sectionpages {5}{6}}}
\@writefile{nav}{\headcommand {\beamer@subsectionpages {5}{6}}}
\@writefile{nav}{\headcommand {\sectionentry {3}{part 3}{7}{part 3}{0}}}
\newlabeldata{mcid-121}{{tagabspage}{7}{tagmcabs}{121}{tagmcid}{2}}
\newlabeldata{l3pdf55}{{abspage}{7}}
\newlabeldata{mcid-119}{{tagabspage}{7}{tagmcabs}{119}{tagmcid}{0}}
\newlabeldata{l3pdf53}{{abspage}{7}}
\newlabeldata{mcid-120}{{tagabspage}{7}{tagmcabs}{120}{tagmcid}{1}}
\newlabeldata{l3pdf54}{{abspage}{7}}
\@writefile{nav}{\headcommand {\slideentry {3}{0}{1}{7/7}{}{0}}}
\@writefile{nav}{\headcommand {\beamer@framepages {7}{7}}}
\@writefile{nav}{\headcommand {\beamer@partpages {1}{7}}}
\@writefile{nav}{\headcommand {\beamer@subsectionpages {7}{7}}}
\@writefile{nav}{\headcommand {\beamer@sectionpages {7}{7}}}
\@writefile{nav}{\headcommand {\beamer@documentpages {7}}}
\@writefile{nav}{\headcommand {\gdef \inserttotalframenumber {7}}}
\gdef\minted@oldcachelist{,
  default.pygstyle,
  B425F568A61B33847F907F59C673E38978BEF1D4AC1A863B7D0C9A3354F2E8BD.pygtex}
\newlabeldata{__tag_LastPage}{{abspage}{7}{tagmcabs}{123}}
\gdef\svg@ink@ver@settings{{\m@ne }{inkscape}{1}}
\gdef \@abspage@last{7}
